conv1x1_8layers/conv1x1_2.vcd
$date today $end
$timescale 1 ns $end
$scope module top $end
$scope module slice0 $end
$var integer 1 ! prefetch $end
$var integer 32 " prefetch_time $end
$var integer 1 # config $end
$var integer 1 $ compute $end
$var integer 32 % compute_time $end
$var integer 1 & write_back $end
$var integer 32 ' write_back_time $end
$var integer 10 ( TG_id $end
$upscope $end
$scope module slice1 $end
$var integer 1 ) prefetch $end
$var integer 32 * prefetch_time $end
$var integer 1 + config $end
$var integer 1 , compute $end
$var integer 32 - compute_time $end
$var integer 1 . write_back $end
$var integer 32 / write_back_time $end
$var integer 10 0 TG_id $end
$upscope $end
$scope module slice10 $end
$var integer 1 q prefetch $end
$var integer 32 r prefetch_time $end
$var integer 1 s config $end
$var integer 1 t compute $end
$var integer 32 u compute_time $end
$var integer 1 v write_back $end
$var integer 32 w write_back_time $end
$var integer 10 x TG_id $end
$upscope $end
$scope module slice11 $end
$var integer 1 y prefetch $end
$var integer 32 z prefetch_time $end
$var integer 1 { config $end
$var integer 1 | compute $end
$var integer 32 } compute_time $end
$var integer 1 ~ write_back $end
$var integer 32 !! write_back_time $end
$var integer 10 "! TG_id $end
$upscope $end
$scope module slice12 $end
$var integer 1 #! prefetch $end
$var integer 32 $! prefetch_time $end
$var integer 1 %! config $end
$var integer 1 &! compute $end
$var integer 32 '! compute_time $end
$var integer 1 (! write_back $end
$var integer 32 )! write_back_time $end
$var integer 10 *! TG_id $end
$upscope $end
$scope module slice13 $end
$var integer 1 +! prefetch $end
$var integer 32 ,! prefetch_time $end
$var integer 1 -! config $end
$var integer 1 .! compute $end
$var integer 32 /! compute_time $end
$var integer 1 0! write_back $end
$var integer 32 1! write_back_time $end
$var integer 10 2! TG_id $end
$upscope $end
$scope module slice14 $end
$var integer 1 3! prefetch $end
$var integer 32 4! prefetch_time $end
$var integer 1 5! config $end
$var integer 1 6! compute $end
$var integer 32 7! compute_time $end
$var integer 1 8! write_back $end
$var integer 32 9! write_back_time $end
$var integer 10 :! TG_id $end
$upscope $end
$scope module slice15 $end
$var integer 1 ;! prefetch $end
$var integer 32 <! prefetch_time $end
$var integer 1 =! config $end
$var integer 1 >! compute $end
$var integer 32 ?! compute_time $end
$var integer 1 @! write_back $end
$var integer 32 A! write_back_time $end
$var integer 10 B! TG_id $end
$upscope $end
$scope module slice2 $end
$var integer 1 1 prefetch $end
$var integer 32 2 prefetch_time $end
$var integer 1 3 config $end
$var integer 1 4 compute $end
$var integer 32 5 compute_time $end
$var integer 1 6 write_back $end
$var integer 32 7 write_back_time $end
$var integer 10 8 TG_id $end
$upscope $end
$scope module slice3 $end
$var integer 1 9 prefetch $end
$var integer 32 : prefetch_time $end
$var integer 1 ; config $end
$var integer 1 < compute $end
$var integer 32 = compute_time $end
$var integer 1 > write_back $end
$var integer 32 ? write_back_time $end
$var integer 10 @ TG_id $end
$upscope $end
$scope module slice4 $end
$var integer 1 A prefetch $end
$var integer 32 B prefetch_time $end
$var integer 1 C config $end
$var integer 1 D compute $end
$var integer 32 E compute_time $end
$var integer 1 F write_back $end
$var integer 32 G write_back_time $end
$var integer 10 H TG_id $end
$upscope $end
$scope module slice5 $end
$var integer 1 I prefetch $end
$var integer 32 J prefetch_time $end
$var integer 1 K config $end
$var integer 1 L compute $end
$var integer 32 M compute_time $end
$var integer 1 N write_back $end
$var integer 32 O write_back_time $end
$var integer 10 P TG_id $end
$upscope $end
$scope module slice6 $end
$var integer 1 Q prefetch $end
$var integer 32 R prefetch_time $end
$var integer 1 S config $end
$var integer 1 T compute $end
$var integer 32 U compute_time $end
$var integer 1 V write_back $end
$var integer 32 W write_back_time $end
$var integer 10 X TG_id $end
$upscope $end
$scope module slice7 $end
$var integer 1 Y prefetch $end
$var integer 32 Z prefetch_time $end
$var integer 1 [ config $end
$var integer 1 \ compute $end
$var integer 32 ] compute_time $end
$var integer 1 ^ write_back $end
$var integer 32 _ write_back_time $end
$var integer 10 ` TG_id $end
$upscope $end
$scope module slice8 $end
$var integer 1 a prefetch $end
$var integer 32 b prefetch_time $end
$var integer 1 c config $end
$var integer 1 d compute $end
$var integer 32 e compute_time $end
$var integer 1 f write_back $end
$var integer 32 g write_back_time $end
$var integer 10 h TG_id $end
$upscope $end
$scope module slice9 $end
$var integer 1 i prefetch $end
$var integer 32 j prefetch_time $end
$var integer 1 k config $end
$var integer 1 l compute $end
$var integer 32 m compute_time $end
$var integer 1 n write_back $end
$var integer 32 o write_back_time $end
$var integer 10 p TG_id $end
$upscope $end
$upscope $end
$enddefinitions $end
#0
$dumpvars
0!
b0 "
0#
0$
b0 %
0&
b0 '
b0 (
0)
b0 *
0+
0,
b0 -
0.
b0 /
b0 0
01
b0 2
03
04
b0 5
06
b0 7
b0 8
09
b0 :
0;
0<
b0 =
0>
b0 ?
b0 @
0A
b0 B
0C
0D
b0 E
0F
b0 G
b0 H
0I
b0 J
0K
0L
b0 M
0N
b0 O
b0 P
0Q
b0 R
0S
0T
b0 U
0V
b0 W
b0 X
0Y
b0 Z
0[
0\
b0 ]
0^
b0 _
b0 `
0a
b0 b
0c
0d
b0 e
0f
b0 g
b0 h
0i
b0 j
0k
0l
b0 m
0n
b0 o
b0 p
0q
b0 r
0s
0t
b0 u
0v
b0 w
b0 x
0y
b0 z
0{
0|
b0 }
0~
b0 !!
b0 "!
1#!
b1100101001001 $!
0%!
0&!
b0 '!
0(!
b0 )!
b0 *!
1+!
b1100101001111 ,!
0-!
0.!
b0 /!
00!
b0 1!
b0 2!
13!
b1100101010101 4!
05!
06!
b0 7!
08!
b0 9!
b0 :!
1;!
b1100101011011 <!
0=!
0>!
b0 ?!
0@!
b0 A!
b0 B!
$end
#4
1a
b1100110001101 b
1i
b1100110010011 j
1q
b1100110011001 r
1y
b1100110011111 z
#8
1A
b1100110111001 B
1I
b1100110111111 J
1Q
b1100111000101 R
1Y
b1100111001011 Z
#14
1!
b1100111001011 "
1)
b1100111010001 *
11
b1100111010111 2
19
b1100111011101 :
#6473
0#!
b0 $!
#6479
0+!
b0 ,!
#6485
03!
b0 4!
#6491
0;!
b0 <!
#6545
0a
b0 b
#6551
0i
b0 j
#6557
0q
b0 r
#6563
0y
b0 z
#6593
0A
b0 B
#6599
0I
b0 J
#6605
0Q
b0 R
#6611
0Y
b0 Z
#6617
0!
b0 "
#6623
0)
b0 *
#6629
01
b0 2
#6635
09
b0 :
#7652
1&!
b10100100110 '!
1.!
b10100100110 /!
16!
b10100100110 7!
1>!
b10100100110 ?!
#7656
1d
b10100100110 e
1l
b10100100110 m
1t
b10100100110 u
1|
b10100100110 }
#7660
1D
b10100100110 E
1L
b10100100110 M
1T
b10100100110 U
1\
b10100100110 ]
#7666
1$
b10100100110 %
1,
b10100100110 -
14
b10100100110 5
1<
b10100100110 =
#8008
1#!
b1100101110111 $!
1+!
b1100101111101 ,!
13!
b1100110000011 4!
1;!
b1100110001001 <!
#8012
1a
b1100110111011 b
1i
b1100111000001 j
1q
b1100111000111 r
1y
b1100111001101 z
#8016
1A
b1100111100111 B
1I
b1100111101101 J
1Q
b1100111110011 R
1Y
b1100111111001 Z
#8022
1!
b1100111111001 "
1)
b1100111111111 *
11
b1101000000101 2
19
b1101000001011 :
#8970
0&!
b0 '!
0.!
b0 /!
06!
b0 7!
0>!
b0 ?!
#8971
1(!
b1 )!
10!
b1 1!
18!
b1 9!
1@!
b1 A!
#8972
0(!
b0 )!
00!
b0 1!
08!
b0 9!
0@!
b0 A!
#8974
0d
b0 e
0l
b0 m
0t
b0 u
0|
b0 }
b1 *!
b1 2!
b1 :!
b1 B!
#8975
1f
b1 g
1n
b1 o
1v
b1 w
1~
b1 !!
#8976
0f
b0 g
0n
b0 o
0v
b0 w
0~
b0 !!
#8978
0D
b0 E
0L
b0 M
0T
b0 U
0\
b0 ]
b1 h
b1 p
b1 x
b1 "!
#8979
1F
b1 G
1N
b1 O
1V
b1 W
1^
b1 _
#8980
0F
b0 G
0N
b0 O
0V
b0 W
0^
b0 _
#8982
b1 H
b1 P
b1 X
b1 `
#8984
0$
b0 %
0,
b0 -
04
b0 5
0<
b0 =
#8985
1&
b1 '
1.
b1 /
16
b1 7
1>
b1 ?
#8986
0&
b0 '
0.
b0 /
06
b0 7
0>
b0 ?
#8988
b1 (
b1 0
b1 8
b1 @
#14527
0#!
b0 $!
#14533
0+!
b0 ,!
#14539
03!
b0 4!
#14545
0;!
b0 <!
#14599
0a
b0 b
#14605
0i
b0 j
#14611
0q
b0 r
#14617
0y
b0 z
#14647
0A
b0 B
#14653
0I
b0 J
#14659
0Q
b0 R
#14665
0Y
b0 Z
#14671
0!
b0 "
#14677
0)
b0 *
#14683
01
b0 2
#14689
09
b0 :
#15570
1&!
b10100100110 '!
1.!
b10100100110 /!
16!
b10100100110 7!
1>!
b10100100110 ?!
#15574
1d
b10100100110 e
1l
b10100100110 m
1t
b10100100110 u
1|
b10100100110 }
#15578
1D
b10100100110 E
1L
b10100100110 M
1T
b10100100110 U
1\
b10100100110 ]
#15584
1$
b10100100110 %
1,
b10100100110 -
14
b10100100110 5
1<
b10100100110 =
#15926
1#!
b1100101110111 $!
1+!
b1100101111101 ,!
13!
b1100110000011 4!
1;!
b1100110001001 <!
#15930
1a
b1100110111011 b
1i
b1100111000001 j
1q
b1100111000111 r
1y
b1100111001101 z
#15934
1A
b1100111100111 B
1I
b1100111101101 J
1Q
b1100111110011 R
1Y
b1100111111001 Z
#15940
1!
b1100111111001 "
1)
b1100111111111 *
11
b1101000000101 2
19
b1101000001011 :
#16888
0&!
b0 '!
0.!
b0 /!
06!
b0 7!
0>!
b0 ?!
#16889
1(!
b1 )!
10!
b1 1!
18!
b1 9!
1@!
b1 A!
#16890
0(!
b0 )!
00!
b0 1!
08!
b0 9!
0@!
b0 A!
#16892
0d
b0 e
0l
b0 m
0t
b0 u
0|
b0 }
b10 *!
b10 2!
b10 :!
b10 B!
#16893
1f
b1 g
1n
b1 o
1v
b1 w
1~
b1 !!
#16894
0f
b0 g
0n
b0 o
0v
b0 w
0~
b0 !!
#16896
0D
b0 E
0L
b0 M
0T
b0 U
0\
b0 ]
b10 h
b10 p
b10 x
b10 "!
#16897
1F
b1 G
1N
b1 O
1V
b1 W
1^
b1 _
#16898
0F
b0 G
0N
b0 O
0V
b0 W
0^
b0 _
#16900
b10 H
b10 P
b10 X
b10 `
#16902
0$
b0 %
0,
b0 -
04
b0 5
0<
b0 =
#16903
1&
b1 '
1.
b1 /
16
b1 7
1>
b1 ?
#16904
0&
b0 '
0.
b0 /
06
b0 7
0>
b0 ?
#16906
b10 (
b10 0
b10 8
b10 @
#22445
0#!
b0 $!
#22451
0+!
b0 ,!
#22457
03!
b0 4!
#22463
0;!
b0 <!
#22517
0a
b0 b
#22523
0i
b0 j
#22529
0q
b0 r
#22535
0y
b0 z
#22565
0A
b0 B
#22571
0I
b0 J
#22577
0Q
b0 R
#22583
0Y
b0 Z
#22589
0!
b0 "
#22595
0)
b0 *
#22601
01
b0 2
#22607
09
b0 :
#23488
1&!
b10100100110 '!
1.!
b10100100110 /!
16!
b10100100110 7!
1>!
b10100100110 ?!
#23492
1d
b10100100110 e
1l
b10100100110 m
1t
b10100100110 u
1|
b10100100110 }
#23496
1D
b10100100110 E
1L
b10100100110 M
1T
b10100100110 U
1\
b10100100110 ]
#23502
1$
b10100100110 %
1,
b10100100110 -
14
b10100100110 5
1<
b10100100110 =
#23844
1#!
b1100101110111 $!
1+!
b1100101111101 ,!
13!
b1100110000011 4!
1;!
b1100110001001 <!
#23848
1a
b1100110111011 b
1i
b1100111000001 j
1q
b1100111000111 r
1y
b1100111001101 z
#23852
1A
b1100111100111 B
1I
b1100111101101 J
1Q
b1100111110011 R
1Y
b1100111111001 Z
#23858
1!
b1100111111001 "
1)
b1100111111111 *
11
b1101000000101 2
19
b1101000001011 :
#24806
0&!
b0 '!
0.!
b0 /!
06!
b0 7!
0>!
b0 ?!
#24807
1(!
b1 )!
10!
b1 1!
18!
b1 9!
1@!
b1 A!
#24808
0(!
b0 )!
00!
b0 1!
08!
b0 9!
0@!
b0 A!
#24810
0d
b0 e
0l
b0 m
0t
b0 u
0|
b0 }
b11 *!
b11 2!
b11 :!
b11 B!
#24811
1f
b1 g
1n
b1 o
1v
b1 w
1~
b1 !!
#24812
0f
b0 g
0n
b0 o
0v
b0 w
0~
b0 !!
#24814
0D
b0 E
0L
b0 M
0T
b0 U
0\
b0 ]
b11 h
b11 p
b11 x
b11 "!
#24815
1F
b1 G
1N
b1 O
1V
b1 W
1^
b1 _
#24816
0F
b0 G
0N
b0 O
0V
b0 W
0^
b0 _
#24818
b11 H
b11 P
b11 X
b11 `
#24820
0$
b0 %
0,
b0 -
04
b0 5
0<
b0 =
#24821
1&
b1 '
1.
b1 /
16
b1 7
1>
b1 ?
#24822
0&
b0 '
0.
b0 /
06
b0 7
0>
b0 ?
#24824
b11 (
b11 0
b11 8
b11 @
#30363
0#!
b0 $!
#30369
0+!
b0 ,!
#30375
03!
b0 4!
#30381
0;!
b0 <!
#30435
0a
b0 b
#30441
0i
b0 j
#30447
0q
b0 r
#30453
0y
b0 z
#30483
0A
b0 B
#30489
0I
b0 J
#30495
0Q
b0 R
#30501
0Y
b0 Z
#30507
0!
b0 "
#30513
0)
b0 *
#30519
01
b0 2
#30525
09
b0 :
#31406
1&!
b10100100110 '!
1.!
b10100100110 /!
16!
b10100100110 7!
1>!
b10100100110 ?!
#31410
1d
b10100100110 e
1l
b10100100110 m
1t
b10100100110 u
1|
b10100100110 }
#31414
1D
b10100100110 E
1L
b10100100110 M
1T
b10100100110 U
1\
b10100100110 ]
#31420
1$
b10100100110 %
1,
b10100100110 -
14
b10100100110 5
1<
b10100100110 =
#31762
1#!
b1100101110111 $!
1+!
b1100101111101 ,!
13!
b1100110000011 4!
1;!
b1100110001001 <!
#31766
1a
b1100110111011 b
1i
b1100111000001 j
1q
b1100111000111 r
1y
b1100111001101 z
#31770
1A
b1100111100111 B
1I
b1100111101101 J
1Q
b1100111110011 R
1Y
b1100111111001 Z
#31776
1!
b1100111111001 "
1)
b1100111111111 *
11
b1101000000101 2
19
b1101000001011 :
#32724
0&!
b0 '!
0.!
b0 /!
06!
b0 7!
0>!
b0 ?!
#32725
1(!
b1 )!
10!
b1 1!
18!
b1 9!
1@!
b1 A!
#32726
0(!
b0 )!
00!
b0 1!
08!
b0 9!
0@!
b0 A!
#32728
0d
b0 e
0l
b0 m
0t
b0 u
0|
b0 }
b100 *!
b100 2!
b100 :!
b100 B!
#32729
1f
b1 g
1n
b1 o
1v
b1 w
1~
b1 !!
#32730
0f
b0 g
0n
b0 o
0v
b0 w
0~
b0 !!
#32732
0D
b0 E
0L
b0 M
0T
b0 U
0\
b0 ]
b100 h
b100 p
b100 x
b100 "!
#32733
1F
b1 G
1N
b1 O
1V
b1 W
1^
b1 _
#32734
0F
b0 G
0N
b0 O
0V
b0 W
0^
b0 _
#32736
b100 H
b100 P
b100 X
b100 `
#32738
0$
b0 %
0,
b0 -
04
b0 5
0<
b0 =
#32739
1&
b1 '
1.
b1 /
16
b1 7
1>
b1 ?
#32740
0&
b0 '
0.
b0 /
06
b0 7
0>
b0 ?
#32742
b100 (
b100 0
b100 8
b100 @
#38281
0#!
b0 $!
#38287
0+!
b0 ,!
#38293
03!
b0 4!
#38299
0;!
b0 <!
#38353
0a
b0 b
#38359
0i
b0 j
#38365
0q
b0 r
#38371
0y
b0 z
#38401
0A
b0 B
#38407
0I
b0 J
#38413
0Q
b0 R
#38419
0Y
b0 Z
#38425
0!
b0 "
#38431
0)
b0 *
#38437
01
b0 2
#38443
09
b0 :
#39324
1&!
b10100100110 '!
1.!
b10100100110 /!
16!
b10100100110 7!
1>!
b10100100110 ?!
#39328
1d
b10100100110 e
1l
b10100100110 m
1t
b10100100110 u
1|
b10100100110 }
#39332
1D
b10100100110 E
1L
b10100100110 M
1T
b10100100110 U
1\
b10100100110 ]
#39338
1$
b10100100110 %
1,
b10100100110 -
14
b10100100110 5
1<
b10100100110 =
#39680
1#!
b1100101110111 $!
1+!
b1100101111101 ,!
13!
b1100110000011 4!
1;!
b1100110001001 <!
#39684
1a
b1100110111011 b
1i
b1100111000001 j
1q
b1100111000111 r
1y
b1100111001101 z
#39688
1A
b1100111100111 B
1I
b1100111101101 J
1Q
b1100111110011 R
1Y
b1100111111001 Z
#39694
1!
b1100111111001 "
1)
b1100111111111 *
11
b1101000000101 2
19
b1101000001011 :
#40642
0&!
b0 '!
0.!
b0 /!
06!
b0 7!
0>!
b0 ?!
#40643
1(!
b1 )!
10!
b1 1!
18!
b1 9!
1@!
b1 A!
#40644
0(!
b0 )!
00!
b0 1!
08!
b0 9!
0@!
b0 A!
#40646
0d
b0 e
0l
b0 m
0t
b0 u
0|
b0 }
b101 *!
b101 2!
b101 :!
b101 B!
#40647
1f
b1 g
1n
b1 o
1v
b1 w
1~
b1 !!
#40648
0f
b0 g
0n
b0 o
0v
b0 w
0~
b0 !!
#40650
0D
b0 E
0L
b0 M
0T
b0 U
0\
b0 ]
b101 h
b101 p
b101 x
b101 "!
#40651
1F
b1 G
1N
b1 O
1V
b1 W
1^
b1 _
#40652
0F
b0 G
0N
b0 O
0V
b0 W
0^
b0 _
#40654
b101 H
b101 P
b101 X
b101 `
#40656
0$
b0 %
0,
b0 -
04
b0 5
0<
b0 =
#40657
1&
b1 '
1.
b1 /
16
b1 7
1>
b1 ?
#40658
0&
b0 '
0.
b0 /
06
b0 7
0>
b0 ?
#40660
b101 (
b101 0
b101 8
b101 @
#46199
0#!
b0 $!
#46205
0+!
b0 ,!
#46211
03!
b0 4!
#46217
0;!
b0 <!
#46271
0a
b0 b
#46277
0i
b0 j
#46283
0q
b0 r
#46289
0y
b0 z
#46319
0A
b0 B
#46325
0I
b0 J
#46331
0Q
b0 R
#46337
0Y
b0 Z
#46343
0!
b0 "
#46349
0)
b0 *
#46355
01
b0 2
#46361
09
b0 :
#47242
1&!
b10100100110 '!
1.!
b10100100110 /!
16!
b10100100110 7!
1>!
b10100100110 ?!
#47246
1d
b10100100110 e
1l
b10100100110 m
1t
b10100100110 u
1|
b10100100110 }
#47250
1D
b10100100110 E
1L
b10100100110 M
1T
b10100100110 U
1\
b10100100110 ]
#47256
1$
b10100100110 %
1,
b10100100110 -
14
b10100100110 5
1<
b10100100110 =
#47598
1#!
b1100101110111 $!
1+!
b1100101111101 ,!
13!
b1100110000011 4!
1;!
b1100110001001 <!
#47602
1a
b1100110111011 b
1i
b1100111000001 j
1q
b1100111000111 r
1y
b1100111001101 z
#47606
1A
b1100111100111 B
1I
b1100111101101 J
1Q
b1100111110011 R
1Y
b1100111111001 Z
#47612
1!
b1100111111001 "
1)
b1100111111111 *
11
b1101000000101 2
19
b1101000001011 :
#48560
0&!
b0 '!
0.!
b0 /!
06!
b0 7!
0>!
b0 ?!
#48561
1(!
b1 )!
10!
b1 1!
18!
b1 9!
1@!
b1 A!
#48562
0(!
b0 )!
00!
b0 1!
08!
b0 9!
0@!
b0 A!
#48564
0d
b0 e
0l
b0 m
0t
b0 u
0|
b0 }
b110 *!
b110 2!
b110 :!
b110 B!
#48565
1f
b1 g
1n
b1 o
1v
b1 w
1~
b1 !!
#48566
0f
b0 g
0n
b0 o
0v
b0 w
0~
b0 !!
#48568
0D
b0 E
0L
b0 M
0T
b0 U
0\
b0 ]
b110 h
b110 p
b110 x
b110 "!
#48569
1F
b1 G
1N
b1 O
1V
b1 W
1^
b1 _
#48570
0F
b0 G
0N
b0 O
0V
b0 W
0^
b0 _
#48572
b110 H
b110 P
b110 X
b110 `
#48574
0$
b0 %
0,
b0 -
04
b0 5
0<
b0 =
#48575
1&
b1 '
1.
b1 /
16
b1 7
1>
b1 ?
#48576
0&
b0 '
0.
b0 /
06
b0 7
0>
b0 ?
#48578
b110 (
b110 0
b110 8
b110 @
#54117
0#!
b0 $!
#54123
0+!
b0 ,!
#54129
03!
b0 4!
#54135
0;!
b0 <!
#54189
0a
b0 b
#54195
0i
b0 j
#54201
0q
b0 r
#54207
0y
b0 z
#54237
0A
b0 B
#54243
0I
b0 J
#54249
0Q
b0 R
#54255
0Y
b0 Z
#54261
0!
b0 "
#54267
0)
b0 *
#54273
01
b0 2
#54279
09
b0 :
#55160
1&!
b10100100110 '!
1.!
b10100100110 /!
16!
b10100100110 7!
1>!
b10100100110 ?!
#55164
1d
b10100100110 e
1l
b10100100110 m
1t
b10100100110 u
1|
b10100100110 }
#55168
1D
b10100100110 E
1L
b10100100110 M
1T
b10100100110 U
1\
b10100100110 ]
#55174
1$
b10100100110 %
1,
b10100100110 -
14
b10100100110 5
1<
b10100100110 =
#55516
1#!
b1100101110111 $!
1+!
b1100101111101 ,!
13!
b1100110000011 4!
1;!
b1100110001001 <!
#55520
1a
b1100110111011 b
1i
b1100111000001 j
1q
b1100111000111 r
1y
b1100111001101 z
#55524
1A
b1100111100111 B
1I
b1100111101101 J
1Q
b1100111110011 R
1Y
b1100111111001 Z
#55530
1!
b1100111111001 "
1)
b1100111111111 *
11
b1101000000101 2
19
b1101000001011 :
#56478
0&!
b0 '!
0.!
b0 /!
06!
b0 7!
0>!
b0 ?!
#56479
1(!
b1 )!
10!
b1 1!
18!
b1 9!
1@!
b1 A!
#56480
0(!
b0 )!
00!
b0 1!
08!
b0 9!
0@!
b0 A!
#56482
0d
b0 e
0l
b0 m
0t
b0 u
0|
b0 }
b111 *!
b111 2!
b111 :!
b111 B!
#56483
1f
b1 g
1n
b1 o
1v
b1 w
1~
b1 !!
#56484
0f
b0 g
0n
b0 o
0v
b0 w
0~
b0 !!
#56486
0D
b0 E
0L
b0 M
0T
b0 U
0\
b0 ]
b111 h
b111 p
b111 x
b111 "!
#56487
1F
b1 G
1N
b1 O
1V
b1 W
1^
b1 _
#56488
0F
b0 G
0N
b0 O
0V
b0 W
0^
b0 _
#56490
b111 H
b111 P
b111 X
b111 `
#56492
0$
b0 %
0,
b0 -
04
b0 5
0<
b0 =
#56493
1&
b1 '
1.
b1 /
16
b1 7
1>
b1 ?
#56494
0&
b0 '
0.
b0 /
06
b0 7
0>
b0 ?
#56496
b111 (
b111 0
b111 8
b111 @
#62035
0#!
b0 $!
#62041
0+!
b0 ,!
#62047
03!
b0 4!
#62053
0;!
b0 <!
#62107
0a
b0 b
#62113
0i
b0 j
#62119
0q
b0 r
#62125
0y
b0 z
#62155
0A
b0 B
#62161
0I
b0 J
#62167
0Q
b0 R
#62173
0Y
b0 Z
#62179
0!
b0 "
#62185
0)
b0 *
#62191
01
b0 2
#62197
09
b0 :
#63078
1&!
b10100100110 '!
1.!
b10100100110 /!
16!
b10100100110 7!
1>!
b10100100110 ?!
#63082
1d
b10100100110 e
1l
b10100100110 m
1t
b10100100110 u
1|
b10100100110 }
#63086
1D
b10100100110 E
1L
b10100100110 M
1T
b10100100110 U
1\
b10100100110 ]
#63092
1$
b10100100110 %
1,
b10100100110 -
14
b10100100110 5
1<
b10100100110 =
#63434
1#!
b1100101110111 $!
1+!
b1100101111101 ,!
13!
b1100110000011 4!
1;!
b1100110001001 <!
#63438
1a
b1100110111011 b
1i
b1100111000001 j
1q
b1100111000111 r
1y
b1100111001101 z
#63442
1A
b1100111100111 B
1I
b1100111101101 J
1Q
b1100111110011 R
1Y
b1100111111001 Z
#63448
1!
b1100111111001 "
1)
b1100111111111 *
11
b1101000000101 2
19
b1101000001011 :
#64396
0&!
b0 '!
0.!
b0 /!
06!
b0 7!
0>!
b0 ?!
#64397
1(!
b1 )!
10!
b1 1!
18!
b1 9!
1@!
b1 A!
#64398
0(!
b0 )!
00!
b0 1!
08!
b0 9!
0@!
b0 A!
#64400
0d
b0 e
0l
b0 m
0t
b0 u
0|
b0 }
b1000 *!
b1000 2!
b1000 :!
b1000 B!
#64401
1f
b1 g
1n
b1 o
1v
b1 w
1~
b1 !!
#64402
0f
b0 g
0n
b0 o
0v
b0 w
0~
b0 !!
#64404
0D
b0 E
0L
b0 M
0T
b0 U
0\
b0 ]
b1000 h
b1000 p
b1000 x
b1000 "!
#64405
1F
b1 G
1N
b1 O
1V
b1 W
1^
b1 _
#64406
0F
b0 G
0N
b0 O
0V
b0 W
0^
b0 _
#64408
b1000 H
b1000 P
b1000 X
b1000 `
#64410
0$
b0 %
0,
b0 -
04
b0 5
0<
b0 =
#64411
1&
b1 '
1.
b1 /
16
b1 7
1>
b1 ?
#64412
0&
b0 '
0.
b0 /
06
b0 7
0>
b0 ?
#64414
b1000 (
b1000 0
b1000 8
b1000 @
#69953
0#!
b0 $!
#69959
0+!
b0 ,!
#69965
03!
b0 4!
#69971
0;!
b0 <!
#70025
0a
b0 b
#70031
0i
b0 j
#70037
0q
b0 r
#70043
0y
b0 z
#70073
0A
b0 B
#70079
0I
b0 J
#70085
0Q
b0 R
#70091
0Y
b0 Z
#70097
0!
b0 "
#70103
0)
b0 *
#70109
01
b0 2
#70115
09
b0 :
#70996
1&!
b10100100110 '!
1.!
b10100100110 /!
16!
b10100100110 7!
1>!
b10100100110 ?!
#71000
1d
b10100100110 e
1l
b10100100110 m
1t
b10100100110 u
1|
b10100100110 }
#71004
1D
b10100100110 E
1L
b10100100110 M
1T
b10100100110 U
1\
b10100100110 ]
#71010
1$
b10100100110 %
1,
b10100100110 -
14
b10100100110 5
1<
b10100100110 =
#71352
1#!
b1100101110111 $!
1+!
b1100101111101 ,!
13!
b1100110000011 4!
1;!
b1100110001001 <!
#71356
1a
b1100110111011 b
1i
b1100111000001 j
1q
b1100111000111 r
1y
b1100111001101 z
#71360
1A
b1100111100111 B
1I
b1100111101101 J
1Q
b1100111110011 R
1Y
b1100111111001 Z
#71366
1!
b1100111111001 "
1)
b1100111111111 *
11
b1101000000101 2
19
b1101000001011 :
#72314
0&!
b0 '!
0.!
b0 /!
06!
b0 7!
0>!
b0 ?!
#72315
1(!
b1 )!
10!
b1 1!
18!
b1 9!
1@!
b1 A!
#72316
0(!
b0 )!
00!
b0 1!
08!
b0 9!
0@!
b0 A!
#72318
0d
b0 e
0l
b0 m
0t
b0 u
0|
b0 }
b1001 *!
b1001 2!
b1001 :!
b1001 B!
#72319
1f
b1 g
1n
b1 o
1v
b1 w
1~
b1 !!
#72320
0f
b0 g
0n
b0 o
0v
b0 w
0~
b0 !!
#72322
0D
b0 E
0L
b0 M
0T
b0 U
0\
b0 ]
b1001 h
b1001 p
b1001 x
b1001 "!
#72323
1F
b1 G
1N
b1 O
1V
b1 W
1^
b1 _
#72324
0F
b0 G
0N
b0 O
0V
b0 W
0^
b0 _
#72326
b1001 H
b1001 P
b1001 X
b1001 `
#72328
0$
b0 %
0,
b0 -
04
b0 5
0<
b0 =
#72329
1&
b1 '
1.
b1 /
16
b1 7
1>
b1 ?
#72330
0&
b0 '
0.
b0 /
06
b0 7
0>
b0 ?
#72332
b1001 (
b1001 0
b1001 8
b1001 @
#77871
0#!
b0 $!
#77877
0+!
b0 ,!
#77883
03!
b0 4!
#77889
0;!
b0 <!
#77943
0a
b0 b
#77949
0i
b0 j
#77955
0q
b0 r
#77961
0y
b0 z
#77991
0A
b0 B
#77997
0I
b0 J
#78003
0Q
b0 R
#78009
0Y
b0 Z
#78015
0!
b0 "
#78021
0)
b0 *
#78027
01
b0 2
#78033
09
b0 :
#78914
1&!
b10100100110 '!
1.!
b10100100110 /!
16!
b10100100110 7!
1>!
b10100100110 ?!
#78918
1d
b10100100110 e
1l
b10100100110 m
1t
b10100100110 u
1|
b10100100110 }
#78922
1D
b10100100110 E
1L
b10100100110 M
1T
b10100100110 U
1\
b10100100110 ]
#78928
1$
b10100100110 %
1,
b10100100110 -
14
b10100100110 5
1<
b10100100110 =
#79270
1#!
b1100101110111 $!
1+!
b1100101111101 ,!
13!
b1100110000011 4!
1;!
b1100110001001 <!
#79274
1a
b1100110111011 b
1i
b1100111000001 j
1q
b1100111000111 r
1y
b1100111001101 z
#79278
1A
b1100111100111 B
1I
b1100111101101 J
1Q
b1100111110011 R
1Y
b1100111111001 Z
#79284
1!
b1100111111001 "
1)
b1100111111111 *
11
b1101000000101 2
19
b1101000001011 :
#80232
0&!
b0 '!
0.!
b0 /!
06!
b0 7!
0>!
b0 ?!
#80233
1(!
b1 )!
10!
b1 1!
18!
b1 9!
1@!
b1 A!
#80234
0(!
b0 )!
00!
b0 1!
08!
b0 9!
0@!
b0 A!
#80236
0d
b0 e
0l
b0 m
0t
b0 u
0|
b0 }
b1010 *!
b1010 2!
b1010 :!
b1010 B!
#80237
1f
b1 g
1n
b1 o
1v
b1 w
1~
b1 !!
#80238
0f
b0 g
0n
b0 o
0v
b0 w
0~
b0 !!
#80240
0D
b0 E
0L
b0 M
0T
b0 U
0\
b0 ]
b1010 h
b1010 p
b1010 x
b1010 "!
#80241
1F
b1 G
1N
b1 O
1V
b1 W
1^
b1 _
#80242
0F
b0 G
0N
b0 O
0V
b0 W
0^
b0 _
#80244
b1010 H
b1010 P
b1010 X
b1010 `
#80246
0$
b0 %
0,
b0 -
04
b0 5
0<
b0 =
#80247
1&
b1 '
1.
b1 /
16
b1 7
1>
b1 ?
#80248
0&
b0 '
0.
b0 /
06
b0 7
0>
b0 ?
#80250
b1010 (
b1010 0
b1010 8
b1010 @
#85789
0#!
b0 $!
#85795
0+!
b0 ,!
#85801
03!
b0 4!
#85807
0;!
b0 <!
#85861
0a
b0 b
#85867
0i
b0 j
#85873
0q
b0 r
#85879
0y
b0 z
#85909
0A
b0 B
#85915
0I
b0 J
#85921
0Q
b0 R
#85927
0Y
b0 Z
#85933
0!
b0 "
#85939
0)
b0 *
#85945
01
b0 2
#85951
09
b0 :
#86832
1&!
b10100100110 '!
1.!
b10100100110 /!
16!
b10100100110 7!
1>!
b10100100110 ?!
