conv1x1_8layers/conv1x1_0.vcd
$date today $end
$timescale 1 ns $end
$scope module top $end
$scope module slice0 $end
$var integer 1 ! prefetch $end
$var integer 32 " prefetch_time $end
$var integer 1 # config $end
$var integer 1 $ compute $end
$var integer 32 % compute_time $end
$var integer 1 & write_back $end
$var integer 32 ' write_back_time $end
$var integer 10 ( TG_id $end
$upscope $end
$scope module slice1 $end
$var integer 1 ) prefetch $end
$var integer 32 * prefetch_time $end
$var integer 1 + config $end
$var integer 1 , compute $end
$var integer 32 - compute_time $end
$var integer 1 . write_back $end
$var integer 32 / write_back_time $end
$var integer 10 0 TG_id $end
$upscope $end
$scope module slice10 $end
$var integer 1 q prefetch $end
$var integer 32 r prefetch_time $end
$var integer 1 s config $end
$var integer 1 t compute $end
$var integer 32 u compute_time $end
$var integer 1 v write_back $end
$var integer 32 w write_back_time $end
$var integer 10 x TG_id $end
$upscope $end
$scope module slice11 $end
$var integer 1 y prefetch $end
$var integer 32 z prefetch_time $end
$var integer 1 { config $end
$var integer 1 | compute $end
$var integer 32 } compute_time $end
$var integer 1 ~ write_back $end
$var integer 32 !! write_back_time $end
$var integer 10 "! TG_id $end
$upscope $end
$scope module slice12 $end
$var integer 1 #! prefetch $end
$var integer 32 $! prefetch_time $end
$var integer 1 %! config $end
$var integer 1 &! compute $end
$var integer 32 '! compute_time $end
$var integer 1 (! write_back $end
$var integer 32 )! write_back_time $end
$var integer 10 *! TG_id $end
$upscope $end
$scope module slice13 $end
$var integer 1 +! prefetch $end
$var integer 32 ,! prefetch_time $end
$var integer 1 -! config $end
$var integer 1 .! compute $end
$var integer 32 /! compute_time $end
$var integer 1 0! write_back $end
$var integer 32 1! write_back_time $end
$var integer 10 2! TG_id $end
$upscope $end
$scope module slice14 $end
$var integer 1 3! prefetch $end
$var integer 32 4! prefetch_time $end
$var integer 1 5! config $end
$var integer 1 6! compute $end
$var integer 32 7! compute_time $end
$var integer 1 8! write_back $end
$var integer 32 9! write_back_time $end
$var integer 10 :! TG_id $end
$upscope $end
$scope module slice15 $end
$var integer 1 ;! prefetch $end
$var integer 32 <! prefetch_time $end
$var integer 1 =! config $end
$var integer 1 >! compute $end
$var integer 32 ?! compute_time $end
$var integer 1 @! write_back $end
$var integer 32 A! write_back_time $end
$var integer 10 B! TG_id $end
$upscope $end
$scope module slice2 $end
$var integer 1 1 prefetch $end
$var integer 32 2 prefetch_time $end
$var integer 1 3 config $end
$var integer 1 4 compute $end
$var integer 32 5 compute_time $end
$var integer 1 6 write_back $end
$var integer 32 7 write_back_time $end
$var integer 10 8 TG_id $end
$upscope $end
$scope module slice3 $end
$var integer 1 9 prefetch $end
$var integer 32 : prefetch_time $end
$var integer 1 ; config $end
$var integer 1 < compute $end
$var integer 32 = compute_time $end
$var integer 1 > write_back $end
$var integer 32 ? write_back_time $end
$var integer 10 @ TG_id $end
$upscope $end
$scope module slice4 $end
$var integer 1 A prefetch $end
$var integer 32 B prefetch_time $end
$var integer 1 C config $end
$var integer 1 D compute $end
$var integer 32 E compute_time $end
$var integer 1 F write_back $end
$var integer 32 G write_back_time $end
$var integer 10 H TG_id $end
$upscope $end
$scope module slice5 $end
$var integer 1 I prefetch $end
$var integer 32 J prefetch_time $end
$var integer 1 K config $end
$var integer 1 L compute $end
$var integer 32 M compute_time $end
$var integer 1 N write_back $end
$var integer 32 O write_back_time $end
$var integer 10 P TG_id $end
$upscope $end
$scope module slice6 $end
$var integer 1 Q prefetch $end
$var integer 32 R prefetch_time $end
$var integer 1 S config $end
$var integer 1 T compute $end
$var integer 32 U compute_time $end
$var integer 1 V write_back $end
$var integer 32 W write_back_time $end
$var integer 10 X TG_id $end
$upscope $end
$scope module slice7 $end
$var integer 1 Y prefetch $end
$var integer 32 Z prefetch_time $end
$var integer 1 [ config $end
$var integer 1 \ compute $end
$var integer 32 ] compute_time $end
$var integer 1 ^ write_back $end
$var integer 32 _ write_back_time $end
$var integer 10 ` TG_id $end
$upscope $end
$scope module slice8 $end
$var integer 1 a prefetch $end
$var integer 32 b prefetch_time $end
$var integer 1 c config $end
$var integer 1 d compute $end
$var integer 32 e compute_time $end
$var integer 1 f write_back $end
$var integer 32 g write_back_time $end
$var integer 10 h TG_id $end
$upscope $end
$scope module slice9 $end
$var integer 1 i prefetch $end
$var integer 32 j prefetch_time $end
$var integer 1 k config $end
$var integer 1 l compute $end
$var integer 32 m compute_time $end
$var integer 1 n write_back $end
$var integer 32 o write_back_time $end
$var integer 10 p TG_id $end
$upscope $end
$upscope $end
$enddefinitions $end
#0
$dumpvars
0!
b0 "
0#
0$
b0 %
0&
b0 '
b0 (
0)
b0 *
0+
0,
b0 -
0.
b0 /
b0 0
01
b0 2
03
04
b0 5
06
b0 7
b0 8
09
b0 :
0;
0<
b0 =
0>
b0 ?
b0 @
0A
b0 B
0C
0D
b0 E
0F
b0 G
b0 H
0I
b0 J
0K
0L
b0 M
0N
b0 O
b0 P
0Q
b0 R
0S
0T
b0 U
0V
b0 W
b0 X
0Y
b0 Z
0[
0\
b0 ]
0^
b0 _
b0 `
0a
b0 b
0c
0d
b0 e
0f
b0 g
b0 h
0i
b0 j
0k
0l
b0 m
0n
b0 o
b0 p
0q
b0 r
0s
0t
b0 u
0v
b0 w
b0 x
0y
b0 z
0{
0|
b0 }
0~
b0 !!
b0 "!
1#!
b1001000000001001 $!
0%!
0&!
b0 '!
0(!
b0 )!
b0 *!
1+!
b1001000000001111 ,!
0-!
0.!
b0 /!
00!
b0 1!
b0 2!
13!
b1001000000010101 4!
05!
06!
b0 7!
08!
b0 9!
b0 :!
1;!
b1001000000011011 <!
0=!
0>!
b0 ?!
0@!
b0 A!
b0 B!
$end
#4
1a
b1001000001001101 b
1i
b1001000001010011 j
1q
b1001000001011001 r
1y
b1001000001011111 z
#8
1A
b1001000001111001 B
1I
b1001000001111111 J
1Q
b1001000010000101 R
1Y
b1001000010001011 Z
#14
1!
b1001000010001011 "
1)
b1001000010010001 *
11
b1001000010010111 2
19
b1001000010011101 :
#36873
0#!
b0 $!
#36879
0+!
b0 ,!
#36885
03!
b0 4!
#36891
0;!
b0 <!
#36945
0a
b0 b
#36951
0i
b0 j
#36957
0q
b0 r
#36963
0y
b0 z
#36993
0A
b0 B
#36999
0I
b0 J
#37005
0Q
b0 R
#37011
0Y
b0 Z
#37017
0!
b0 "
#37023
0)
b0 *
#37029
01
b0 2
#37035
09
b0 :
#38052
1&!
b1010110011011 '!
1.!
b1010110011011 /!
16!
b1010110011011 7!
1>!
b1010110011011 ?!
#38056
1d
b1010110011011 e
1l
b1010110011011 m
1t
b1010110011011 u
1|
b1010110011011 }
#38060
1D
b1010110011011 E
1L
b1010110011011 M
1T
b1010110011011 U
1\
b1010110011011 ]
#38066
1$
b1010110011011 %
1,
b1010110011011 -
14
b1010110011011 5
1<
b1010110011011 =
#38408
1#!
b110110000110111 $!
1+!
b110110000111101 ,!
13!
b110110001000011 4!
1;!
b110110001001001 <!
#38412
1a
b110110001111011 b
1i
b110110010000001 j
1q
b110110010000111 r
1y
b110110010001101 z
#38416
1A
b110110010100111 B
1I
b110110010101101 J
1Q
b110110010110011 R
1Y
b110110010111001 Z
#38422
1!
b110110010111001 "
1)
b110110010111111 *
11
b110110011000101 2
19
b110110011001011 :
#43583
0&!
b0 '!
0.!
b0 /!
06!
b0 7!
0>!
b0 ?!
#43584
1(!
b1 )!
10!
b1 1!
18!
b1 9!
1@!
b1 A!
#43585
0(!
b0 )!
00!
b0 1!
08!
b0 9!
0@!
b0 A!
#43587
0d
b0 e
0l
b0 m
0t
b0 u
0|
b0 }
b1 *!
b1 2!
b1 :!
b1 B!
#43588
1f
b1 g
1n
b1 o
1v
b1 w
1~
b1 !!
#43589
0f
b0 g
0n
b0 o
0v
b0 w
0~
b0 !!
#43591
0D
b0 E
0L
b0 M
0T
b0 U
0\
b0 ]
b1 h
b1 p
b1 x
b1 "!
#43592
1F
b1 G
1N
b1 O
1V
b1 W
1^
b1 _
#43593
0F
b0 G
0N
b0 O
0V
b0 W
0^
b0 _
#43595
b1 H
b1 P
b1 X
b1 `
#43597
0$
b0 %
0,
b0 -
04
b0 5
0<
b0 =
#43598
1&
b1 '
1.
b1 /
16
b1 7
1>
b1 ?
#43599
0&
b0 '
0.
b0 /
06
b0 7
0>
b0 ?
#43601
b1 (
b1 0
b1 8
b1 @
#66111
0#!
b0 $!
#66117
0+!
b0 ,!
#66123
03!
b0 4!
#66129
0;!
b0 <!
#66183
0a
b0 b
#66189
0i
b0 j
#66195
0q
b0 r
#66201
0y
b0 z
#66231
0A
b0 B
#66237
0I
b0 J
#66243
0Q
b0 R
#66249
0Y
b0 Z
#66255
0!
b0 "
#66261
0)
b0 *
#66267
01
b0 2
#66273
09
b0 :
#67154
1&!
b1000011111111 '!
1.!
b1000011111111 /!
16!
b1000011111111 7!
1>!
b1000011111111 ?!
#67158
1d
b1000011111111 e
1l
b1000011111111 m
1t
b1000011111111 u
1|
b1000011111111 }
#67162
1D
b1000011111111 E
1L
b1000011111111 M
1T
b1000011111111 U
1\
b1000011111111 ]
#67168
1$
b1000011111111 %
1,
b1000011111111 -
14
b1000011111111 5
1<
b1000011111111 =
#67510
1#!
b1001000000110111 $!
1+!
b1001000000111101 ,!
13!
b1001000001000011 4!
1;!
b1001000001001001 <!
#67514
1a
b1001000001111011 b
1i
b1001000010000001 j
1q
b1001000010000111 r
1y
b1001000010001101 z
#67518
1A
b1001000010100111 B
1I
b1001000010101101 J
1Q
b1001000010110011 R
1Y
b1001000010111001 Z
#67524
1!
b1001000010111001 "
1)
b1001000010111111 *
11
b1001000011000101 2
19
b1001000011001011 :
#71505
0&!
b0 '!
0.!
b0 /!
06!
b0 7!
0>!
b0 ?!
#71506
1(!
b1 )!
10!
b1 1!
18!
b1 9!
1@!
b1 A!
#71507
0(!
b0 )!
00!
b0 1!
08!
b0 9!
0@!
b0 A!
#71509
0d
b0 e
0l
b0 m
0t
b0 u
0|
b0 }
b10 *!
b10 2!
b10 :!
b10 B!
#71510
1f
b1 g
1n
b1 o
1v
b1 w
1~
b1 !!
#71511
0f
b0 g
0n
b0 o
0v
b0 w
0~
b0 !!
#71513
0D
b0 E
0L
b0 M
0T
b0 U
0\
b0 ]
b10 h
b10 p
b10 x
b10 "!
#71514
1F
b1 G
1N
b1 O
1V
b1 W
1^
b1 _
#71515
0F
b0 G
0N
b0 O
0V
b0 W
0^
b0 _
#71517
b10 H
b10 P
b10 X
b10 `
#71519
0$
b0 %
0,
b0 -
04
b0 5
0<
b0 =
#71520
1&
b1 '
1.
b1 /
16
b1 7
1>
b1 ?
#71521
0&
b0 '
0.
b0 /
06
b0 7
0>
b0 ?
#71523
b10 (
b10 0
b10 8
b10 @
#104429
0#!
b0 $!
#104435
0+!
b0 ,!
#104441
03!
b0 4!
#104447
0;!
b0 <!
#104501
0a
b0 b
#104507
0i
b0 j
#104513
0q
b0 r
#104519
0y
b0 z
#104549
0A
b0 B
#104555
0I
b0 J
#104561
0Q
b0 R
#104567
0Y
b0 Z
#104573
0!
b0 "
#104579
0)
b0 *
#104585
01
b0 2
#104591
09
b0 :
#105472
1&!
b1010110011011 '!
1.!
b1010110011011 /!
16!
b1010110011011 7!
1>!
b1010110011011 ?!
#105476
1d
b1010110011011 e
1l
b1010110011011 m
1t
b1010110011011 u
1|
b1010110011011 }
#105480
1D
b1010110011011 E
1L
b1010110011011 M
1T
b1010110011011 U
1\
b1010110011011 ]
#105486
1$
b1010110011011 %
1,
b1010110011011 -
14
b1010110011011 5
1<
b1010110011011 =
#105828
1#!
b110110000110111 $!
1+!
b110110000111101 ,!
13!
b110110001000011 4!
1;!
b110110001001001 <!
#105832
1a
b110110001111011 b
1i
b110110010000001 j
1q
b110110010000111 r
1y
b110110010001101 z
#105836
1A
b110110010100111 B
1I
b110110010101101 J
1Q
b110110010110011 R
1Y
b110110010111001 Z
#105842
1!
b110110010111001 "
1)
b110110010111111 *
11
b110110011000101 2
19
b110110011001011 :
#111003
0&!
b0 '!
0.!
b0 /!
06!
b0 7!
0>!
b0 ?!
#111004
1(!
b1 )!
10!
b1 1!
18!
b1 9!
1@!
b1 A!
#111005
0(!
b0 )!
00!
b0 1!
08!
b0 9!
0@!
b0 A!
#111007
0d
b0 e
0l
b0 m
0t
b0 u
0|
b0 }
b11 *!
b11 2!
b11 :!
b11 B!
#111008
1f
b1 g
1n
b1 o
1v
b1 w
1~
b1 !!
#111009
0f
b0 g
0n
b0 o
0v
b0 w
0~
b0 !!
#111011
0D
b0 E
0L
b0 M
0T
b0 U
0\
b0 ]
b11 h
b11 p
b11 x
b11 "!
#111012
1F
b1 G
1N
b1 O
1V
b1 W
1^
b1 _
#111013
0F
b0 G
0N
b0 O
0V
b0 W
0^
b0 _
#111015
b11 H
b11 P
b11 X
b11 `
#111017
0$
b0 %
0,
b0 -
04
b0 5
0<
b0 =
#111018
1&
b1 '
1.
b1 /
16
b1 7
1>
b1 ?
#111019
0&
b0 '
0.
b0 /
06
b0 7
0>
b0 ?
#111021
b11 (
b11 0
b11 8
b11 @
#133531
0#!
b0 $!
#133537
0+!
b0 ,!
#133543
03!
b0 4!
#133549
0;!
b0 <!
#133603
0a
b0 b
#133609
0i
b0 j
#133615
0q
b0 r
#133621
0y
b0 z
#133651
0A
b0 B
#133657
0I
b0 J
#133663
0Q
b0 R
#133669
0Y
b0 Z
#133675
0!
b0 "
#133681
0)
b0 *
#133687
01
b0 2
#133693
09
b0 :
#134574
1&!
b1000011111111 '!
1.!
b1000011111111 /!
16!
b1000011111111 7!
1>!
b1000011111111 ?!
#134578
1d
b1000011111111 e
1l
b1000011111111 m
1t
b1000011111111 u
1|
b1000011111111 }
#134582
1D
b1000011111111 E
1L
b1000011111111 M
1T
b1000011111111 U
1\
b1000011111111 ]
#134588
1$
b1000011111111 %
1,
b1000011111111 -
14
b1000011111111 5
1<
b1000011111111 =
#134930
1#!
b1001000000110111 $!
1+!
b1001000000111101 ,!
13!
b1001000001000011 4!
1;!
b1001000001001001 <!
#134934
1a
b1001000001111011 b
1i
b1001000010000001 j
1q
b1001000010000111 r
1y
b1001000010001101 z
#134938
1A
b1001000010100111 B
1I
b1001000010101101 J
1Q
b1001000010110011 R
1Y
b1001000010111001 Z
#134944
1!
b1001000010111001 "
1)
b1001000010111111 *
11
b1001000011000101 2
19
b1001000011001011 :
#138925
0&!
b0 '!
0.!
b0 /!
06!
b0 7!
0>!
b0 ?!
#138926
1(!
b1 )!
10!
b1 1!
18!
b1 9!
1@!
b1 A!
#138927
0(!
b0 )!
00!
b0 1!
08!
b0 9!
0@!
b0 A!
#138929
0d
b0 e
0l
b0 m
0t
b0 u
0|
b0 }
b100 *!
b100 2!
b100 :!
b100 B!
#138930
1f
b1 g
1n
b1 o
1v
b1 w
1~
b1 !!
#138931
0f
b0 g
0n
b0 o
0v
b0 w
0~
b0 !!
#138933
0D
b0 E
0L
b0 M
0T
b0 U
0\
b0 ]
b100 h
b100 p
b100 x
b100 "!
#138934
1F
b1 G
1N
b1 O
1V
b1 W
1^
b1 _
#138935
0F
b0 G
0N
b0 O
0V
b0 W
0^
b0 _
#138937
b100 H
b100 P
b100 X
b100 `
#138939
0$
b0 %
0,
b0 -
04
b0 5
0<
b0 =
#138940
1&
b1 '
1.
b1 /
16
b1 7
1>
b1 ?
#138941
0&
b0 '
0.
b0 /
06
b0 7
0>
b0 ?
#138943
b100 (
b100 0
b100 8
b100 @
#171849
0#!
b0 $!
#171855
0+!
b0 ,!
#171861
03!
b0 4!
#171867
0;!
b0 <!
#171921
0a
b0 b
#171927
0i
b0 j
#171933
0q
b0 r
#171939
0y
b0 z
#171969
0A
b0 B
#171975
0I
b0 J
#171981
0Q
b0 R
#171987
0Y
b0 Z
#171993
0!
b0 "
#171999
0)
b0 *
#172005
01
b0 2
#172011
09
b0 :
#172892
1&!
b1010110011011 '!
1.!
b1010110011011 /!
16!
b1010110011011 7!
1>!
b1010110011011 ?!
#172896
1d
b1010110011011 e
1l
b1010110011011 m
1t
b1010110011011 u
1|
b1010110011011 }
#172900
1D
b1010110011011 E
1L
b1010110011011 M
1T
b1010110011011 U
1\
b1010110011011 ]
#172906
1$
b1010110011011 %
1,
b1010110011011 -
14
b1010110011011 5
1<
b1010110011011 =
#173248
1#!
b110110000110111 $!
1+!
b110110000111101 ,!
13!
b110110001000011 4!
1;!
b110110001001001 <!
#173252
1a
b110110001111011 b
1i
b110110010000001 j
1q
b110110010000111 r
1y
b110110010001101 z
#173256
1A
b110110010100111 B
1I
b110110010101101 J
1Q
b110110010110011 R
1Y
b110110010111001 Z
#173262
1!
b110110010111001 "
1)
b110110010111111 *
11
b110110011000101 2
19
b110110011001011 :
#178423
0&!
b0 '!
0.!
b0 /!
06!
b0 7!
0>!
b0 ?!
#178424
1(!
b1 )!
10!
b1 1!
18!
b1 9!
1@!
b1 A!
#178425
0(!
b0 )!
00!
b0 1!
08!
b0 9!
0@!
b0 A!
#178427
0d
b0 e
0l
b0 m
0t
b0 u
0|
b0 }
b101 *!
b101 2!
b101 :!
b101 B!
#178428
1f
b1 g
1n
b1 o
1v
b1 w
1~
b1 !!
#178429
0f
b0 g
0n
b0 o
0v
b0 w
0~
b0 !!
#178431
0D
b0 E
0L
b0 M
0T
b0 U
0\
b0 ]
b101 h
b101 p
b101 x
b101 "!
#178432
1F
b1 G
1N
b1 O
1V
b1 W
1^
b1 _
#178433
0F
b0 G
0N
b0 O
0V
b0 W
0^
b0 _
#178435
b101 H
b101 P
b101 X
b101 `
#178437
0$
b0 %
0,
b0 -
04
b0 5
0<
b0 =
#178438
1&
b1 '
1.
b1 /
16
b1 7
1>
b1 ?
#178439
0&
b0 '
0.
b0 /
06
b0 7
0>
b0 ?
#178441
b101 (
b101 0
b101 8
b101 @
#200951
0#!
b0 $!
#200957
0+!
b0 ,!
#200963
03!
b0 4!
#200969
0;!
b0 <!
#201023
0a
b0 b
#201029
0i
b0 j
#201035
0q
b0 r
#201041
0y
b0 z
#201071
0A
b0 B
#201077
0I
b0 J
#201083
0Q
b0 R
#201089
0Y
b0 Z
#201095
0!
b0 "
#201101
0)
b0 *
#201107
01
b0 2
#201113
09
b0 :
#201994
1&!
b1000011111111 '!
1.!
b1000011111111 /!
16!
b1000011111111 7!
1>!
b1000011111111 ?!
#201998
1d
b1000011111111 e
1l
b1000011111111 m
1t
b1000011111111 u
1|
b1000011111111 }
#202002
1D
b1000011111111 E
1L
b1000011111111 M
1T
b1000011111111 U
1\
b1000011111111 ]
#202008
1$
b1000011111111 %
1,
b1000011111111 -
14
b1000011111111 5
1<
b1000011111111 =
#202350
1#!
b1001000000110111 $!
1+!
b1001000000111101 ,!
13!
b1001000001000011 4!
1;!
b1001000001001001 <!
#202354
1a
b1001000001111011 b
1i
b1001000010000001 j
1q
b1001000010000111 r
1y
b1001000010001101 z
#202358
1A
b1001000010100111 B
1I
b1001000010101101 J
1Q
b1001000010110011 R
1Y
b1001000010111001 Z
#202364
1!
b1001000010111001 "
1)
b1001000010111111 *
11
b1001000011000101 2
19
b1001000011001011 :
#206345
0&!
b0 '!
0.!
b0 /!
06!
b0 7!
0>!
b0 ?!
#206346
1(!
b1 )!
10!
b1 1!
18!
b1 9!
1@!
b1 A!
#206347
0(!
b0 )!
00!
b0 1!
08!
b0 9!
0@!
b0 A!
#206349
0d
b0 e
0l
b0 m
0t
b0 u
0|
b0 }
b110 *!
b110 2!
b110 :!
b110 B!
#206350
1f
b1 g
1n
b1 o
1v
b1 w
1~
b1 !!
#206351
0f
b0 g
0n
b0 o
0v
b0 w
0~
b0 !!
#206353
0D
b0 E
0L
b0 M
0T
b0 U
0\
b0 ]
b110 h
b110 p
b110 x
b110 "!
#206354
1F
b1 G
1N
b1 O
1V
b1 W
1^
b1 _
#206355
0F
b0 G
0N
b0 O
0V
b0 W
0^
b0 _
#206357
b110 H
b110 P
b110 X
b110 `
#206359
0$
b0 %
0,
b0 -
04
b0 5
0<
b0 =
#206360
1&
b1 '
1.
b1 /
16
b1 7
1>
b1 ?
#206361
0&
b0 '
0.
b0 /
06
b0 7
0>
b0 ?
#206363
b110 (
b110 0
b110 8
b110 @
#239269
0#!
b0 $!
#239275
0+!
b0 ,!
#239281
03!
b0 4!
#239287
0;!
b0 <!
#239341
0a
b0 b
#239347
0i
b0 j
#239353
0q
b0 r
#239359
0y
b0 z
#239389
0A
b0 B
#239395
0I
b0 J
#239401
0Q
b0 R
#239407
0Y
b0 Z
#239413
0!
b0 "
#239419
0)
b0 *
#239425
01
b0 2
#239431
09
b0 :
#240312
1&!
b1010110011011 '!
1.!
b1010110011011 /!
16!
b1010110011011 7!
1>!
b1010110011011 ?!
#240316
1d
b1010110011011 e
1l
b1010110011011 m
1t
b1010110011011 u
1|
b1010110011011 }
#240320
1D
b1010110011011 E
1L
b1010110011011 M
1T
b1010110011011 U
1\
b1010110011011 ]
#240326
1$
b1010110011011 %
1,
b1010110011011 -
14
b1010110011011 5
1<
b1010110011011 =
#240668
1#!
b110110000110111 $!
1+!
b110110000111101 ,!
13!
b110110001000011 4!
1;!
b110110001001001 <!
#240672
1a
b110110001111011 b
1i
b110110010000001 j
1q
b110110010000111 r
1y
b110110010001101 z
#240676
1A
b110110010100111 B
1I
b110110010101101 J
1Q
b110110010110011 R
1Y
b110110010111001 Z
#240682
1!
b110110010111001 "
1)
b110110010111111 *
11
b110110011000101 2
19
b110110011001011 :
#245843
0&!
b0 '!
0.!
b0 /!
06!
b0 7!
0>!
b0 ?!
#245844
1(!
b1 )!
10!
b1 1!
18!
b1 9!
1@!
b1 A!
#245845
0(!
b0 )!
00!
b0 1!
08!
b0 9!
0@!
b0 A!
#245847
0d
b0 e
0l
b0 m
0t
b0 u
0|
b0 }
b111 *!
b111 2!
b111 :!
b111 B!
#245848
1f
b1 g
1n
b1 o
1v
b1 w
1~
b1 !!
#245849
0f
b0 g
0n
b0 o
0v
b0 w
0~
b0 !!
#245851
0D
b0 E
0L
b0 M
0T
b0 U
0\
b0 ]
b111 h
b111 p
b111 x
b111 "!
#245852
1F
b1 G
1N
b1 O
1V
b1 W
1^
b1 _
#245853
0F
b0 G
0N
b0 O
0V
b0 W
0^
b0 _
#245855
b111 H
b111 P
b111 X
b111 `
#245857
0$
b0 %
0,
b0 -
04
b0 5
0<
b0 =
#245858
1&
b1 '
1.
b1 /
16
b1 7
1>
b1 ?
#245859
0&
b0 '
0.
b0 /
06
b0 7
0>
b0 ?
#245861
b111 (
b111 0
b111 8
b111 @
#268371
0#!
b0 $!
#268377
0+!
b0 ,!
#268383
03!
b0 4!
#268389
0;!
b0 <!
#268443
0a
b0 b
#268449
0i
b0 j
#268455
0q
b0 r
#268461
0y
b0 z
#268491
0A
b0 B
#268497
0I
b0 J
#268503
0Q
b0 R
#268509
0Y
b0 Z
#268515
0!
b0 "
#268521
0)
b0 *
#268527
01
b0 2
#268533
09
b0 :
#269414
1&!
b1000011111111 '!
1.!
b1000011111111 /!
16!
b1000011111111 7!
1>!
b1000011111111 ?!
#269418
1d
b1000011111111 e
1l
b1000011111111 m
1t
b1000011111111 u
1|
b1000011111111 }
#269422
1D
b1000011111111 E
1L
b1000011111111 M
1T
b1000011111111 U
1\
b1000011111111 ]
#269428
1$
b1000011111111 %
1,
b1000011111111 -
14
b1000011111111 5
1<
b1000011111111 =
#269770
1#!
b1001000000110111 $!
1+!
b1001000000111101 ,!
13!
b1001000001000011 4!
1;!
b1001000001001001 <!
#269774
1a
b1001000001111011 b
1i
b1001000010000001 j
1q
b1001000010000111 r
1y
b1001000010001101 z
#269778
1A
b1001000010100111 B
1I
b1001000010101101 J
1Q
b1001000010110011 R
1Y
b1001000010111001 Z
#269784
1!
b1001000010111001 "
1)
b1001000010111111 *
11
b1001000011000101 2
19
b1001000011001011 :
#273765
0&!
b0 '!
0.!
b0 /!
06!
b0 7!
0>!
b0 ?!
#273766
1(!
b1 )!
10!
b1 1!
18!
b1 9!
1@!
b1 A!
#273767
0(!
b0 )!
00!
b0 1!
08!
b0 9!
0@!
b0 A!
#273769
0d
b0 e
0l
b0 m
0t
b0 u
0|
b0 }
b1000 *!
b1000 2!
b1000 :!
b1000 B!
#273770
1f
b1 g
1n
b1 o
1v
b1 w
1~
b1 !!
#273771
0f
b0 g
0n
b0 o
0v
b0 w
0~
b0 !!
#273773
0D
b0 E
0L
b0 M
0T
b0 U
0\
b0 ]
b1000 h
b1000 p
b1000 x
b1000 "!
#273774
1F
b1 G
1N
b1 O
1V
b1 W
1^
b1 _
#273775
0F
b0 G
0N
b0 O
0V
b0 W
0^
b0 _
#273777
b1000 H
b1000 P
b1000 X
b1000 `
#273779
0$
b0 %
0,
b0 -
04
b0 5
0<
b0 =
#273780
1&
b1 '
1.
b1 /
16
b1 7
1>
b1 ?
#273781
0&
b0 '
0.
b0 /
06
b0 7
0>
b0 ?
#273783
b1000 (
b1000 0
b1000 8
b1000 @
#306689
0#!
b0 $!
#306695
0+!
b0 ,!
#306701
03!
b0 4!
#306707
0;!
b0 <!
#306761
0a
b0 b
#306767
0i
b0 j
#306773
0q
b0 r
#306779
0y
b0 z
#306809
0A
b0 B
#306815
0I
b0 J
#306821
0Q
b0 R
#306827
0Y
b0 Z
#306833
0!
b0 "
#306839
0)
b0 *
#306845
01
b0 2
#306851
09
b0 :
#307732
1&!
b1010110011011 '!
1.!
b1010110011011 /!
16!
b1010110011011 7!
1>!
b1010110011011 ?!
#307736
1d
b1010110011011 e
1l
b1010110011011 m
1t
b1010110011011 u
1|
b1010110011011 }
#307740
1D
b1010110011011 E
1L
b1010110011011 M
1T
b1010110011011 U
1\
b1010110011011 ]
#307746
1$
b1010110011011 %
1,
b1010110011011 -
14
b1010110011011 5
1<
b1010110011011 =
#308088
1#!
b110110000110111 $!
1+!
b110110000111101 ,!
13!
b110110001000011 4!
1;!
b110110001001001 <!
#308092
1a
b110110001111011 b
1i
b110110010000001 j
1q
b110110010000111 r
1y
b110110010001101 z
#308096
1A
b110110010100111 B
1I
b110110010101101 J
1Q
b110110010110011 R
1Y
b110110010111001 Z
#308102
1!
b110110010111001 "
1)
b110110010111111 *
11
b110110011000101 2
19
b110110011001011 :
#313263
0&!
b0 '!
0.!
b0 /!
06!
b0 7!
0>!
b0 ?!
#313264
1(!
b1 )!
10!
b1 1!
18!
b1 9!
1@!
b1 A!
#313265
0(!
b0 )!
00!
b0 1!
08!
b0 9!
0@!
b0 A!
#313267
0d
b0 e
0l
b0 m
0t
b0 u
0|
b0 }
b1001 *!
b1001 2!
b1001 :!
b1001 B!
#313268
1f
b1 g
1n
b1 o
1v
b1 w
1~
b1 !!
#313269
0f
b0 g
0n
b0 o
0v
b0 w
0~
b0 !!
#313271
0D
b0 E
0L
b0 M
0T
b0 U
0\
b0 ]
b1001 h
b1001 p
b1001 x
b1001 "!
#313272
1F
b1 G
1N
b1 O
1V
b1 W
1^
b1 _
#313273
0F
b0 G
0N
b0 O
0V
b0 W
0^
b0 _
#313275
b1001 H
b1001 P
b1001 X
b1001 `
#313277
0$
b0 %
0,
b0 -
04
b0 5
0<
b0 =
#313278
1&
b1 '
1.
b1 /
16
b1 7
1>
b1 ?
#313279
0&
b0 '
0.
b0 /
06
b0 7
0>
b0 ?
#313281
b1001 (
b1001 0
b1001 8
b1001 @
#335791
0#!
b0 $!
#335797
0+!
b0 ,!
#335803
03!
b0 4!
#335809
0;!
b0 <!
#335863
0a
b0 b
#335869
0i
b0 j
#335875
0q
b0 r
#335881
0y
b0 z
#335911
0A
b0 B
#335917
0I
b0 J
#335923
0Q
b0 R
#335929
0Y
b0 Z
#335935
0!
b0 "
#335941
0)
b0 *
#335947
01
b0 2
#335953
09
b0 :
#336834
1&!
b1000011111111 '!
1.!
b1000011111111 /!
16!
b1000011111111 7!
1>!
b1000011111111 ?!
#336838
1d
b1000011111111 e
1l
b1000011111111 m
1t
b1000011111111 u
1|
b1000011111111 }
#336842
1D
b1000011111111 E
1L
b1000011111111 M
1T
b1000011111111 U
1\
b1000011111111 ]
#336848
1$
b1000011111111 %
1,
b1000011111111 -
14
b1000011111111 5
1<
b1000011111111 =
#337190
1#!
b1001000000110111 $!
1+!
b1001000000111101 ,!
13!
b1001000001000011 4!
1;!
b1001000001001001 <!
#337194
1a
b1001000001111011 b
1i
b1001000010000001 j
1q
b1001000010000111 r
1y
b1001000010001101 z
#337198
1A
b1001000010100111 B
1I
b1001000010101101 J
1Q
b1001000010110011 R
1Y
b1001000010111001 Z
#337204
1!
b1001000010111001 "
1)
b1001000010111111 *
11
b1001000011000101 2
19
b1001000011001011 :
#341185
0&!
b0 '!
0.!
b0 /!
06!
b0 7!
0>!
b0 ?!
#341186
1(!
b1 )!
10!
b1 1!
18!
b1 9!
1@!
b1 A!
#341187
0(!
b0 )!
00!
b0 1!
08!
b0 9!
0@!
b0 A!
#341189
0d
b0 e
0l
b0 m
0t
b0 u
0|
b0 }
b1010 *!
b1010 2!
b1010 :!
b1010 B!
#341190
1f
b1 g
1n
b1 o
1v
b1 w
1~
b1 !!
#341191
0f
b0 g
0n
b0 o
0v
b0 w
0~
b0 !!
#341193
0D
b0 E
0L
b0 M
0T
b0 U
0\
b0 ]
b1010 h
b1010 p
b1010 x
b1010 "!
#341194
1F
b1 G
1N
b1 O
1V
b1 W
1^
b1 _
#341195
0F
b0 G
0N
b0 O
0V
b0 W
0^
b0 _
#341197
b1010 H
b1010 P
b1010 X
b1010 `
#341199
0$
b0 %
0,
b0 -
04
b0 5
0<
b0 =
#341200
1&
b1 '
1.
b1 /
16
b1 7
1>
b1 ?
#341201
0&
b0 '
0.
b0 /
06
b0 7
0>
b0 ?
#341203
b1010 (
b1010 0
b1010 8
b1010 @
#374109
0#!
b0 $!
