conv1x1_8layers/conv1x1_4.vcd
$date today $end
$timescale 1 ns $end
$scope module top $end
$scope module slice0 $end
$var integer 1 ! prefetch $end
$var integer 32 " prefetch_time $end
$var integer 1 # config $end
$var integer 1 $ compute $end
$var integer 32 % compute_time $end
$var integer 1 & write_back $end
$var integer 32 ' write_back_time $end
$var integer 10 ( TG_id $end
$upscope $end
$scope module slice1 $end
$var integer 1 ) prefetch $end
$var integer 32 * prefetch_time $end
$var integer 1 + config $end
$var integer 1 , compute $end
$var integer 32 - compute_time $end
$var integer 1 . write_back $end
$var integer 32 / write_back_time $end
$var integer 10 0 TG_id $end
$upscope $end
$scope module slice10 $end
$var integer 1 q prefetch $end
$var integer 32 r prefetch_time $end
$var integer 1 s config $end
$var integer 1 t compute $end
$var integer 32 u compute_time $end
$var integer 1 v write_back $end
$var integer 32 w write_back_time $end
$var integer 10 x TG_id $end
$upscope $end
$scope module slice11 $end
$var integer 1 y prefetch $end
$var integer 32 z prefetch_time $end
$var integer 1 { config $end
$var integer 1 | compute $end
$var integer 32 } compute_time $end
$var integer 1 ~ write_back $end
$var integer 32 !! write_back_time $end
$var integer 10 "! TG_id $end
$upscope $end
$scope module slice12 $end
$var integer 1 #! prefetch $end
$var integer 32 $! prefetch_time $end
$var integer 1 %! config $end
$var integer 1 &! compute $end
$var integer 32 '! compute_time $end
$var integer 1 (! write_back $end
$var integer 32 )! write_back_time $end
$var integer 10 *! TG_id $end
$upscope $end
$scope module slice13 $end
$var integer 1 +! prefetch $end
$var integer 32 ,! prefetch_time $end
$var integer 1 -! config $end
$var integer 1 .! compute $end
$var integer 32 /! compute_time $end
$var integer 1 0! write_back $end
$var integer 32 1! write_back_time $end
$var integer 10 2! TG_id $end
$upscope $end
$scope module slice14 $end
$var integer 1 3! prefetch $end
$var integer 32 4! prefetch_time $end
$var integer 1 5! config $end
$var integer 1 6! compute $end
$var integer 32 7! compute_time $end
$var integer 1 8! write_back $end
$var integer 32 9! write_back_time $end
$var integer 10 :! TG_id $end
$upscope $end
$scope module slice15 $end
$var integer 1 ;! prefetch $end
$var integer 32 <! prefetch_time $end
$var integer 1 =! config $end
$var integer 1 >! compute $end
$var integer 32 ?! compute_time $end
$var integer 1 @! write_back $end
$var integer 32 A! write_back_time $end
$var integer 10 B! TG_id $end
$upscope $end
$scope module slice2 $end
$var integer 1 1 prefetch $end
$var integer 32 2 prefetch_time $end
$var integer 1 3 config $end
$var integer 1 4 compute $end
$var integer 32 5 compute_time $end
$var integer 1 6 write_back $end
$var integer 32 7 write_back_time $end
$var integer 10 8 TG_id $end
$upscope $end
$scope module slice3 $end
$var integer 1 9 prefetch $end
$var integer 32 : prefetch_time $end
$var integer 1 ; config $end
$var integer 1 < compute $end
$var integer 32 = compute_time $end
$var integer 1 > write_back $end
$var integer 32 ? write_back_time $end
$var integer 10 @ TG_id $end
$upscope $end
$scope module slice4 $end
$var integer 1 A prefetch $end
$var integer 32 B prefetch_time $end
$var integer 1 C config $end
$var integer 1 D compute $end
$var integer 32 E compute_time $end
$var integer 1 F write_back $end
$var integer 32 G write_back_time $end
$var integer 10 H TG_id $end
$upscope $end
$scope module slice5 $end
$var integer 1 I prefetch $end
$var integer 32 J prefetch_time $end
$var integer 1 K config $end
$var integer 1 L compute $end
$var integer 32 M compute_time $end
$var integer 1 N write_back $end
$var integer 32 O write_back_time $end
$var integer 10 P TG_id $end
$upscope $end
$scope module slice6 $end
$var integer 1 Q prefetch $end
$var integer 32 R prefetch_time $end
$var integer 1 S config $end
$var integer 1 T compute $end
$var integer 32 U compute_time $end
$var integer 1 V write_back $end
$var integer 32 W write_back_time $end
$var integer 10 X TG_id $end
$upscope $end
$scope module slice7 $end
$var integer 1 Y prefetch $end
$var integer 32 Z prefetch_time $end
$var integer 1 [ config $end
$var integer 1 \ compute $end
$var integer 32 ] compute_time $end
$var integer 1 ^ write_back $end
$var integer 32 _ write_back_time $end
$var integer 10 ` TG_id $end
$upscope $end
$scope module slice8 $end
$var integer 1 a prefetch $end
$var integer 32 b prefetch_time $end
$var integer 1 c config $end
$var integer 1 d compute $end
$var integer 32 e compute_time $end
$var integer 1 f write_back $end
$var integer 32 g write_back_time $end
$var integer 10 h TG_id $end
$upscope $end
$scope module slice9 $end
$var integer 1 i prefetch $end
$var integer 32 j prefetch_time $end
$var integer 1 k config $end
$var integer 1 l compute $end
$var integer 32 m compute_time $end
$var integer 1 n write_back $end
$var integer 32 o write_back_time $end
$var integer 10 p TG_id $end
$upscope $end
$upscope $end
$enddefinitions $end
#0
$dumpvars
0!
b0 "
0#
0$
b0 %
0&
b0 '
b0 (
0)
b0 *
0+
0,
b0 -
0.
b0 /
b0 0
01
b0 2
03
04
b0 5
06
b0 7
b0 8
09
b0 :
0;
0<
b0 =
0>
b0 ?
b0 @
0A
b0 B
0C
0D
b0 E
0F
b0 G
b0 H
0I
b0 J
0K
0L
b0 M
0N
b0 O
b0 P
0Q
b0 R
0S
0T
b0 U
0V
b0 W
b0 X
0Y
b0 Z
0[
0\
b0 ]
0^
b0 _
b0 `
0a
b0 b
0c
0d
b0 e
0f
b0 g
b0 h
0i
b0 j
0k
0l
b0 m
0n
b0 o
b0 p
0q
b0 r
0s
0t
b0 u
0v
b0 w
b0 x
0y
b0 z
0{
0|
b0 }
0~
b0 !!
b0 "!
1#!
b11000111010001 $!
0%!
0&!
b0 '!
0(!
b0 )!
b0 *!
1+!
b11000111010111 ,!
0-!
0.!
b0 /!
00!
b0 1!
b0 2!
13!
b11000111011101 4!
05!
06!
b0 7!
08!
b0 9!
b0 :!
1;!
b11000111100011 <!
0=!
0>!
b0 ?!
0@!
b0 A!
b0 B!
$end
#4
1a
b11001000010101 b
1i
b11001000011011 j
1q
b11001000100001 r
1y
b11001000100111 z
#8
1A
b11001001000001 B
1I
b11001001000111 J
1Q
b11001001001101 R
1Y
b11001001010011 Z
#14
1!
b11001001010011 "
1)
b11001001011001 *
11
b11001001011111 2
19
b11001001100101 :
#12753
0#!
b0 $!
#12759
0+!
b0 ,!
#12765
03!
b0 4!
#12771
0;!
b0 <!
#12825
0a
b0 b
#12831
0i
b0 j
#12837
0q
b0 r
#12843
0y
b0 z
#12873
0A
b0 B
#12879
0I
b0 J
#12885
0Q
b0 R
#12891
0Y
b0 Z
#12897
0!
b0 "
#12903
0)
b0 *
#12909
01
b0 2
#12915
09
b0 :
#13932
1&!
b100001000110 '!
1.!
b100001000110 /!
16!
b100001000110 7!
1>!
b100001000110 ?!
#13936
1d
b100001000110 e
1l
b100001000110 m
1t
b100001000110 u
1|
b100001000110 }
#13940
1D
b100001000110 E
1L
b100001000110 M
1T
b100001000110 U
1\
b100001000110 ]
#13946
1$
b100001000110 %
1,
b100001000110 -
14
b100001000110 5
1<
b100001000110 =
#14288
1#!
b11000111111111 $!
1+!
b11001000000101 ,!
13!
b11001000001011 4!
1;!
b11001000010001 <!
#14292
1a
b11001001010011 b
1i
b11001001101001 j
1q
b11001001111111 r
1y
b11001010010101 z
#14296
1A
b11001011111111 B
1I
b11001100010101 J
1Q
b11001100101011 R
1Y
b11001101000001 Z
#14302
1!
b11001101010001 "
1)
b11001101100111 *
11
b11001101111101 2
19
b11001110010011 :
#16050
0&!
b0 '!
0.!
b0 /!
06!
b0 7!
0>!
b0 ?!
#16051
1(!
b100111001001001 )!
10!
b100111001010001 1!
18!
b100111001011001 9!
1@!
b100111001100001 A!
#16054
0d
b0 e
0l
b0 m
0t
b0 u
0|
b0 }
#16055
1f
b100111010100101 g
1n
b100111100000101 o
1v
b100111100001101 w
1~
b100111100010101 !!
#16058
0D
b0 E
0L
b0 M
0T
b0 U
0\
b0 ]
#16059
1F
b100111100111111 G
1N
b100111101000111 O
1V
b100111101001111 W
1^
b100111101010111 _
#16064
0$
b0 %
0,
b0 -
04
b0 5
0<
b0 =
#16065
1&
b100111101010010 '
1.
b100111101011011 /
16
b100111101100011 7
1>
b100111101101011 ?
#27087
0#!
b0 $!
#27093
0+!
b0 ,!
#27099
03!
b0 4!
#27105
0;!
b0 <!
#27175
0a
b0 b
#27197
0i
b0 j
#27219
0q
b0 r
#27241
0y
b0 z
#27351
0A
b0 B
#27373
0I
b0 J
#27395
0Q
b0 R
#27417
0Y
b0 Z
#27439
0!
b0 "
#27461
0)
b0 *
#27483
01
b0 2
#27505
09
b0 :
#36092
0(!
b0 )!
#36094
b1 *!
#36095
1&!
b100001000110 '!
#36100
00!
b0 1!
#36102
b1 2!
#36108
08!
b0 9!
#36110
b1 :!
#36112
1.!
b100001000110 /!
#36113
16!
b100001000110 7!
#36116
0@!
b0 A!
#36118
b1 B!
#36130
1>!
b100001000110 ?!
#36188
0f
b0 g
#36190
b1 h
#36203
1d
b100001000110 e
#36284
0n
b0 o
#36286
b1 p
#36292
0v
b0 w
#36294
b1 x
#36300
1l
b100001000110 m
0~
b0 !!
#36301
1t
b100001000110 u
#36302
b1 "!
#36318
1|
b100001000110 }
#36346
0F
b0 G
#36348
b1 H
#36354
0N
b0 O
#36356
b1 P
#36359
1D
b100001000110 E
#36360
1L
b100001000110 M
#36362
0V
b0 W
#36364
b1 X
#36370
0^
b0 _
#36371
0&
b0 '
#36372
b1 `
#36373
b1 (
#36377
1T
b100001000110 U
#36378
1\
b100001000110 ]
#36380
0.
b0 /
#36382
b1 0
#36387
1$
b100001000110 %
#36388
1,
b100001000110 -
06
b0 7
#36390
b1 8
#36396
0>
b0 ?
#36398
b1 @
#36405
14
b100001000110 5
#36406
1<
b100001000110 =
#36682
1#!
b1101010100010 $!
1+!
b1101010100010 ,!
13!
b1101010100010 4!
1;!
b1101010100010 <!
#36686
1a
b1101010011110 b
1i
b1101010011110 j
1q
b1101010011110 r
1y
b1101010011110 z
#36690
1A
b1101010011010 B
1I
b1101010011010 J
1Q
b1101010011010 R
1Y
b1101010011010 Z
#36696
1!
b1101010010100 "
1)
b1101010010100 *
11
b1101010010100 2
19
b1101010010100 :
#38213
0&!
b0 '!
#38214
1(!
b11100010100100 )!
#38230
0.!
b0 /!
#38231
06!
b0 7!
10!
b11100010011011 1!
#38232
18!
b11100010100010 9!
#38248
0>!
b0 ?!
#38249
1@!
b11100010011001 A!
#38321
0d
b0 e
#38322
1f
b11100000011000 g
#38418
0l
b0 m
#38419
0t
b0 u
1n
b11011110111111 o
#38420
1v
b11011111000110 w
#38436
0|
b0 }
#38437
1~
b11011110111101 !!
#38477
0D
b0 E
#38478
0L
b0 M
1F
b11011101011100 G
#38479
1N
b11011101100011 O
#38495
0T
b0 U
#38496
0\
b0 ]
1V
b11011101011010 W
#38497
1^
b11011101100001 _
#38505
0$
b0 %
#38506
0,
b0 -
1&
b11011110100000 '
#38507
1.
b11011110100111 /
#38523
04
b0 5
#38524
0<
b0 =
16
b11011110011110 7
#38525
1>
b11011110100101 ?
#43500
0!
b0 "
0)
b0 *
01
b0 2
09
b0 :
0A
b0 B
0I
b0 J
0Q
b0 R
0Y
b0 Z
0a
b0 b
0i
b0 j
0q
b0 r
0y
b0 z
0#!
b0 $!
0+!
b0 ,!
03!
b0 4!
0;!
b0 <!
#52650
0F
b0 G
#52652
b10 H
#52658
0N
b0 O
#52660
b10 P
#52663
1D
b100001000110 E
#52664
1L
b100001000110 M
#52666
0V
b0 W
#52668
b10 X
#52674
0^
b0 _
#52676
b10 `
#52681
1T
b100001000110 U
#52682
1\
b100001000110 ]
0f
b0 g
#52684
b10 h
#52690
0n
b0 o
#52692
b10 p
#52698
0v
b0 w
#52699
1d
b100001000110 e
#52700
1l
b100001000110 m
b10 x
#52701
1t
b100001000110 u
#52706
0~
b0 !!
#52708
b10 "!
#52714
0(!
b0 )!
#52716
b10 *!
#52718
1|
b100001000110 }
#52719
1&!
b100001000110 '!
#52722
00!
b0 1!
#52724
b10 2!
#52730
08!
b0 9!
#52732
b10 :!
#52736
1.!
b100001000110 /!
#52737
16!
b100001000110 7!
#52738
0@!
b0 A!
#52740
b10 B!
#52746
0&
b0 '
#52748
b10 (
#52754
1>!
b100001000110 ?!
0.
b0 /
#52755
1$
b100001000110 %
#52756
b10 0
#52762
06
b0 7
#52764
b10 8
#52770
0>
b0 ?
#52772
1,
b100001000110 -
b10 @
#52773
14
b100001000110 5
#52774
1<
b100001000110 =
#53036
1#!
b1101010100010 $!
1+!
b1101010100010 ,!
13!
b1101010100010 4!
1;!
b1101010100010 <!
#53040
1a
b1101010011110 b
1i
b1101010011110 j
1q
b1101010011110 r
1y
b1101010011110 z
#53044
1A
b1101010011010 B
1I
b1101010011010 J
1Q
b1101010011010 R
1Y
b1101010011010 Z
#53050
1!
b1101010010100 "
1)
b1101010010100 *
11
b1101010010100 2
19
b1101010010100 :
#54781
0D
b0 E
#54782
0L
b0 M
1F
b11011110001110 G
#54783
1N
b11011110010101 O
#54799
0T
b0 U
#54800
0\
b0 ]
1V
b11011110001100 W
#54801
1^
b11011110010011 _
#54817
0d
b0 e
#54818
0l
b0 m
1f
b11011110001010 g
#54819
0t
b0 u
1n
b11011110010001 o
#54820
1v
b11011110011000 w
#54836
0|
b0 }
#54837
0&!
b0 '!
1~
b11011110001111 !!
#54838
1(!
b11011110010110 )!
#54854
0.!
b0 /!
#54855
06!
b0 7!
10!
b11011110001101 1!
#54856
18!
b11011110010100 9!
#54872
0>!
b0 ?!
#54873
0$
b0 %
1@!
b11011110001011 A!
#54874
1&
b11011110010010 '
#54890
0,
b0 -
#54891
04
b0 5
1.
b11011110001001 /
#54892
0<
b0 =
16
b11011110010000 7
#54893
1>
b11011110010111 ?
#59854
0!
b0 "
0)
b0 *
01
b0 2
09
b0 :
0A
b0 B
0I
b0 J
0Q
b0 R
0Y
b0 Z
0a
b0 b
0i
b0 j
0q
b0 r
0y
b0 z
0#!
b0 $!
0+!
b0 ,!
03!
b0 4!
0;!
b0 <!
#69004
0F
b0 G
#69006
b11 H
#69012
0N
b0 O
#69014
b11 P
#69015
1D
b100001000110 E
#69016
1L
b100001000110 M
#69020
0V
b0 W
#69022
b11 X
#69028
0^
b0 _
#69030
b11 `
#69033
1T
b100001000110 U
#69034
1\
b100001000110 ]
#69036
0f
b0 g
#69038
b11 h
#69044
0n
b0 o
#69046
b11 p
#69051
1d
b100001000110 e
#69052
1l
b100001000110 m
0v
b0 w
#69054
b11 x
#69060
0~
b0 !!
#69062
b11 "!
#69068
0(!
b0 )!
#69069
1t
b100001000110 u
#69070
1|
b100001000110 }
b11 *!
#69071
1&!
b100001000110 '!
#69076
00!
b0 1!
#69078
b11 2!
#69084
08!
b0 9!
#69086
b11 :!
#69088
1.!
b100001000110 /!
#69089
16!
b100001000110 7!
#69092
0@!
b0 A!
#69094
b11 B!
#69100
0&
b0 '
#69102
b11 (
#69106
1>!
b100001000110 ?!
#69107
1$
b100001000110 %
#69108
0.
b0 /
#69110
b11 0
#69116
06
b0 7
#69118
b11 8
#69124
1,
b100001000110 -
0>
b0 ?
#69125
14
b100001000110 5
#69126
b11 @
#69142
1<
b100001000110 =
#69406
1#!
b110011001111110 $!
1+!
b110011010000100 ,!
13!
b110011010001010 4!
1;!
b110011010010000 <!
#69410
1a
b110011011010010 b
1i
b110011011101000 j
1q
b110011011111110 r
1y
b110011100010100 z
#69414
1A
b110011101111110 B
1I
b110011110010100 J
1Q
b110011110101010 R
1Y
b110011111000000 Z
#69420
1!
b110011111010000 "
1)
b110011111100110 *
11
b110011111111100 2
19
b110100000010010 :
#71133
0D
b0 E
#71134
0L
b0 M
1F
b1000001111101010 G
#71135
1N
b1000001111110001 O
#71151
0T
b0 U
#71152
0\
b0 ]
1V
b1000001111101000 W
#71153
1^
b1000001111101111 _
#71169
0d
b0 e
#71170
0l
b0 m
1f
b1000001100101000 g
#71171
1n
b1000001110000111 o
#71187
0t
b0 u
#71188
0|
b0 }
1v
b1000001101111110 w
#71189
0&!
b0 '!
1~
b1000001110000101 !!
#71190
1(!
b1000001010110100 )!
#71206
0.!
b0 /!
#71207
06!
b0 7!
10!
b1000001010101011 1!
#71208
18!
b1000001010110010 9!
#71224
0>!
b0 ?!
#71225
0$
b0 %
1@!
b1000001010101001 A!
#71226
1&
b1000001110100111 '
#71242
0,
b0 -
#71243
04
b0 5
1.
b1000001110011111 /
#71244
16
b1000001110100110 7
#71260
0<
b0 =
#71261
1>
b1000001110011101 ?
#95644
0#!
b0 $!
#95650
0+!
b0 ,!
#95656
03!
b0 4!
#95662
0;!
b0 <!
#95732
0a
b0 b
#95754
0i
b0 j
#95776
0q
b0 r
#95798
0y
b0 z
#95908
0A
b0 B
#95930
0I
b0 J
#95952
0Q
b0 R
#95974
0Y
b0 Z
#95996
0!
b0 "
#96018
0)
b0 *
#96040
01
b0 2
#96062
09
b0 :
#104650
0(!
b0 )!
#104652
b100 *!
#104655
1&!
b100001000110 '!
#104658
00!
b0 1!
#104660
b100 2!
#104666
08!
b0 9!
#104668
b100 :!
#104672
1.!
b100001000110 /!
#104673
16!
b100001000110 7!
#104674
0@!
b0 A!
#104676
b100 B!
#104690
1>!
b100001000110 ?!
#104746
0f
b0 g
#104748
b100 h
#104763
1d
b100001000110 e
#104842
0n
b0 o
#104844
b100 p
#104850
0v
b0 w
#104852
b100 x
#104858
0~
b0 !!
#104860
1l
b100001000110 m
b100 "!
#104861
1t
b100001000110 u
#104862
1|
b100001000110 }
#104904
0F
b0 G
#104906
b100 H
#104912
0N
b0 O
#104914
b100 P
#104919
1D
b100001000110 E
#104920
1L
b100001000110 M
0V
b0 W
#104922
b100 X
#104928
0^
b0 _
#104929
0&
b0 '
#104930
b100 `
#104931
b100 (
#104937
1T
b100001000110 U
#104938
1\
b100001000110 ]
0.
b0 /
#104940
b100 0
#104946
06
b0 7
#104947
1$
b100001000110 %
#104948
1,
b100001000110 -
b100 8
#104949
14
b100001000110 5
#104954
0>
b0 ?
#104956
b100 @
#104966
1<
b100001000110 =
#105240
1#!
b110011001111110 $!
1+!
b110011010000100 ,!
13!
b110011010001010 4!
1;!
b110011010010000 <!
#105244
1a
b110011011010010 b
1i
b110011011101000 j
1q
b110011011111110 r
1y
b110011100010100 z
#105248
1A
b110011101111110 B
1I
b110011110010100 J
1Q
b110011110101010 R
1Y
b110011111000000 Z
#105254
1!
b110011111010000 "
1)
b110011111100110 *
11
b110011111111100 2
19
b110100000010010 :
#106773
0&!
b0 '!
#106774
1(!
b1000001110101110 )!
#106790
0.!
b0 /!
#106791
06!
b0 7!
10!
b1000001110100101 1!
#106792
18!
b1000001110101100 9!
#106808
0>!
b0 ?!
#106809
1@!
b1000001110100011 A!
#106881
0d
b0 e
#106882
1f
b1000001110100010 g
#106978
0l
b0 m
#106979
0t
b0 u
1n
b1000001110100001 o
#106980
0|
b0 }
1v
b1000001110101000 w
#106981
1~
b1000001110101111 !!
#107037
0D
b0 E
#107038
0L
b0 M
1F
b1000001110100100 G
#107039
1N
b1000001110101011 O
#107055
0T
b0 U
#107056
0\
b0 ]
1V
b1000001110100010 W
#107057
1^
b1000001110101001 _
#107065
0$
b0 %
#107066
0,
b0 -
1&
b1000001110100001 '
#107067
04
b0 5
1.
b1000001110101001 /
#107068
16
b1000001110110000 7
#107084
0<
b0 =
#107085
1>
b1000001110100111 ?
#131478
0#!
b0 $!
#131484
0+!
b0 ,!
#131490
03!
b0 4!
#131496
0;!
b0 <!
#131566
0a
b0 b
#131588
0i
b0 j
#131610
0q
b0 r
#131632
0y
b0 z
#131742
0A
b0 B
#131764
0I
b0 J
#131786
0Q
b0 R
#131808
0Y
b0 Z
#131830
0!
b0 "
#131852
0)
b0 *
#131874
01
b0 2
#131896
09
b0 :
#140484
0(!
b0 )!
#140486
b101 *!
#140492
00!
b0 1!
#140494
b101 2!
#140495
1&!
b100001000110 '!
#140496
1.!
b100001000110 /!
#140500
08!
b0 9!
#140502
b101 :!
#140508
0@!
b0 A!
#140510
b101 B!
#140513
16!
b100001000110 7!
#140514
1>!
b100001000110 ?!
#140580
0f
b0 g
#140582
b101 h
#140587
1d
b100001000110 e
#140676
0n
b0 o
#140678
b101 p
#140684
1l
b100001000110 m
0v
b0 w
#140686
b101 x
#140692
0~
b0 !!
#140694
b101 "!
#140701
1t
b100001000110 u
#140702
1|
b100001000110 }
#140738
0F
b0 G
#140740
b101 H
#140743
1D
b100001000110 E
#140746
0N
b0 O
#140748
b101 P
#140754
0V
b0 W
#140756
b101 X
#140760
1L
b100001000110 M
#140761
1T
b100001000110 U
#140762
0^
b0 _
#140763
0&
b0 '
#140764
b101 `
#140765
b101 (
#140771
1$
b100001000110 %
#140772
0.
b0 /
#140774
b101 0
#140778
1\
b100001000110 ]
#140780
06
b0 7
#140782
b101 8
#140788
1,
b100001000110 -
0>
b0 ?
#140789
14
b100001000110 5
#140790
b101 @
#140806
1<
b100001000110 =
#141074
1#!
b100111001111110 $!
1+!
b100111010000100 ,!
13!
b100111010001010 4!
1;!
b100111010010000 <!
#141078
1a
b100111011010010 b
1i
b100111011101000 j
1q
b100111011111110 r
1y
b100111100010100 z
#141082
1A
b100111101111110 B
1I
b100111110010100 J
1Q
b100111110101010 R
1Y
b100111111000000 Z
#141088
1!
b100111111010000 "
1)
b100111111100110 *
11
b100111111111100 2
19
b101000000010010 :
#142613
0&!
b0 '!
#142614
0.!
b0 /!
1(!
b110101110101000 )!
#142615
10!
b110101110101111 1!
#142631
06!
b0 7!
#142632
0>!
b0 ?!
18!
b110101110100110 9!
#142633
1@!
b110101110101101 A!
#142705
0d
b0 e
#142706
1f
b110101110101100 g
#142802
0l
b0 m
#142803
1n
b110101110101011 o
#142819
0t
b0 u
#142820
0|
b0 }
1v
b110101110100010 w
#142821
1~
b110101110101001 !!
#142861
0D
b0 E
#142862
1F
b110101110101110 G
#142878
0L
b0 M
#142879
0T
b0 U
1N
b110101110100101 O
#142880
1V
b110101110101100 W
#142889
0$
b0 %
#142890
1&
b110101110101011 '
#142896
0\
b0 ]
#142897
1^
b110101110100011 _
#142906
0,
b0 -
#142907
04
b0 5
1.
b110101110100011 /
#142908
16
b110101110101010 7
#142924
0<
b0 =
#142925
1>
b110101110100001 ?
#161168
0#!
b0 $!
#161174
0+!
b0 ,!
#161180
03!
b0 4!
#161186
0;!
b0 <!
#161256
0a
b0 b
#161278
0i
b0 j
#161300
0q
b0 r
#161322
0y
b0 z
#161432
0A
b0 B
#161454
0I
b0 J
#161476
0Q
b0 R
#161498
0Y
b0 Z
#161520
0!
b0 "
#161542
0)
b0 *
#161564
01
b0 2
#161586
09
b0 :
#170174
0(!
b0 )!
#170176
b110 *!
#170182
00!
b0 1!
#170184
b110 2!
#170190
08!
b0 9!
#170191
1&!
b100001000110 '!
#170192
1.!
b100001000110 /!
b110 :!
#170193
16!
b100001000110 7!
#170198
0@!
b0 A!
#170200
b110 B!
#170210
1>!
b100001000110 ?!
#170270
0f
b0 g
#170272
b110 h
#170283
1d
b100001000110 e
#170366
0n
b0 o
#170368
b110 p
#170374
0v
b0 w
#170376
b110 x
#170380
1l
b100001000110 m
#170381
1t
b100001000110 u
#170382
0~
b0 !!
#170384
b110 "!
#170398
1|
b100001000110 }
#170428
0F
b0 G
#170430
b110 H
#170436
0N
b0 O
#170438
b110 P
#170439
1D
b100001000110 E
#170440
1L
b100001000110 M
#170444
0V
b0 W
#170446
b110 X
#170452
0^
b0 _
#170453
0&
b0 '
#170454
b110 `
#170455
b110 (
#170457
1T
b100001000110 U
#170458
1\
b100001000110 ]
#170462
0.
b0 /
#170464
b110 0
#170467
1$
b100001000110 %
#170468
1,
b100001000110 -
#170470
06
b0 7
#170472
b110 8
#170478
0>
b0 ?
#170480
b110 @
#170485
14
b100001000110 5
#170486
1<
b100001000110 =
#170756
1#!
b100111001111110 $!
1+!
b100111010000100 ,!
13!
b100111010001010 4!
1;!
b100111010010000 <!
#170760
1a
b100111011010010 b
1i
b100111011101000 j
1q
b100111011111110 r
1y
b100111100010100 z
#170764
1A
b100111101111110 B
1I
b100111110010100 J
1Q
b100111110101010 R
1Y
b100111111000000 Z
#170770
1!
b100111111010000 "
1)
b100111111100110 *
11
b100111111111100 2
19
b101000000010010 :
#172309
0&!
b0 '!
#172310
0.!
b0 /!
1(!
b110101110011010 )!
#172311
06!
b0 7!
10!
b110101110100001 1!
#172312
18!
b110101110101000 9!
#172328
0>!
b0 ?!
#172329
1@!
b110101110011111 A!
#172401
0d
b0 e
#172402
1f
b110101110011110 g
#172498
0l
b0 m
#172499
0t
b0 u
1n
b110101110011101 o
#172500
1v
b110101110100100 w
#172516
0|
b0 }
#172517
1~
b110101110011011 !!
#172557
0D
b0 E
#172558
0L
b0 M
1F
b110101110100000 G
#172559
1N
b110101110100111 O
#172575
0T
b0 U
#172576
0\
b0 ]
1V
b110101110011110 W
#172577
1^
b110101110100101 _
#172585
0$
b0 %
#172586
0,
b0 -
1&
b110101110011101 '
#172587
1.
b110101110100101 /
#172603
04
b0 5
#172604
0<
b0 =
16
b110101110011100 7
#172605
1>
b110101110100011 ?
#190850
0#!
b0 $!
#190856
0+!
b0 ,!
#190862
03!
b0 4!
#190868
0;!
b0 <!
#190938
0a
b0 b
#190960
0i
b0 j
#190982
0q
b0 r
#191004
0y
b0 z
#191114
0A
b0 B
#191136
0I
b0 J
#191158
0Q
b0 R
#191180
0Y
b0 Z
#191202
0!
b0 "
#191224
0)
b0 *
#191246
01
b0 2
#191268
09
b0 :
#199856
0(!
b0 )!
#199858
b111 *!
#199864
00!
b0 1!
#199866
b111 2!
#199871
1&!
b100001000110 '!
#199872
1.!
b100001000110 /!
08!
b0 9!
#199874
b111 :!
#199880
0@!
b0 A!
#199882
b111 B!
#199889
16!
b100001000110 7!
#199890
1>!
b100001000110 ?!
#199952
0f
b0 g
#199954
b111 h
#199963
1d
b100001000110 e
#200048
0n
b0 o
#200050
b111 p
#200056
0v
b0 w
#200058
b111 x
#200060
1l
b100001000110 m
#200061
1t
b100001000110 u
#200064
0~
b0 !!
#200066
b111 "!
#200078
1|
b100001000110 }
#200110
0F
b0 G
#200112
b111 H
#200118
0N
b0 O
#200119
1D
b100001000110 E
#200120
b111 P
#200126
0V
b0 W
#200128
b111 X
#200134
0^
b0 _
#200135
0&
b0 '
#200136
1L
b100001000110 M
b111 `
#200137
1T
b100001000110 U
b111 (
#200138
1\
b100001000110 ]
#200144
0.
b0 /
#200146
b111 0
#200147
1$
b100001000110 %
#200148
1,
b100001000110 -
#200152
06
b0 7
#200154
b111 8
#200160
0>
b0 ?
#200162
b111 @
#200165
14
b100001000110 5
#200166
1<
b100001000110 =
#200438
1#!
b110011001111110 $!
1+!
b110011010000100 ,!
13!
b110011010001010 4!
1;!
b110011010010000 <!
#200442
1a
b110011011010010 b
1i
b110011011101000 j
1q
b110011011111110 r
1y
b110011100010100 z
#200446
1A
b110011101111110 B
1I
b110011110010100 J
1Q
b110011110101010 R
1Y
b110011111000000 Z
#200452
1!
b110011111010000 "
1)
b110011111100110 *
11
b110011111111100 2
19
b110100000010010 :
#201989
0&!
b0 '!
#201990
0.!
b0 /!
1(!
b1000001110011100 )!
#201991
10!
b1000001110100011 1!
#202007
06!
b0 7!
#202008
0>!
b0 ?!
18!
b1000001110011010 9!
#202009
1@!
b1000001110100001 A!
#202081
0d
b0 e
#202082
1f
b1000001110100000 g
#202178
0l
b0 m
#202179
0t
b0 u
1n
b1000001110011111 o
#202180
1v
b1000001110100110 w
#202196
0|
b0 }
#202197
1~
b1000001110011101 !!
#202237
0D
b0 E
#202238
1F
b1000001110100010 G
#202254
0L
b0 M
#202255
0T
b0 U
1N
b1000001110011001 O
#202256
0\
b0 ]
1V
b1000001110100000 W
#202257
1^
b1000001110100111 _
#202265
0$
b0 %
#202266
0,
b0 -
1&
b1000001110011111 '
#202267
1.
b1000001110100111 /
#202283
04
b0 5
#202284
0<
b0 =
16
b1000001110011110 7
#202285
1>
b1000001110100101 ?
#226676
0#!
b0 $!
#226682
0+!
b0 ,!
#226688
03!
b0 4!
#226694
0;!
b0 <!
#226764
0a
b0 b
#226786
0i
b0 j
#226808
0q
b0 r
#226830
0y
b0 z
#226940
0A
b0 B
#226962
0I
b0 J
#226984
0Q
b0 R
#227006
0Y
b0 Z
#227028
0!
b0 "
#227050
0)
b0 *
#227072
01
b0 2
#227094
09
b0 :
#235682
0(!
b0 )!
#235684
b1000 *!
#235690
00!
b0 1!
#235692
b1000 2!
#235695
1&!
b100001000110 '!
#235696
1.!
b100001000110 /!
#235698
08!
b0 9!
#235700
b1000 :!
#235706
0@!
b0 A!
#235708
b1000 B!
#235713
16!
b100001000110 7!
#235714
1>!
b100001000110 ?!
#235778
0f
b0 g
#235780
b1000 h
#235787
1d
b100001000110 e
#235874
0n
b0 o
#235876
b1000 p
#235882
0v
b0 w
#235884
1l
b100001000110 m
b1000 x
#235885
1t
b100001000110 u
#235890
0~
b0 !!
#235892
b1000 "!
#235902
1|
b100001000110 }
#235936
0F
b0 G
#235938
b1000 H
#235943
1D
b100001000110 E
#235944
0N
b0 O
#235946
b1000 P
#235952
0V
b0 W
#235954
b1000 X
#235960
1L
b100001000110 M
0^
b0 _
#235961
1T
b100001000110 U
0&
b0 '
#235962
b1000 `
#235963
b1000 (
#235970
0.
b0 /
#235971
1$
b100001000110 %
#235972
b1000 0
#235978
1\
b100001000110 ]
06
b0 7
#235980
b1000 8
#235986
0>
b0 ?
#235988
1,
b100001000110 -
b1000 @
#235989
14
b100001000110 5
#235990
1<
b100001000110 =
#236264
1#!
b110011001111110 $!
1+!
b110011010000100 ,!
13!
b110011010001010 4!
1;!
b110011010010000 <!
#236268
1a
b110011011010010 b
1i
b110011011101000 j
1q
b110011011111110 r
1y
b110011100010100 z
#236272
1A
b110011101111110 B
1I
b110011110010100 J
1Q
b110011110101010 R
1Y
b110011111000000 Z
