gemm_5layers/gemm_layer2.vcd
$date today $end
$timescale 1 ns $end
$scope module top $end
$scope module slice0 $end
$var integer 1 ! prefetch $end
$var integer 32 " prefetch_time $end
$var integer 1 # config $end
$var integer 1 $ compute $end
$var integer 32 % compute_time $end
$var integer 1 & write_back $end
$var integer 32 ' write_back_time $end
$var integer 10 ( TG_id $end
$upscope $end
$scope module slice1 $end
$var integer 1 ) prefetch $end
$var integer 32 * prefetch_time $end
$var integer 1 + config $end
$var integer 1 , compute $end
$var integer 32 - compute_time $end
$var integer 1 . write_back $end
$var integer 32 / write_back_time $end
$var integer 10 0 TG_id $end
$upscope $end
$scope module slice10 $end
$var integer 1 q prefetch $end
$var integer 32 r prefetch_time $end
$var integer 1 s config $end
$var integer 1 t compute $end
$var integer 32 u compute_time $end
$var integer 1 v write_back $end
$var integer 32 w write_back_time $end
$var integer 10 x TG_id $end
$upscope $end
$scope module slice11 $end
$var integer 1 y prefetch $end
$var integer 32 z prefetch_time $end
$var integer 1 { config $end
$var integer 1 | compute $end
$var integer 32 } compute_time $end
$var integer 1 ~ write_back $end
$var integer 32 !! write_back_time $end
$var integer 10 "! TG_id $end
$upscope $end
$scope module slice12 $end
$var integer 1 #! prefetch $end
$var integer 32 $! prefetch_time $end
$var integer 1 %! config $end
$var integer 1 &! compute $end
$var integer 32 '! compute_time $end
$var integer 1 (! write_back $end
$var integer 32 )! write_back_time $end
$var integer 10 *! TG_id $end
$upscope $end
$scope module slice13 $end
$var integer 1 +! prefetch $end
$var integer 32 ,! prefetch_time $end
$var integer 1 -! config $end
$var integer 1 .! compute $end
$var integer 32 /! compute_time $end
$var integer 1 0! write_back $end
$var integer 32 1! write_back_time $end
$var integer 10 2! TG_id $end
$upscope $end
$scope module slice14 $end
$var integer 1 3! prefetch $end
$var integer 32 4! prefetch_time $end
$var integer 1 5! config $end
$var integer 1 6! compute $end
$var integer 32 7! compute_time $end
$var integer 1 8! write_back $end
$var integer 32 9! write_back_time $end
$var integer 10 :! TG_id $end
$upscope $end
$scope module slice15 $end
$var integer 1 ;! prefetch $end
$var integer 32 <! prefetch_time $end
$var integer 1 =! config $end
$var integer 1 >! compute $end
$var integer 32 ?! compute_time $end
$var integer 1 @! write_back $end
$var integer 32 A! write_back_time $end
$var integer 10 B! TG_id $end
$upscope $end
$scope module slice2 $end
$var integer 1 1 prefetch $end
$var integer 32 2 prefetch_time $end
$var integer 1 3 config $end
$var integer 1 4 compute $end
$var integer 32 5 compute_time $end
$var integer 1 6 write_back $end
$var integer 32 7 write_back_time $end
$var integer 10 8 TG_id $end
$upscope $end
$scope module slice3 $end
$var integer 1 9 prefetch $end
$var integer 32 : prefetch_time $end
$var integer 1 ; config $end
$var integer 1 < compute $end
$var integer 32 = compute_time $end
$var integer 1 > write_back $end
$var integer 32 ? write_back_time $end
$var integer 10 @ TG_id $end
$upscope $end
$scope module slice4 $end
$var integer 1 A prefetch $end
$var integer 32 B prefetch_time $end
$var integer 1 C config $end
$var integer 1 D compute $end
$var integer 32 E compute_time $end
$var integer 1 F write_back $end
$var integer 32 G write_back_time $end
$var integer 10 H TG_id $end
$upscope $end
$scope module slice5 $end
$var integer 1 I prefetch $end
$var integer 32 J prefetch_time $end
$var integer 1 K config $end
$var integer 1 L compute $end
$var integer 32 M compute_time $end
$var integer 1 N write_back $end
$var integer 32 O write_back_time $end
$var integer 10 P TG_id $end
$upscope $end
$scope module slice6 $end
$var integer 1 Q prefetch $end
$var integer 32 R prefetch_time $end
$var integer 1 S config $end
$var integer 1 T compute $end
$var integer 32 U compute_time $end
$var integer 1 V write_back $end
$var integer 32 W write_back_time $end
$var integer 10 X TG_id $end
$upscope $end
$scope module slice7 $end
$var integer 1 Y prefetch $end
$var integer 32 Z prefetch_time $end
$var integer 1 [ config $end
$var integer 1 \ compute $end
$var integer 32 ] compute_time $end
$var integer 1 ^ write_back $end
$var integer 32 _ write_back_time $end
$var integer 10 ` TG_id $end
$upscope $end
$scope module slice8 $end
$var integer 1 a prefetch $end
$var integer 32 b prefetch_time $end
$var integer 1 c config $end
$var integer 1 d compute $end
$var integer 32 e compute_time $end
$var integer 1 f write_back $end
$var integer 32 g write_back_time $end
$var integer 10 h TG_id $end
$upscope $end
$scope module slice9 $end
$var integer 1 i prefetch $end
$var integer 32 j prefetch_time $end
$var integer 1 k config $end
$var integer 1 l compute $end
$var integer 32 m compute_time $end
$var integer 1 n write_back $end
$var integer 32 o write_back_time $end
$var integer 10 p TG_id $end
$upscope $end
$upscope $end
$enddefinitions $end
#0
$dumpvars
0!
b0 "
0#
0$
b0 %
0&
b0 '
b0 (
0)
b0 *
0+
0,
b0 -
0.
b0 /
b0 0
01
b0 2
03
04
b0 5
06
b0 7
b0 8
09
b0 :
0;
0<
b0 =
0>
b0 ?
b0 @
0A
b0 B
0C
0D
b0 E
0F
b0 G
b0 H
0I
b0 J
0K
0L
b0 M
0N
b0 O
b0 P
0Q
b0 R
0S
0T
b0 U
0V
b0 W
b0 X
0Y
b0 Z
0[
0\
b0 ]
0^
b0 _
b0 `
0a
b0 b
0c
0d
b0 e
0f
b0 g
b0 h
0i
b0 j
0k
0l
b0 m
0n
b0 o
b0 p
0q
b0 r
0s
0t
b0 u
0v
b0 w
b0 x
0y
b0 z
0{
0|
b0 }
0~
b0 !!
b0 "!
1#!
b110111011101011 $!
0%!
0&!
b0 '!
0(!
b0 )!
b0 *!
1+!
b110111011101011 ,!
0-!
0.!
b0 /!
00!
b0 1!
b0 2!
13!
b110111011101011 4!
05!
06!
b0 7!
08!
b0 9!
b0 :!
1;!
b110111011101011 <!
0=!
0>!
b0 ?!
0@!
b0 A!
b0 B!
$end
#4
1a
b110111011100111 b
1i
b110111011100111 j
1q
b110111011100111 r
1y
b110111011100111 z
#8
1A
b110111011100011 B
1I
b110111011100011 J
1Q
b110111011100011 R
1Y
b110111011100011 Z
#14
1!
b111 "
1)
b111 *
11
b111 2
19
b111 :
#21
0!
b0 "
0)
b0 *
01
b0 2
09
b0 :
#28395
0A
b0 B
0I
b0 J
0Q
b0 R
0Y
b0 Z
0a
b0 b
0i
b0 j
0q
b0 r
0y
b0 z
0#!
b0 $!
0+!
b0 ,!
03!
b0 4!
0;!
b0 <!
#29412
1&!
b1000100010 '!
1.!
b1000100010 /!
16!
b1000100010 7!
1>!
b1000100010 ?!
#29416
1d
b1000100010 e
1l
b1000100010 m
1t
b1000100010 u
1|
b1000100010 }
#29420
1D
b1000100010 E
1L
b1000100010 M
1T
b1000100010 U
1\
b1000100010 ]
#29426
1$
b1001 %
1,
b1001 -
14
b1001 5
1<
b1001 =
#29435
0$
b0 %
0,
b0 -
04
b0 5
0<
b0 =
#29518
1&
b1 '
1.
b1 /
16
b1 7
1>
b1 ?
#29519
0&
b0 '
0.
b0 /
06
b0 7
0>
b0 ?
#29521
b1 (
b1 0
b1 8
b1 @
#29768
1#!
b110111100011001 $!
1+!
b110111100011001 ,!
13!
b110111100011001 4!
1;!
b110111100011001 <!
#29772
1a
b110111100010101 b
1i
b110111100010101 j
1q
b110111100010101 r
1y
b110111100010101 z
#29776
1A
b110111100010001 B
1I
b110111100010001 J
1Q
b110111100010001 R
1Y
b110111100010001 Z
#29782
1!
b111 "
1)
b111 *
11
b111 2
19
b111 :
#29789
0!
b0 "
0)
b0 *
01
b0 2
09
b0 :
#29958
0&!
b0 '!
0.!
b0 /!
06!
b0 7!
0>!
b0 ?!
#29959
1(!
b111001111010011 )!
10!
b111001111011011 1!
18!
b111001111100011 9!
1@!
b111001111101011 A!
#29962
0d
b0 e
0l
b0 m
0t
b0 u
0|
b0 }
#29963
1f
b111001110101111 g
1n
b111001110110111 o
1v
b111001110111111 w
1~
b111001111000111 !!
#29966
0D
b0 E
0L
b0 M
0T
b0 U
0\
b0 ]
#29967
1F
b111001111101011 G
1N
b111001111110011 O
1V
b111001111111011 W
1^
b111010000000011 _
#58209
0A
b0 B
0I
b0 J
0Q
b0 R
0Y
b0 Z
0a
b0 b
0i
b0 j
0q
b0 r
0y
b0 z
0#!
b0 $!
0+!
b0 ,!
03!
b0 4!
0;!
b0 <!
#59104
1$
b1001 %
1,
b1001 -
14
b1001 5
1<
b1001 =
#59113
0$
b0 %
0,
b0 -
04
b0 5
0<
b0 =
#59196
1&
b1 '
1.
b1 /
16
b1 7
1>
b1 ?
#59197
0&
b0 '
0.
b0 /
06
b0 7
0>
b0 ?
#59199
b10 (
b10 0
b10 8
b10 @
#59578
0f
b0 g
#59580
b1 h
#59586
0n
b0 o
#59588
b1 p
#59594
0v
b0 w
#59595
1d
b1000100010 e
#59596
1l
b1000100010 m
b1 x
#59597
1t
b1000100010 u
#59602
0~
b0 !!
#59604
b1 "!
#59610
0(!
b0 )!
#59612
b1 *!
#59614
1|
b1000100010 }
#59615
1&!
b1000100010 '!
#59618
00!
b0 1!
#59620
b1 2!
#59626
08!
b0 9!
#59628
b1 :!
#59632
1.!
b1000100010 /!
#59633
16!
b1000100010 7!
#59634
0@!
b0 A!
#59636
b1 B!
#59642
0F
b0 G
#59644
b1 H
#59650
1>!
b1000100010 ?!
0N
b0 O
#59652
b1 P
#59655
1D
b1000100010 E
#59656
1L
b1000100010 M
#59658
0V
b0 W
#59660
b1 X
#59666
0^
b0 _
#59668
b1 `
#59673
1T
b1000100010 U
#59674
1\
b1000100010 ]
#59924
1#!
b100100011001 $!
1+!
b100100011001 ,!
13!
b100100011001 4!
1;!
b100100011001 <!
#59928
1a
b100100010101 b
1i
b100100010101 j
1q
b100100010101 r
1y
b100100010101 z
#59932
1A
b100100010001 B
1I
b100100010001 J
1Q
b100100010001 R
1Y
b100100010001 Z
#59938
1!
b111 "
1)
b111 *
11
b111 2
19
b111 :
#59945
0!
b0 "
0)
b0 *
01
b0 2
09
b0 :
#60141
0d
b0 e
#60142
0l
b0 m
1f
b110110011000 g
#60143
0t
b0 u
1n
b110110011111 o
#60144
1v
b110110100110 w
#60160
0|
b0 }
#60161
0&!
b0 '!
1~
b110110011101 !!
#60162
1(!
b110110100100 )!
#60178
0.!
b0 /!
#60179
06!
b0 7!
10!
b110110011011 1!
#60180
18!
b110110100010 9!
#60196
0>!
b0 ?!
#60197
1@!
b110110011001 A!
#60201
0D
b0 E
#60202
0L
b0 M
1F
b110110011100 G
#60203
1N
b110110100011 O
#60219
0T
b0 U
#60220
0\
b0 ]
1V
b110110011010 W
#60221
1^
b110110100001 _
#62253
0A
b0 B
0I
b0 J
0Q
b0 R
0Y
b0 Z
0a
b0 b
0i
b0 j
0q
b0 r
0y
b0 z
0#!
b0 $!
0+!
b0 ,!
03!
b0 4!
0;!
b0 <!
#63148
1$
b1001 %
1,
b1001 -
14
b1001 5
1<
b1001 =
#63157
0$
b0 %
0,
b0 -
04
b0 5
0<
b0 =
#63240
1&
b1 '
1.
b1 /
16
b1 7
1>
b1 ?
#63241
0&
b0 '
0.
b0 /
06
b0 7
0>
b0 ?
#63243
b11 (
b11 0
b11 8
b11 @
#63622
0f
b0 g
#63624
b10 h
#63627
1d
b1000100010 e
#63630
0n
b0 o
#63632
b10 p
#63638
0v
b0 w
#63640
b10 x
#63644
1l
b1000100010 m
#63645
1t
b1000100010 u
#63646
0~
b0 !!
#63648
b10 "!
#63654
0(!
b0 )!
#63656
b10 *!
#63662
1|
b1000100010 }
00!
b0 1!
#63663
1&!
b1000100010 '!
#63664
b10 2!
#63670
08!
b0 9!
#63672
b10 :!
#63678
0@!
b0 A!
#63680
1.!
b1000100010 /!
b10 B!
#63681
16!
b1000100010 7!
#63682
1>!
b1000100010 ?!
#63686
0F
b0 G
#63688
b10 H
#63694
0N
b0 O
#63696
b10 P
#63702
0V
b0 W
#63703
1D
b1000100010 E
#63704
1L
b1000100010 M
b10 X
#63705
1T
b1000100010 U
#63710
0^
b0 _
#63712
b10 `
#63722
1\
b1000100010 ]
#63952
1#!
b100100011001 $!
1+!
b100100011001 ,!
13!
b100100011001 4!
1;!
b100100011001 <!
#63956
1a
b100100010101 b
1i
b100100010101 j
1q
b100100010101 r
1y
b100100010101 z
#63960
1A
b100100010001 B
1I
b100100010001 J
1Q
b100100010001 R
1Y
b100100010001 Z
#63966
1!
b111 "
1)
b111 *
11
b111 2
19
b111 :
#63973
0!
b0 "
0)
b0 *
01
b0 2
09
b0 :
#64173
0d
b0 e
#64174
1f
b110110010100 g
#64190
0l
b0 m
#64191
0t
b0 u
1n
b110110001011 o
#64192
1v
b110110010010 w
#64208
0|
b0 }
#64209
0&!
b0 '!
1~
b110110001001 !!
#64210
1(!
b110110010000 )!
#64226
0.!
b0 /!
#64227
06!
b0 7!
10!
b110110000111 1!
#64228
0>!
b0 ?!
18!
b110110001110 9!
#64229
1@!
b110110010101 A!
#64249
0D
b0 E
#64250
0L
b0 M
1F
b110110001000 G
#64251
0T
b0 U
1N
b110110001111 O
#64252
1V
b110110010110 W
#64268
0\
b0 ]
#64269
1^
b110110001101 _
#66281
0A
b0 B
0I
b0 J
0Q
b0 R
0Y
b0 Z
0a
b0 b
0i
b0 j
0q
b0 r
0y
b0 z
0#!
b0 $!
0+!
b0 ,!
03!
b0 4!
0;!
b0 <!
#67176
1$
b1001 %
1,
b1001 -
14
b1001 5
1<
b1001 =
#67185
0$
b0 %
0,
b0 -
04
b0 5
0<
b0 =
#67268
1&
b1 '
1.
b1 /
16
b1 7
1>
b1 ?
#67269
0&
b0 '
0.
b0 /
06
b0 7
0>
b0 ?
#67271
b100 (
b100 0
b100 8
b100 @
#67650
0f
b0 g
#67652
b11 h
#67658
0n
b0 o
#67659
1d
b1000100010 e
#67660
b11 p
#67666
0v
b0 w
#67668
b11 x
#67674
0~
b0 !!
#67676
1l
b1000100010 m
b11 "!
#67677
1t
b1000100010 u
#67678
1|
b1000100010 }
#67682
0(!
b0 )!
#67684
b11 *!
#67690
00!
b0 1!
#67692
b11 2!
#67695
1&!
b1000100010 '!
#67696
1.!
b1000100010 /!
#67698
08!
b0 9!
#67700
b11 :!
#67706
0@!
b0 A!
#67708
b11 B!
#67713
16!
b1000100010 7!
#67714
1>!
b1000100010 ?!
0F
b0 G
#67716
b11 H
#67719
1D
b1000100010 E
#67722
0N
b0 O
#67724
b11 P
#67730
0V
b0 W
#67732
b11 X
#67736
1L
b1000100010 M
#67737
1T
b1000100010 U
#67738
0^
b0 _
#67740
b11 `
#67754
1\
b1000100010 ]
#67988
1#!
b100100011001 $!
1+!
b100100011001 ,!
13!
b100100011001 4!
1;!
b100100011001 <!
#67992
1a
b100100010101 b
1i
b100100010101 j
1q
b100100010101 r
1y
b100100010101 z
#67996
1A
b100100010001 B
1I
b100100010001 J
1Q
b100100010001 R
1Y
b100100010001 Z
#68002
1!
b111 "
1)
b111 *
11
b111 2
19
b111 :
#68009
0!
b0 "
0)
b0 *
01
b0 2
09
b0 :
#68205
0d
b0 e
#68206
1f
b110110011000 g
#68222
0l
b0 m
#68223
0t
b0 u
1n
b110110001111 o
#68224
0|
b0 }
1v
b110110010110 w
#68225
1~
b110110011101 !!
#68241
0&!
b0 '!
#68242
0.!
b0 /!
1(!
b110110010100 )!
#68243
10!
b110110011011 1!
#68259
06!
b0 7!
#68260
0>!
b0 ?!
18!
b110110010010 9!
#68261
1@!
b110110011001 A!
#68265
0D
b0 E
#68266
1F
b110110011100 G
#68282
0L
b0 M
#68283
0T
b0 U
1N
b110110010011 O
#68284
1V
b110110011010 W
#68300
0\
b0 ]
#68301
1^
b110110010001 _
#70317
0A
b0 B
0I
b0 J
0Q
b0 R
0Y
b0 Z
0a
b0 b
0i
b0 j
0q
b0 r
0y
b0 z
0#!
b0 $!
0+!
b0 ,!
03!
b0 4!
0;!
b0 <!
#71212
1$
b1001 %
1,
b1001 -
14
b1001 5
1<
b1001 =
#71221
0$
b0 %
0,
b0 -
04
b0 5
0<
b0 =
#71304
1&
b1 '
1.
b1 /
16
b1 7
1>
b1 ?
#71305
0&
b0 '
0.
b0 /
06
b0 7
0>
b0 ?
#71307
b101 (
b101 0
b101 8
b101 @
#71686
0f
b0 g
#71688
b100 h
#71691
1d
b1000100010 e
#71694
0n
b0 o
#71696
b100 p
#71702
0v
b0 w
#71704
b100 x
#71708
1l
b1000100010 m
#71709
1t
b1000100010 u
#71710
0~
b0 !!
#71712
b100 "!
#71718
0(!
b0 )!
#71720
b100 *!
#71726
1|
b1000100010 }
00!
b0 1!
#71727
1&!
b1000100010 '!
#71728
b100 2!
#71734
08!
b0 9!
#71736
b100 :!
#71742
0@!
b0 A!
#71744
1.!
b1000100010 /!
b100 B!
#71745
16!
b1000100010 7!
#71746
1>!
b1000100010 ?!
#71750
0F
b0 G
#71752
b100 H
#71758
0N
b0 O
#71760
b100 P
#71766
0V
b0 W
#71767
1D
b1000100010 E
#71768
1L
b1000100010 M
b100 X
#71769
1T
b1000100010 U
#71774
0^
b0 _
#71776
b100 `
#71786
1\
b1000100010 ]
#72016
1#!
b100100011001 $!
1+!
b100100011001 ,!
13!
b100100011001 4!
1;!
b100100011001 <!
#72020
1a
b100100010101 b
1i
b100100010101 j
1q
b100100010101 r
1y
b100100010101 z
#72024
1A
b100100010001 B
1I
b100100010001 J
1Q
b100100010001 R
1Y
b100100010001 Z
#72030
1!
b111 "
1)
b111 *
11
b111 2
19
b111 :
#72037
0!
b0 "
0)
b0 *
01
b0 2
09
b0 :
#72237
0d
b0 e
#72238
1f
b110110010100 g
#72254
0l
b0 m
#72255
0t
b0 u
1n
b110110001011 o
#72256
1v
b110110010010 w
#72272
0|
b0 }
#72273
0&!
b0 '!
1~
b110110001001 !!
#72274
1(!
b110110010000 )!
#72290
0.!
b0 /!
#72291
06!
b0 7!
10!
b110110000111 1!
#72292
0>!
b0 ?!
18!
b110110001110 9!
#72293
1@!
b110110010101 A!
#72313
0D
b0 E
#72314
0L
b0 M
1F
b110110001000 G
#72315
0T
b0 U
1N
b110110001111 O
#72316
1V
b110110010110 W
#72332
0\
b0 ]
#72333
1^
b110110001101 _
#74345
0A
b0 B
0I
b0 J
0Q
b0 R
0Y
b0 Z
0a
b0 b
0i
b0 j
0q
b0 r
0y
b0 z
0#!
b0 $!
0+!
b0 ,!
03!
b0 4!
0;!
b0 <!
#75240
1$
b1001 %
1,
b1001 -
14
b1001 5
1<
b1001 =
#75249
0$
b0 %
0,
b0 -
04
b0 5
0<
b0 =
#75332
1&
b1 '
1.
b1 /
16
b1 7
1>
b1 ?
#75333
0&
b0 '
0.
b0 /
06
b0 7
0>
b0 ?
#75335
b110 (
b110 0
b110 8
b110 @
#75714
0f
b0 g
#75716
b101 h
#75722
0n
b0 o
#75723
1d
b1000100010 e
#75724
b101 p
#75730
0v
b0 w
#75732
b101 x
#75738
0~
b0 !!
#75740
1l
b1000100010 m
b101 "!
#75741
1t
b1000100010 u
#75742
1|
b1000100010 }
#75746
0(!
b0 )!
#75748
b101 *!
#75754
00!
b0 1!
#75756
b101 2!
#75759
1&!
b1000100010 '!
#75760
1.!
b1000100010 /!
#75762
08!
b0 9!
#75764
b101 :!
#75770
0@!
b0 A!
#75772
b101 B!
#75777
16!
b1000100010 7!
#75778
1>!
b1000100010 ?!
0F
b0 G
#75780
b101 H
#75783
1D
b1000100010 E
#75786
0N
b0 O
#75788
b101 P
#75794
0V
b0 W
#75796
b101 X
#75800
1L
b1000100010 M
#75801
1T
b1000100010 U
#75802
0^
b0 _
#75804
b101 `
#75818
1\
b1000100010 ]
#76052
1#!
b100100011001 $!
1+!
b100100011001 ,!
13!
b100100011001 4!
1;!
b100100011001 <!
#76056
1a
b100100010101 b
1i
b100100010101 j
1q
b100100010101 r
1y
b100100010101 z
#76060
1A
b100100010001 B
1I
b100100010001 J
1Q
b100100010001 R
1Y
b100100010001 Z
#76066
1!
b111 "
1)
b111 *
11
b111 2
19
b111 :
#76073
0!
b0 "
0)
b0 *
01
b0 2
09
b0 :
#76269
0d
b0 e
#76270
1f
b110110011000 g
#76286
0l
b0 m
#76287
0t
b0 u
1n
b110110001111 o
#76288
0|
b0 }
1v
b110110010110 w
#76289
1~
b110110011101 !!
#76305
0&!
b0 '!
#76306
0.!
b0 /!
1(!
b110110010100 )!
#76307
10!
b110110011011 1!
#76323
06!
b0 7!
#76324
0>!
b0 ?!
18!
b110110010010 9!
#76325
1@!
b110110011001 A!
#76329
0D
b0 E
#76330
1F
b110110011100 G
#76346
0L
b0 M
#76347
0T
b0 U
1N
b110110010011 O
#76348
1V
b110110011010 W
#76364
0\
b0 ]
#76365
1^
b110110010001 _
#78381
0A
b0 B
0I
b0 J
0Q
b0 R
0Y
b0 Z
0a
b0 b
0i
b0 j
0q
b0 r
0y
b0 z
0#!
b0 $!
0+!
b0 ,!
03!
b0 4!
0;!
b0 <!
#79276
1$
b1001 %
1,
b1001 -
14
b1001 5
1<
b1001 =
#79285
0$
b0 %
0,
b0 -
04
b0 5
0<
b0 =
#79368
1&
b1 '
1.
b1 /
16
b1 7
1>
b1 ?
#79369
0&
b0 '
0.
b0 /
06
b0 7
0>
b0 ?
#79371
b111 (
b111 0
b111 8
b111 @
#79750
0f
b0 g
#79752
b110 h
#79755
1d
b1000100010 e
#79758
0n
b0 o
#79760
b110 p
#79766
0v
b0 w
#79768
b110 x
#79772
1l
b1000100010 m
#79773
1t
b1000100010 u
#79774
0~
b0 !!
#79776
b110 "!
#79782
0(!
b0 )!
#79784
b110 *!
#79790
1|
b1000100010 }
00!
b0 1!
#79791
1&!
b1000100010 '!
#79792
b110 2!
#79798
08!
b0 9!
#79800
b110 :!
#79806
0@!
b0 A!
#79808
1.!
b1000100010 /!
b110 B!
#79809
16!
b1000100010 7!
#79810
1>!
b1000100010 ?!
#79814
0F
b0 G
#79816
b110 H
#79822
0N
b0 O
#79824
b110 P
#79830
0V
b0 W
#79831
1D
b1000100010 E
#79832
1L
b1000100010 M
b110 X
#79833
1T
b1000100010 U
#79838
0^
b0 _
#79840
b110 `
#79850
1\
b1000100010 ]
#80080
1#!
b100100011001 $!
1+!
b100100011001 ,!
13!
b100100011001 4!
1;!
b100100011001 <!
#80084
1a
b100100010101 b
1i
b100100010101 j
1q
b100100010101 r
1y
b100100010101 z
#80088
1A
b100100010001 B
1I
b100100010001 J
1Q
b100100010001 R
1Y
b100100010001 Z
#80094
1!
b111 "
1)
b111 *
11
b111 2
19
b111 :
#80101
0!
b0 "
0)
b0 *
01
b0 2
09
b0 :
#80301
0d
b0 e
#80302
1f
b110110010100 g
#80318
0l
b0 m
#80319
0t
b0 u
1n
b110110001011 o
#80320
1v
b110110010010 w
#80336
0|
b0 }
#80337
0&!
b0 '!
1~
b110110001001 !!
#80338
1(!
b110110010000 )!
#80354
0.!
b0 /!
#80355
06!
b0 7!
10!
b110110000111 1!
#80356
0>!
b0 ?!
18!
b110110001110 9!
#80357
1@!
b110110010101 A!
#80377
0D
b0 E
#80378
0L
b0 M
1F
b110110001000 G
#80379
0T
b0 U
1N
b110110001111 O
#80380
1V
b110110010110 W
#80396
0\
b0 ]
#80397
1^
b110110001101 _
#82409
0A
b0 B
0I
b0 J
0Q
b0 R
0Y
b0 Z
0a
b0 b
0i
b0 j
0q
b0 r
0y
b0 z
0#!
b0 $!
0+!
b0 ,!
03!
b0 4!
0;!
b0 <!
#83304
1$
b1001 %
1,
b1001 -
14
b1001 5
1<
b1001 =
#83313
0$
b0 %
0,
b0 -
04
b0 5
0<
b0 =
#83396
1&
b1 '
1.
b1 /
16
b1 7
1>
b1 ?
#83397
0&
b0 '
0.
b0 /
06
b0 7
0>
b0 ?
#83399
b1000 (
b1000 0
b1000 8
b1000 @
#83778
0f
b0 g
#83780
b111 h
#83786
0n
b0 o
#83787
1d
b1000100010 e
#83788
b111 p
#83794
0v
b0 w
#83796
b111 x
#83802
0~
b0 !!
#83804
1l
b1000100010 m
b111 "!
#83805
1t
b1000100010 u
#83806
1|
b1000100010 }
#83810
0(!
b0 )!
#83812
b111 *!
#83818
00!
b0 1!
#83820
b111 2!
#83823
1&!
b1000100010 '!
#83824
1.!
b1000100010 /!
#83826
08!
b0 9!
#83828
b111 :!
#83834
0@!
b0 A!
#83836
b111 B!
#83841
16!
b1000100010 7!
#83842
1>!
b1000100010 ?!
0F
b0 G
#83844
b111 H
#83847
1D
b1000100010 E
#83850
0N
b0 O
#83852
b111 P
#83858
0V
b0 W
#83860
b111 X
#83864
1L
b1000100010 M
#83865
1T
b1000100010 U
#83866
0^
b0 _
#83868
b111 `
#83882
1\
b1000100010 ]
#84116
1#!
b100100011001 $!
1+!
b100100011001 ,!
13!
b100100011001 4!
1;!
b100100011001 <!
#84120
1a
b100100010101 b
1i
b100100010101 j
1q
b100100010101 r
1y
b100100010101 z
#84124
1A
b100100010001 B
1I
b100100010001 J
1Q
b100100010001 R
1Y
b100100010001 Z
#84130
1!
b111 "
1)
b111 *
11
b111 2
19
b111 :
#84137
0!
b0 "
0)
b0 *
01
b0 2
09
b0 :
#84333
0d
b0 e
#84334
1f
b110110011000 g
#84350
0l
b0 m
#84351
0t
b0 u
1n
b110110001111 o
#84352
0|
b0 }
1v
b110110010110 w
#84353
1~
b110110011101 !!
#84369
0&!
b0 '!
#84370
0.!
b0 /!
1(!
b110110010100 )!
#84371
10!
b110110011011 1!
#84387
06!
b0 7!
#84388
0>!
b0 ?!
18!
b110110010010 9!
#84389
1@!
b110110011001 A!
#84393
0D
b0 E
#84394
1F
b110110011100 G
#84410
0L
b0 M
#84411
0T
b0 U
1N
b110110010011 O
#84412
1V
b110110011010 W
#84428
0\
b0 ]
#84429
1^
b110110010001 _
#86445
0A
b0 B
0I
b0 J
0Q
b0 R
0Y
b0 Z
0a
b0 b
0i
b0 j
0q
b0 r
0y
b0 z
0#!
b0 $!
0+!
b0 ,!
03!
b0 4!
0;!
b0 <!
#87340
1$
b1001 %
1,
b1001 -
14
b1001 5
1<
b1001 =
#87349
0$
b0 %
0,
b0 -
04
b0 5
0<
b0 =
#87432
1&
b1 '
1.
b1 /
16
b1 7
1>
b1 ?
#87433
0&
b0 '
0.
b0 /
06
b0 7
0>
b0 ?
#87435
b1001 (
b1001 0
b1001 8
b1001 @
#87814
0f
b0 g
#87816
b1000 h
#87819
1d
b1000100010 e
#87822
0n
b0 o
#87824
b1000 p
#87830
0v
b0 w
#87832
b1000 x
#87836
1l
b1000100010 m
#87837
1t
b1000100010 u
#87838
0~
b0 !!
#87840
b1000 "!
#87846
0(!
b0 )!
#87848
b1000 *!
#87854
1|
b1000100010 }
00!
b0 1!
#87855
1&!
b1000100010 '!
#87856
b1000 2!
#87862
08!
b0 9!
#87864
b1000 :!
#87870
0@!
b0 A!
#87872
1.!
b1000100010 /!
b1000 B!
#87873
16!
b1000100010 7!
#87874
1>!
b1000100010 ?!
#87878
0F
b0 G
#87880
b1000 H
#87886
0N
b0 O
#87888
b1000 P
#87894
0V
b0 W
#87895
1D
b1000100010 E
#87896
1L
b1000100010 M
b1000 X
#87897
1T
b1000100010 U
#87902
0^
b0 _
#87904
b1000 `
#87914
1\
b1000100010 ]
#88144
1#!
b100100011001 $!
1+!
b100100011001 ,!
13!
b100100011001 4!
1;!
b100100011001 <!
#88148
1a
b100100010101 b
1i
b100100010101 j
1q
b100100010101 r
1y
b100100010101 z
#88152
1A
b100100010001 B
1I
b100100010001 J
1Q
b100100010001 R
1Y
b100100010001 Z
#88158
1!
b111 "
1)
b111 *
11
b111 2
19
b111 :
#88165
0!
b0 "
0)
b0 *
01
b0 2
09
b0 :
#88365
0d
b0 e
#88366
1f
b110110010100 g
#88382
0l
b0 m
#88383
0t
b0 u
1n
b110110001011 o
#88384
1v
b110110010010 w
#88400
0|
b0 }
#88401
0&!
b0 '!
1~
b110110001001 !!
#88402
1(!
b110110010000 )!
#88418
0.!
b0 /!
#88419
06!
b0 7!
10!
b110110000111 1!
#88420
0>!
b0 ?!
18!
b110110001110 9!
#88421
1@!
b110110010101 A!
#88441
0D
b0 E
#88442
0L
b0 M
1F
b110110001000 G
#88443
0T
b0 U
1N
b110110001111 O
#88444
1V
b110110010110 W
#88460
0\
b0 ]
#88461
1^
b110110001101 _
#90473
0A
b0 B
0I
b0 J
0Q
b0 R
0Y
b0 Z
0a
b0 b
0i
b0 j
0q
b0 r
0y
b0 z
0#!
b0 $!
0+!
b0 ,!
03!
b0 4!
0;!
b0 <!
#91368
1$
b1001 %
1,
b1001 -
14
b1001 5
1<
b1001 =
#91377
0$
b0 %
0,
b0 -
04
b0 5
0<
b0 =
#91460
1&
b1 '
1.
b1 /
16
b1 7
1>
b1 ?
#91461
0&
b0 '
0.
b0 /
06
b0 7
0>
b0 ?
#91463
b1010 (
b1010 0
b1010 8
b1010 @
#91842
0f
b0 g
#91844
b1001 h
#91850
0n
b0 o
#91851
1d
b1000100010 e
#91852
b1001 p
#91858
0v
b0 w
#91860
b1001 x
#91866
0~
b0 !!
#91868
1l
b1000100010 m
b1001 "!
#91869
1t
b1000100010 u
#91870
1|
b1000100010 }
#91874
0(!
b0 )!
#91876
b1001 *!
#91882
00!
b0 1!
#91884
b1001 2!
#91887
1&!
b1000100010 '!
#91888
1.!
b1000100010 /!
#91890
08!
b0 9!
#91892
b1001 :!
#91898
0@!
b0 A!
#91900
b1001 B!
#91905
16!
b1000100010 7!
#91906
1>!
b1000100010 ?!
0F
b0 G
#91908
b1001 H
#91911
1D
b1000100010 E
#91914
0N
b0 O
#91916
b1001 P
#91922
0V
b0 W
#91924
b1001 X
#91928
1L
b1000100010 M
#91929
1T
b1000100010 U
#91930
0^
b0 _
#91932
b1001 `
#91946
1\
b1000100010 ]
#92180
1#!
b100100011001 $!
1+!
b100100011001 ,!
13!
b100100011001 4!
1;!
b100100011001 <!
#92184
1a
b100100010101 b
1i
b100100010101 j
1q
b100100010101 r
1y
b100100010101 z
