gemm_5layers/gemm_layer1.vcd
$date today $end
$timescale 1 ns $end
$scope module top $end
$scope module slice0 $end
$var integer 1 ! prefetch $end
$var integer 32 " prefetch_time $end
$var integer 1 # config $end
$var integer 1 $ compute $end
$var integer 32 % compute_time $end
$var integer 1 & write_back $end
$var integer 32 ' write_back_time $end
$var integer 10 ( TG_id $end
$upscope $end
$scope module slice1 $end
$var integer 1 ) prefetch $end
$var integer 32 * prefetch_time $end
$var integer 1 + config $end
$var integer 1 , compute $end
$var integer 32 - compute_time $end
$var integer 1 . write_back $end
$var integer 32 / write_back_time $end
$var integer 10 0 TG_id $end
$upscope $end
$scope module slice10 $end
$var integer 1 q prefetch $end
$var integer 32 r prefetch_time $end
$var integer 1 s config $end
$var integer 1 t compute $end
$var integer 32 u compute_time $end
$var integer 1 v write_back $end
$var integer 32 w write_back_time $end
$var integer 10 x TG_id $end
$upscope $end
$scope module slice11 $end
$var integer 1 y prefetch $end
$var integer 32 z prefetch_time $end
$var integer 1 { config $end
$var integer 1 | compute $end
$var integer 32 } compute_time $end
$var integer 1 ~ write_back $end
$var integer 32 !! write_back_time $end
$var integer 10 "! TG_id $end
$upscope $end
$scope module slice12 $end
$var integer 1 #! prefetch $end
$var integer 32 $! prefetch_time $end
$var integer 1 %! config $end
$var integer 1 &! compute $end
$var integer 32 '! compute_time $end
$var integer 1 (! write_back $end
$var integer 32 )! write_back_time $end
$var integer 10 *! TG_id $end
$upscope $end
$scope module slice13 $end
$var integer 1 +! prefetch $end
$var integer 32 ,! prefetch_time $end
$var integer 1 -! config $end
$var integer 1 .! compute $end
$var integer 32 /! compute_time $end
$var integer 1 0! write_back $end
$var integer 32 1! write_back_time $end
$var integer 10 2! TG_id $end
$upscope $end
$scope module slice14 $end
$var integer 1 3! prefetch $end
$var integer 32 4! prefetch_time $end
$var integer 1 5! config $end
$var integer 1 6! compute $end
$var integer 32 7! compute_time $end
$var integer 1 8! write_back $end
$var integer 32 9! write_back_time $end
$var integer 10 :! TG_id $end
$upscope $end
$scope module slice15 $end
$var integer 1 ;! prefetch $end
$var integer 32 <! prefetch_time $end
$var integer 1 =! config $end
$var integer 1 >! compute $end
$var integer 32 ?! compute_time $end
$var integer 1 @! write_back $end
$var integer 32 A! write_back_time $end
$var integer 10 B! TG_id $end
$upscope $end
$scope module slice2 $end
$var integer 1 1 prefetch $end
$var integer 32 2 prefetch_time $end
$var integer 1 3 config $end
$var integer 1 4 compute $end
$var integer 32 5 compute_time $end
$var integer 1 6 write_back $end
$var integer 32 7 write_back_time $end
$var integer 10 8 TG_id $end
$upscope $end
$scope module slice3 $end
$var integer 1 9 prefetch $end
$var integer 32 : prefetch_time $end
$var integer 1 ; config $end
$var integer 1 < compute $end
$var integer 32 = compute_time $end
$var integer 1 > write_back $end
$var integer 32 ? write_back_time $end
$var integer 10 @ TG_id $end
$upscope $end
$scope module slice4 $end
$var integer 1 A prefetch $end
$var integer 32 B prefetch_time $end
$var integer 1 C config $end
$var integer 1 D compute $end
$var integer 32 E compute_time $end
$var integer 1 F write_back $end
$var integer 32 G write_back_time $end
$var integer 10 H TG_id $end
$upscope $end
$scope module slice5 $end
$var integer 1 I prefetch $end
$var integer 32 J prefetch_time $end
$var integer 1 K config $end
$var integer 1 L compute $end
$var integer 32 M compute_time $end
$var integer 1 N write_back $end
$var integer 32 O write_back_time $end
$var integer 10 P TG_id $end
$upscope $end
$scope module slice6 $end
$var integer 1 Q prefetch $end
$var integer 32 R prefetch_time $end
$var integer 1 S config $end
$var integer 1 T compute $end
$var integer 32 U compute_time $end
$var integer 1 V write_back $end
$var integer 32 W write_back_time $end
$var integer 10 X TG_id $end
$upscope $end
$scope module slice7 $end
$var integer 1 Y prefetch $end
$var integer 32 Z prefetch_time $end
$var integer 1 [ config $end
$var integer 1 \ compute $end
$var integer 32 ] compute_time $end
$var integer 1 ^ write_back $end
$var integer 32 _ write_back_time $end
$var integer 10 ` TG_id $end
$upscope $end
$scope module slice8 $end
$var integer 1 a prefetch $end
$var integer 32 b prefetch_time $end
$var integer 1 c config $end
$var integer 1 d compute $end
$var integer 32 e compute_time $end
$var integer 1 f write_back $end
$var integer 32 g write_back_time $end
$var integer 10 h TG_id $end
$upscope $end
$scope module slice9 $end
$var integer 1 i prefetch $end
$var integer 32 j prefetch_time $end
$var integer 1 k config $end
$var integer 1 l compute $end
$var integer 32 m compute_time $end
$var integer 1 n write_back $end
$var integer 32 o write_back_time $end
$var integer 10 p TG_id $end
$upscope $end
$upscope $end
$enddefinitions $end
#0
$dumpvars
0!
b0 "
0#
0$
b0 %
0&
b0 '
b0 (
0)
b0 *
0+
0,
b0 -
0.
b0 /
b0 0
01
b0 2
03
04
b0 5
06
b0 7
b0 8
09
b0 :
0;
0<
b0 =
0>
b0 ?
b0 @
0A
b0 B
0C
0D
b0 E
0F
b0 G
b0 H
0I
b0 J
0K
0L
b0 M
0N
b0 O
b0 P
0Q
b0 R
0S
0T
b0 U
0V
b0 W
b0 X
0Y
b0 Z
0[
0\
b0 ]
0^
b0 _
b0 `
0a
b0 b
0c
0d
b0 e
0f
b0 g
b0 h
0i
b0 j
0k
0l
b0 m
0n
b0 o
b0 p
0q
b0 r
0s
0t
b0 u
0v
b0 w
b0 x
0y
b0 z
0{
0|
b0 }
0~
b0 !!
b0 "!
1#!
b110111110010101 $!
0%!
0&!
b0 '!
0(!
b0 )!
b0 *!
1+!
b110111110110111 ,!
0-!
0.!
b0 /!
00!
b0 1!
b0 2!
13!
b110111111011001 4!
05!
06!
b0 7!
08!
b0 9!
b0 :!
1;!
b110111111111011 <!
0=!
0>!
b0 ?!
0@!
b0 A!
b0 B!
$end
#4
1a
b111000100101001 b
1i
b111000101001011 j
1q
b111000101101101 r
1y
b111000110001111 z
#8
1A
b111001000110101 B
1I
b111001001010111 J
1Q
b111001001111001 R
1Y
b111001010011011 Z
#14
1!
b111001010110111 "
1)
b111001011011001 *
11
b111001011111011 2
19
b111001100011101 :
#28565
0#!
b0 $!
#28599
0+!
b0 ,!
#28633
03!
b0 4!
#28667
0;!
b0 <!
#28973
0a
b0 b
#29007
0i
b0 j
#29041
0q
b0 r
#29075
0y
b0 z
#29245
0A
b0 B
#29279
0I
b0 J
#29313
0Q
b0 R
#29347
0Y
b0 Z
#29381
0!
b0 "
#29415
0)
b0 *
#29449
01
b0 2
#29483
09
b0 :
#30500
1&!
b111000111111 '!
1.!
b111000111111 /!
16!
b111000111111 7!
1>!
b111000111111 ?!
#30504
1d
b111000111111 e
1l
b111000111111 m
1t
b111000111111 u
1|
b111000111111 }
#30508
1D
b111000111111 E
1L
b111000111111 M
1T
b111000111111 U
1\
b111000111111 ]
#30514
1$
b111000111111 %
1,
b111000111111 -
14
b111000111111 5
1<
b111000111111 =
#30856
1#!
b110111111000011 $!
1+!
b110111111100101 ,!
13!
b111000000000111 4!
1;!
b111000000101001 <!
#30860
1a
b111000101010111 b
1i
b111000101111001 j
1q
b111000110011011 r
1y
b111000110111101 z
#30864
1A
b111001001100011 B
1I
b111001010000101 J
1Q
b111001010100111 R
1Y
b111001011001001 Z
#30870
1!
b111001011100101 "
1)
b111001100000111 *
11
b111001100101001 2
19
b111001101001011 :
#34147
0&!
b0 '!
0.!
b0 /!
06!
b0 7!
0>!
b0 ?!
#34148
1(!
b1110011010011110 )!
10!
b1110011010100110 1!
18!
b1110011010101110 9!
1@!
b1110011100011110 A!
#34151
0d
b0 e
0l
b0 m
0t
b0 u
0|
b0 }
#34152
1f
b1110011111000010 g
1n
b1110011111001010 o
1v
b1110100000100010 w
1~
b1110100000101010 !!
#34155
0D
b0 E
0L
b0 M
0T
b0 U
0\
b0 ]
#34156
1F
b1110100001010100 G
1N
b1110100001011100 O
1V
b1110100001100100 W
1^
b1110100001101100 _
#34161
0$
b0 %
0,
b0 -
04
b0 5
0<
b0 =
#34162
1&
b1110100001100111 '
1.
b1110100001110000 /
16
b1110100001111000 7
1>
b1110100010000000 ?
#59467
0#!
b0 $!
#59501
0+!
b0 ,!
#59535
03!
b0 4!
#59569
0;!
b0 <!
#59875
0a
b0 b
#59909
0i
b0 j
#59943
0q
b0 r
#59977
0y
b0 z
#60147
0A
b0 B
#60181
0I
b0 J
#60215
0Q
b0 R
#60249
0Y
b0 Z
#60283
0!
b0 "
#60317
0)
b0 *
#60351
01
b0 2
#60385
09
b0 :
#93186
0(!
b0 )!
#93188
b1 *!
#93194
00!
b0 1!
#93196
b1 2!
#93199
1&!
b111000111111 '!
#93200
1.!
b111000111111 /!
#93202
08!
b0 9!
#93204
b1 :!
#93217
16!
b111000111111 7!
#93314
0@!
b0 A!
#93316
b1 B!
#93330
1>!
b111000111111 ?!
#93482
0f
b0 g
#93484
b1 h
#93490
0n
b0 o
#93492
b1 p
#93499
1d
b111000111111 e
#93500
1l
b111000111111 m
#93578
0v
b0 w
#93580
b1 x
#93581
1t
b111000111111 u
#93586
0~
b0 !!
#93588
b1 "!
#93598
1|
b111000111111 }
#93632
0F
b0 G
#93634
b1 H
#93639
1D
b111000111111 E
#93640
0N
b0 O
#93642
b1 P
#93648
0V
b0 W
#93650
b1 X
#93656
1L
b111000111111 M
0^
b0 _
#93657
1T
b111000111111 U
0&
b0 '
#93658
b1 `
#93659
b1 (
#93666
0.
b0 /
#93667
1$
b111000111111 %
#93668
b1 0
#93674
1\
b111000111111 ]
06
b0 7
#93676
b1 8
#93682
0>
b0 ?
#93684
1,
b111000111111 -
b1 @
#93685
14
b111000111111 5
#93686
1<
b111000111111 =
#93954
1#!
b110101011010 $!
1+!
b110101011010 ,!
13!
b110101011010 4!
1;!
b110101011010 <!
#93958
1a
b110101010110 b
1i
b110101010110 j
1q
b110101010110 r
1y
b110101010110 z
#93962
1A
b110101010010 B
1I
b110101010010 J
1Q
b110101010010 R
1Y
b110101010010 Z
#93968
1!
b110101001100 "
1)
b110101001100 *
11
b110101001100 2
19
b110101001100 :
#96846
0&!
b0 '!
#96847
0.!
b0 /!
1(!
b1000010010000101 )!
#96848
10!
b1000010010001100 1!
#96864
06!
b0 7!
#96865
18!
b1000010010000011 9!
#96977
0>!
b0 ?!
#96978
1@!
b1000010000011010 A!
#97146
0d
b0 e
#97147
0l
b0 m
1f
b1000001100111001 g
#97148
1n
b1000001101000000 o
#97228
0t
b0 u
#97229
1v
b1000001011110111 w
#97245
0|
b0 }
#97246
1~
b1000001011101110 !!
#97286
0D
b0 E
#97287
1F
b1000001010001101 G
#97303
0L
b0 M
#97304
0T
b0 U
1N
b1000001010000100 O
#97305
1V
b1000001010001011 W
#97314
0$
b0 %
#97315
1&
b1000001011010001 '
#97321
0\
b0 ]
#97322
1^
b1000001010000010 _
#97331
0,
b0 -
#97332
04
b0 5
1.
b1000001011001000 /
#97333
0<
b0 =
16
b1000001011001111 7
#97334
1>
b1000001011010110 ?
#97372
0!
b0 "
0)
b0 *
01
b0 2
09
b0 :
0A
b0 B
0I
b0 J
0Q
b0 R
0Y
b0 Z
0a
b0 b
0i
b0 j
0q
b0 r
0y
b0 z
0#!
b0 $!
0+!
b0 ,!
03!
b0 4!
0;!
b0 <!
#130708
0F
b0 G
#130710
b10 H
#130711
1D
b111000111111 E
#130716
0N
b0 O
#130718
b10 P
#130724
0V
b0 W
#130726
b10 X
#130728
1L
b111000111111 M
#130729
1T
b111000111111 U
#130732
0^
b0 _
#130734
b10 `
#130740
0f
b0 g
#130742
b10 h
#130746
1\
b111000111111 ]
#130747
1d
b111000111111 e
#130748
0n
b0 o
#130750
b10 p
#130756
0v
b0 w
#130758
b10 x
#130764
1l
b111000111111 m
0~
b0 !!
#130765
1t
b111000111111 u
#130766
b10 "!
#130772
0(!
b0 )!
#130774
b10 *!
#130780
00!
b0 1!
#130782
1|
b111000111111 }
b10 2!
#130783
1&!
b111000111111 '!
#130784
1.!
b111000111111 /!
#130788
08!
b0 9!
#130790
b10 :!
#130796
0@!
b0 A!
#130798
b10 B!
#130801
16!
b111000111111 7!
#130802
1>!
b111000111111 ?!
#130804
0&
b0 '
#130806
b10 (
#130812
0.
b0 /
#130814
b10 0
#130819
1$
b111000111111 %
#130820
1,
b111000111111 -
06
b0 7
#130822
b10 8
#130828
0>
b0 ?
#130830
b10 @
#130837
14
b111000111111 5
#130838
1<
b111000111111 =
#131100
1#!
b110101011010 $!
1+!
b110101011010 ,!
13!
b110101011010 4!
1;!
b110101011010 <!
#131104
1a
b110101010110 b
1i
b110101010110 j
1q
b110101010110 r
1y
b110101010110 z
#131108
1A
b110101010010 B
1I
b110101010010 J
1Q
b110101010010 R
1Y
b110101010010 Z
#131114
1!
b110101001100 "
1)
b110101001100 *
11
b110101001100 2
19
b110101001100 :
#134358
0D
b0 E
#134359
1F
b1000001011010111 G
#134375
0L
b0 M
#134376
0T
b0 U
1N
b1000001011001110 O
#134377
1V
b1000001011010101 W
#134393
0\
b0 ]
#134394
0d
b0 e
1^
b1000001011001100 _
#134395
1f
b1000001011010011 g
#134411
0l
b0 m
#134412
0t
b0 u
1n
b1000001011001010 o
#134413
1v
b1000001011010001 w
#134429
0|
b0 }
#134430
0&!
b0 '!
1~
b1000001011001000 !!
#134431
0.!
b0 /!
1(!
b1000001011001111 )!
#134432
10!
b1000001011010110 1!
#134448
06!
b0 7!
#134449
0>!
b0 ?!
18!
b1000001011001101 9!
#134450
1@!
b1000001011010100 A!
#134466
0$
b0 %
#134467
0,
b0 -
1&
b1000001011001011 '
#134468
1.
b1000001011010010 /
#134484
04
b0 5
#134485
0<
b0 =
16
b1000001011001001 7
#134486
1>
b1000001011010000 ?
#134518
0!
b0 "
0)
b0 *
01
b0 2
09
b0 :
0A
b0 B
0I
b0 J
0Q
b0 R
0Y
b0 Z
0a
b0 b
0i
b0 j
0q
b0 r
0y
b0 z
0#!
b0 $!
0+!
b0 ,!
03!
b0 4!
0;!
b0 <!
#167854
0F
b0 G
#167856
b11 H
#167862
0N
b0 O
#167863
1D
b111000111111 E
#167864
b11 P
#167870
0V
b0 W
#167872
b11 X
#167878
0^
b0 _
#167880
1L
b111000111111 M
b11 `
#167881
1T
b111000111111 U
#167882
1\
b111000111111 ]
#167886
0f
b0 g
#167888
b11 h
#167894
0n
b0 o
#167896
b11 p
#167899
1d
b111000111111 e
#167900
1l
b111000111111 m
#167902
0v
b0 w
#167904
b11 x
#167910
0~
b0 !!
#167912
b11 "!
#167917
1t
b111000111111 u
#167918
1|
b111000111111 }
0(!
b0 )!
#167920
b11 *!
#167926
00!
b0 1!
#167928
b11 2!
#167934
08!
b0 9!
#167935
1&!
b111000111111 '!
#167936
1.!
b111000111111 /!
b11 :!
#167937
16!
b111000111111 7!
#167942
0@!
b0 A!
#167944
b11 B!
#167950
0&
b0 '
#167952
b11 (
#167954
1>!
b111000111111 ?!
#167955
1$
b111000111111 %
#167958
0.
b0 /
#167960
b11 0
#167966
06
b0 7
#167968
b11 8
#167972
1,
b111000111111 -
#167973
14
b111000111111 5
#167974
0>
b0 ?
#167976
b11 @
#167990
1<
b111000111111 =
#168254
1#!
b110101011010 $!
1+!
b110101011010 ,!
13!
b110101011010 4!
1;!
b110101011010 <!
#168258
1a
b110101010110 b
1i
b110101010110 j
1q
b110101010110 r
1y
b110101010110 z
#168262
1A
b110101010010 B
1I
b110101010010 J
1Q
b110101010010 R
1Y
b110101010010 Z
#168268
1!
b110101001100 "
1)
b110101001100 *
11
b110101001100 2
19
b110101001100 :
#171510
0D
b0 E
#171511
1F
b1000001011011001 G
#171527
0L
b0 M
#171528
0T
b0 U
1N
b1000001011010000 O
#171529
0\
b0 ]
1V
b1000001011010111 W
#171530
1^
b1000001011011110 _
#171546
0d
b0 e
#171547
0l
b0 m
1f
b1000001011010101 g
#171548
1n
b1000001011011100 o
#171564
0t
b0 u
#171565
0|
b0 }
1v
b1000001011010011 w
#171566
1~
b1000001011011010 !!
#171582
0&!
b0 '!
#171583
0.!
b0 /!
1(!
b1000001011010001 )!
#171584
06!
b0 7!
10!
b1000001011011000 1!
#171585
18!
b1000001011011111 9!
#171601
0>!
b0 ?!
#171602
0$
b0 %
1@!
b1000001011010110 A!
#171603
1&
b1000001011011101 '
#171619
0,
b0 -
#171620
04
b0 5
1.
b1000001011010100 /
#171621
16
b1000001011011011 7
#171637
0<
b0 =
#171638
1>
b1000001011010010 ?
#171672
0!
b0 "
0)
b0 *
01
b0 2
09
b0 :
0A
b0 B
0I
b0 J
0Q
b0 R
0Y
b0 Z
0a
b0 b
0i
b0 j
0q
b0 r
0y
b0 z
0#!
b0 $!
0+!
b0 ,!
03!
b0 4!
0;!
b0 <!
#205008
0F
b0 G
#205010
b100 H
#205015
1D
b111000111111 E
#205016
0N
b0 O
#205018
b100 P
#205024
0V
b0 W
#205026
b100 X
#205032
1L
b111000111111 M
0^
b0 _
#205033
1T
b111000111111 U
#205034
b100 `
#205040
0f
b0 g
#205042
b100 h
#205048
0n
b0 o
#205050
1\
b111000111111 ]
b100 p
#205051
1d
b111000111111 e
#205052
1l
b111000111111 m
#205056
0v
b0 w
#205058
b100 x
#205064
0~
b0 !!
#205066
b100 "!
#205069
1t
b111000111111 u
#205070
1|
b111000111111 }
#205072
0(!
b0 )!
#205074
b100 *!
#205080
00!
b0 1!
#205082
b100 2!
#205087
1&!
b111000111111 '!
#205088
1.!
b111000111111 /!
08!
b0 9!
#205090
b100 :!
#205096
0@!
b0 A!
#205098
b100 B!
#205104
0&
b0 '
#205105
16!
b111000111111 7!
#205106
1>!
b111000111111 ?!
b100 (
#205107
1$
b111000111111 %
#205112
0.
b0 /
#205114
b100 0
#205120
06
b0 7
#205122
b100 8
#205124
1,
b111000111111 -
#205125
14
b111000111111 5
#205128
0>
b0 ?
#205130
b100 @
#205142
1<
b111000111111 =
#205408
1#!
b110101011010 $!
1+!
b110101011010 ,!
13!
b110101011010 4!
1;!
b110101011010 <!
#205412
1a
b110101010110 b
1i
b110101010110 j
1q
b110101010110 r
1y
b110101010110 z
#205416
1A
b110101010010 B
1I
b110101010010 J
1Q
b110101010010 R
1Y
b110101010010 Z
#205422
1!
b110101001100 "
1)
b110101001100 *
11
b110101001100 2
19
b110101001100 :
#208662
0D
b0 E
#208663
1F
b1000001011011011 G
#208679
0L
b0 M
#208680
0T
b0 U
1N
b1000001011010010 O
#208681
1V
b1000001011011001 W
#208697
0\
b0 ]
#208698
0d
b0 e
1^
b1000001011010000 _
#208699
0l
b0 m
1f
b1000001011010111 g
#208700
1n
b1000001011011110 o
#208716
0t
b0 u
#208717
0|
b0 }
1v
b1000001011010101 w
#208718
1~
b1000001011011100 !!
#208734
0&!
b0 '!
#208735
0.!
b0 /!
1(!
b1000001011010011 )!
#208736
10!
b1000001011011010 1!
#208752
06!
b0 7!
#208753
0>!
b0 ?!
18!
b1000001011010001 9!
#208754
0$
b0 %
1@!
b1000001011011000 A!
#208755
1&
b1000001011011111 '
#208771
0,
b0 -
#208772
04
b0 5
1.
b1000001011010110 /
#208773
16
b1000001011011101 7
#208789
0<
b0 =
#208790
1>
b1000001011010100 ?
#208826
0!
b0 "
0)
b0 *
01
b0 2
09
b0 :
0A
b0 B
0I
b0 J
0Q
b0 R
0Y
b0 Z
0a
b0 b
0i
b0 j
0q
b0 r
0y
b0 z
0#!
b0 $!
0+!
b0 ,!
03!
b0 4!
0;!
b0 <!
#242162
0F
b0 G
#242164
b101 H
#242167
1D
b111000111111 E
#242170
0N
b0 O
#242172
b101 P
#242178
0V
b0 W
#242180
b101 X
#242184
1L
b111000111111 M
#242185
1T
b111000111111 U
#242186
0^
b0 _
#242188
b101 `
#242194
0f
b0 g
#242196
b101 h
#242202
1\
b111000111111 ]
0n
b0 o
#242203
1d
b111000111111 e
#242204
b101 p
#242210
0v
b0 w
#242212
b101 x
#242218
0~
b0 !!
#242220
1l
b111000111111 m
b101 "!
#242221
1t
b111000111111 u
#242222
1|
b111000111111 }
#242226
0(!
b0 )!
#242228
b101 *!
#242234
00!
b0 1!
#242236
b101 2!
#242239
1&!
b111000111111 '!
#242240
1.!
b111000111111 /!
#242242
08!
b0 9!
#242244
b101 :!
#242250
0@!
b0 A!
#242252
b101 B!
#242257
16!
b111000111111 7!
#242258
1>!
b111000111111 ?!
0&
b0 '
#242260
b101 (
#242266
0.
b0 /
#242268
b101 0
#242274
06
b0 7
#242275
1$
b111000111111 %
#242276
1,
b111000111111 -
b101 8
#242277
14
b111000111111 5
#242282
0>
b0 ?
#242284
b101 @
#242294
1<
b111000111111 =
#242562
1#!
b110101011010 $!
1+!
b110101011010 ,!
13!
b110101011010 4!
1;!
b110101011010 <!
#242566
1a
b110101010110 b
1i
b110101010110 j
1q
b110101010110 r
1y
b110101010110 z
#242570
1A
b110101010010 B
1I
b110101010010 J
1Q
b110101010010 R
1Y
b110101010010 Z
#242576
1!
b110101001100 "
1)
b110101001100 *
11
b110101001100 2
19
b110101001100 :
#245814
0D
b0 E
#245815
1F
b1000001011011101 G
#245831
0L
b0 M
#245832
0T
b0 U
1N
b1000001011010100 O
#245833
1V
b1000001011011011 W
#245849
0\
b0 ]
#245850
0d
b0 e
1^
b1000001011010010 _
#245851
1f
b1000001011011001 g
#245867
0l
b0 m
#245868
0t
b0 u
1n
b1000001011010000 o
#245869
0|
b0 }
1v
b1000001011010111 w
#245870
1~
b1000001011011110 !!
#245886
0&!
b0 '!
#245887
0.!
b0 /!
1(!
b1000001011010101 )!
#245888
10!
b1000001011011100 1!
#245904
06!
b0 7!
#245905
0>!
b0 ?!
18!
b1000001011010011 9!
#245906
1@!
b1000001011011010 A!
#245922
0$
b0 %
#245923
0,
b0 -
1&
b1000001011010001 '
#245924
04
b0 5
1.
b1000001011011000 /
#245925
16
b1000001011011111 7
#245941
0<
b0 =
#245942
1>
b1000001011010110 ?
#245980
0!
b0 "
0)
b0 *
01
b0 2
09
b0 :
0A
b0 B
0I
b0 J
0Q
b0 R
0Y
b0 Z
0a
b0 b
0i
b0 j
0q
b0 r
0y
b0 z
0#!
b0 $!
0+!
b0 ,!
03!
b0 4!
0;!
b0 <!
#279316
0F
b0 G
#279318
b110 H
#279319
1D
b111000111111 E
#279324
0N
b0 O
#279326
b110 P
#279332
0V
b0 W
#279334
b110 X
#279336
1L
b111000111111 M
#279337
1T
b111000111111 U
#279340
0^
b0 _
#279342
b110 `
#279348
0f
b0 g
#279350
b110 h
#279354
1\
b111000111111 ]
#279355
1d
b111000111111 e
#279356
0n
b0 o
#279358
b110 p
#279364
0v
b0 w
#279366
b110 x
#279372
1l
b111000111111 m
0~
b0 !!
#279373
1t
b111000111111 u
#279374
b110 "!
#279380
0(!
b0 )!
#279382
b110 *!
#279388
00!
b0 1!
#279390
1|
b111000111111 }
b110 2!
#279391
1&!
b111000111111 '!
#279392
1.!
b111000111111 /!
#279396
08!
b0 9!
#279398
b110 :!
#279404
0@!
b0 A!
#279406
b110 B!
#279409
16!
b111000111111 7!
#279410
1>!
b111000111111 ?!
#279412
0&
b0 '
#279414
b110 (
#279420
0.
b0 /
#279422
b110 0
#279427
1$
b111000111111 %
#279428
1,
b111000111111 -
06
b0 7
#279430
b110 8
#279436
0>
b0 ?
#279438
b110 @
#279445
14
b111000111111 5
#279446
1<
b111000111111 =
#279708
1#!
b110101011010 $!
1+!
b110101011010 ,!
13!
b110101011010 4!
1;!
b110101011010 <!
#279712
1a
b110101010110 b
1i
b110101010110 j
1q
b110101010110 r
1y
b110101010110 z
#279716
1A
b110101010010 B
1I
b110101010010 J
1Q
b110101010010 R
1Y
b110101010010 Z
#279722
1!
b110101001100 "
1)
b110101001100 *
11
b110101001100 2
19
b110101001100 :
#282966
0D
b0 E
#282967
1F
b1000001011010111 G
#282983
0L
b0 M
#282984
0T
b0 U
1N
b1000001011001110 O
#282985
1V
b1000001011010101 W
#283001
0\
b0 ]
#283002
0d
b0 e
1^
b1000001011001100 _
#283003
1f
b1000001011010011 g
#283019
0l
b0 m
#283020
0t
b0 u
1n
b1000001011001010 o
#283021
1v
b1000001011010001 w
#283037
0|
b0 }
#283038
0&!
b0 '!
1~
b1000001011001000 !!
#283039
0.!
b0 /!
1(!
b1000001011001111 )!
#283040
10!
b1000001011010110 1!
#283056
06!
b0 7!
#283057
0>!
b0 ?!
18!
b1000001011001101 9!
#283058
1@!
b1000001011010100 A!
#283074
0$
b0 %
#283075
0,
b0 -
1&
b1000001011001011 '
#283076
1.
b1000001011010010 /
#283092
04
b0 5
#283093
0<
b0 =
16
b1000001011001001 7
#283094
1>
b1000001011010000 ?
#283126
0!
b0 "
0)
b0 *
01
b0 2
09
b0 :
0A
b0 B
0I
b0 J
0Q
b0 R
0Y
b0 Z
0a
b0 b
0i
b0 j
0q
b0 r
0y
b0 z
0#!
b0 $!
0+!
b0 ,!
03!
b0 4!
0;!
b0 <!
#316462
0F
b0 G
#316464
b111 H
#316470
0N
b0 O
#316471
1D
b111000111111 E
#316472
b111 P
#316478
0V
b0 W
#316480
b111 X
#316486
0^
b0 _
#316488
1L
b111000111111 M
b111 `
#316489
1T
b111000111111 U
#316490
1\
b111000111111 ]
#316494
0f
b0 g
#316496
b111 h
#316502
0n
b0 o
#316504
b111 p
#316507
1d
b111000111111 e
#316508
1l
b111000111111 m
#316510
0v
b0 w
#316512
b111 x
#316518
0~
b0 !!
#316520
b111 "!
#316525
1t
b111000111111 u
#316526
1|
b111000111111 }
0(!
b0 )!
#316528
b111 *!
#316534
00!
b0 1!
#316536
b111 2!
#316542
08!
b0 9!
#316543
1&!
b111000111111 '!
#316544
1.!
b111000111111 /!
b111 :!
#316545
16!
b111000111111 7!
#316550
0@!
b0 A!
#316552
b111 B!
#316558
0&
b0 '
#316560
b111 (
#316562
1>!
b111000111111 ?!
#316563
1$
b111000111111 %
#316566
0.
b0 /
#316568
b111 0
#316574
06
b0 7
#316576
b111 8
#316580
1,
b111000111111 -
#316581
14
b111000111111 5
#316582
0>
b0 ?
#316584
b111 @
#316598
1<
b111000111111 =
#320118
0D
b0 E
#320119
1F
b111110101101111 G
#320135
0L
b0 M
#320136
0T
b0 U
1N
b111111001010110 O
#320137
0\
b0 ]
1V
b111111011001101 W
#320138
1^
b111111011010100 _
#320154
0d
b0 e
#320155
0l
b0 m
1f
b111111100101011 g
#320156
1n
b111111100110010 o
#320172
0t
b0 u
#320173
0|
b0 }
1v
b111111100101001 w
#320174
1~
b111111100110000 !!
#320190
0&!
b0 '!
#320191
0.!
b0 /!
1(!
b111111101100110 )!
#320192
06!
b0 7!
10!
b111111101101110 1!
#320193
18!
b111111101110101 9!
#320209
0>!
b0 ?!
#320210
0$
b0 %
1@!
b111111101101100 A!
#320211
1&
b111111101110011 '
#320227
0,
b0 -
#320228
04
b0 5
1.
b111111101101010 /
#320229
16
b111111101110001 7
#320245
0<
b0 =
#320246
1>
b111111101101000 ?
#352230
0F
b0 G
#352232
b1000 H
#352478
0N
b0 O
#352480
b1000 P
#352598
0V
b0 W
#352600
b1000 X
#352606
0^
b0 _
#352608
b1000 `
#352710
0f
b0 g
#352712
b1000 h
#352718
0n
b0 o
#352720
b1000 p
#352726
0v
b0 w
#352728
b1000 x
#352734
0~
b0 !!
#352736
b1000 "!
#352805
0(!
b0 )!
#352807
b1000 *!
#352814
00!
b0 1!
#352816
b1000 2!
#352822
08!
b0 9!
#352824
b1000 :!
#352830
0@!
b0 A!
#352832
b1000 B!
#352838
0&
b0 '
#352840
b1000 (
#352846
0.
b0 /
#352848
b1000 0
#352854
06
b0 7
#352856
b1000 8
#352862
0>
b0 ?
#352864
b1000 @
