gemm_5layers/gemm_layer4.vcd
$date today $end
$timescale 1 ns $end
$scope module top $end
$scope module slice0 $end
$var integer 1 ! prefetch $end
$var integer 32 " prefetch_time $end
$var integer 1 # config $end
$var integer 1 $ compute $end
$var integer 32 % compute_time $end
$var integer 1 & write_back $end
$var integer 32 ' write_back_time $end
$var integer 10 ( TG_id $end
$upscope $end
$scope module slice1 $end
$var integer 1 ) prefetch $end
$var integer 32 * prefetch_time $end
$var integer 1 + config $end
$var integer 1 , compute $end
$var integer 32 - compute_time $end
$var integer 1 . write_back $end
$var integer 32 / write_back_time $end
$var integer 10 0 TG_id $end
$upscope $end
$scope module slice10 $end
$var integer 1 q prefetch $end
$var integer 32 r prefetch_time $end
$var integer 1 s config $end
$var integer 1 t compute $end
$var integer 32 u compute_time $end
$var integer 1 v write_back $end
$var integer 32 w write_back_time $end
$var integer 10 x TG_id $end
$upscope $end
$scope module slice11 $end
$var integer 1 y prefetch $end
$var integer 32 z prefetch_time $end
$var integer 1 { config $end
$var integer 1 | compute $end
$var integer 32 } compute_time $end
$var integer 1 ~ write_back $end
$var integer 32 !! write_back_time $end
$var integer 10 "! TG_id $end
$upscope $end
$scope module slice12 $end
$var integer 1 #! prefetch $end
$var integer 32 $! prefetch_time $end
$var integer 1 %! config $end
$var integer 1 &! compute $end
$var integer 32 '! compute_time $end
$var integer 1 (! write_back $end
$var integer 32 )! write_back_time $end
$var integer 10 *! TG_id $end
$upscope $end
$scope module slice13 $end
$var integer 1 +! prefetch $end
$var integer 32 ,! prefetch_time $end
$var integer 1 -! config $end
$var integer 1 .! compute $end
$var integer 32 /! compute_time $end
$var integer 1 0! write_back $end
$var integer 32 1! write_back_time $end
$var integer 10 2! TG_id $end
$upscope $end
$scope module slice14 $end
$var integer 1 3! prefetch $end
$var integer 32 4! prefetch_time $end
$var integer 1 5! config $end
$var integer 1 6! compute $end
$var integer 32 7! compute_time $end
$var integer 1 8! write_back $end
$var integer 32 9! write_back_time $end
$var integer 10 :! TG_id $end
$upscope $end
$scope module slice15 $end
$var integer 1 ;! prefetch $end
$var integer 32 <! prefetch_time $end
$var integer 1 =! config $end
$var integer 1 >! compute $end
$var integer 32 ?! compute_time $end
$var integer 1 @! write_back $end
$var integer 32 A! write_back_time $end
$var integer 10 B! TG_id $end
$upscope $end
$scope module slice2 $end
$var integer 1 1 prefetch $end
$var integer 32 2 prefetch_time $end
$var integer 1 3 config $end
$var integer 1 4 compute $end
$var integer 32 5 compute_time $end
$var integer 1 6 write_back $end
$var integer 32 7 write_back_time $end
$var integer 10 8 TG_id $end
$upscope $end
$scope module slice3 $end
$var integer 1 9 prefetch $end
$var integer 32 : prefetch_time $end
$var integer 1 ; config $end
$var integer 1 < compute $end
$var integer 32 = compute_time $end
$var integer 1 > write_back $end
$var integer 32 ? write_back_time $end
$var integer 10 @ TG_id $end
$upscope $end
$scope module slice4 $end
$var integer 1 A prefetch $end
$var integer 32 B prefetch_time $end
$var integer 1 C config $end
$var integer 1 D compute $end
$var integer 32 E compute_time $end
$var integer 1 F write_back $end
$var integer 32 G write_back_time $end
$var integer 10 H TG_id $end
$upscope $end
$scope module slice5 $end
$var integer 1 I prefetch $end
$var integer 32 J prefetch_time $end
$var integer 1 K config $end
$var integer 1 L compute $end
$var integer 32 M compute_time $end
$var integer 1 N write_back $end
$var integer 32 O write_back_time $end
$var integer 10 P TG_id $end
$upscope $end
$scope module slice6 $end
$var integer 1 Q prefetch $end
$var integer 32 R prefetch_time $end
$var integer 1 S config $end
$var integer 1 T compute $end
$var integer 32 U compute_time $end
$var integer 1 V write_back $end
$var integer 32 W write_back_time $end
$var integer 10 X TG_id $end
$upscope $end
$scope module slice7 $end
$var integer 1 Y prefetch $end
$var integer 32 Z prefetch_time $end
$var integer 1 [ config $end
$var integer 1 \ compute $end
$var integer 32 ] compute_time $end
$var integer 1 ^ write_back $end
$var integer 32 _ write_back_time $end
$var integer 10 ` TG_id $end
$upscope $end
$scope module slice8 $end
$var integer 1 a prefetch $end
$var integer 32 b prefetch_time $end
$var integer 1 c config $end
$var integer 1 d compute $end
$var integer 32 e compute_time $end
$var integer 1 f write_back $end
$var integer 32 g write_back_time $end
$var integer 10 h TG_id $end
$upscope $end
$scope module slice9 $end
$var integer 1 i prefetch $end
$var integer 32 j prefetch_time $end
$var integer 1 k config $end
$var integer 1 l compute $end
$var integer 32 m compute_time $end
$var integer 1 n write_back $end
$var integer 32 o write_back_time $end
$var integer 10 p TG_id $end
$upscope $end
$upscope $end
$enddefinitions $end
#0
$dumpvars
0!
b0 "
0#
0$
b0 %
0&
b0 '
b0 (
0)
b0 *
0+
0,
b0 -
0.
b0 /
b0 0
01
b0 2
03
04
b0 5
06
b0 7
b0 8
09
b0 :
0;
0<
b0 =
0>
b0 ?
b0 @
0A
b0 B
0C
0D
b0 E
0F
b0 G
b0 H
0I
b0 J
0K
0L
b0 M
0N
b0 O
b0 P
0Q
b0 R
0S
0T
b0 U
0V
b0 W
b0 X
0Y
b0 Z
0[
0\
b0 ]
0^
b0 _
b0 `
0a
b0 b
0c
0d
b0 e
0f
b0 g
b0 h
0i
b0 j
0k
0l
b0 m
0n
b0 o
b0 p
0q
b0 r
0s
0t
b0 u
0v
b0 w
b0 x
0y
b0 z
0{
0|
b0 }
0~
b0 !!
b0 "!
1#!
b10001000100101000 $!
0%!
0&!
b0 '!
0(!
b0 )!
b0 *!
1+!
b10001000100101110 ,!
0-!
0.!
b0 /!
00!
b0 1!
b0 2!
13!
b10001000100110100 4!
05!
06!
b0 7!
08!
b0 9!
b0 :!
1;!
b10001000100111010 <!
0=!
0>!
b0 ?!
0@!
b0 A!
b0 B!
$end
#4
1a
b10001000101101100 b
1i
b10001000101110010 j
1q
b10001000101111000 r
1y
b10001000101111110 z
#8
1A
b10001000110011000 B
1I
b10001000110011110 J
1Q
b10001000110100100 R
1Y
b10001000110101010 Z
#14
1!
b10001000110101010 "
1)
b10001000110110000 *
11
b10001000110110110 2
19
b10001000110111100 :
#69928
0#!
b0 $!
#69934
0+!
b0 ,!
#69940
03!
b0 4!
#69946
0;!
b0 <!
#70000
0a
b0 b
#70006
0i
b0 j
#70012
0q
b0 r
#70018
0y
b0 z
#70048
0A
b0 B
#70054
0I
b0 J
#70060
0Q
b0 R
#70066
0Y
b0 Z
#70072
0!
b0 "
#70078
0)
b0 *
#70084
01
b0 2
#70090
09
b0 :
#71108
1&!
b11100110111 '!
1.!
b11100110111 /!
16!
b11100110111 7!
1>!
b11100110111 ?!
#71112
1d
b11100110111 e
1l
b11100110111 m
1t
b11100110111 u
1|
b11100110111 }
#71116
1D
b11100110111 E
1L
b11100110111 M
1T
b11100110111 U
1\
b11100110111 ]
#71122
1$
b11100110111 %
1,
b11100110111 -
14
b11100110111 5
1<
b11100110111 =
#71464
1#!
b10001000101010110 $!
1+!
b10001000101011100 ,!
13!
b10001000101100010 4!
1;!
b10001000101101000 <!
#71468
1a
b10001000110011100 b
1i
b10001000110100100 j
1q
b10001000110101100 r
1y
b10001000110110100 z
#71472
1A
b10001000111011000 B
1I
b10001000111100000 J
1Q
b10001000111101000 R
1Y
b10001000111110000 Z
#71478
1!
b10001000111110010 "
1)
b10001000111111010 *
11
b10001001000000010 2
19
b10001001000001010 :
#72955
0&!
b0 '!
0.!
b0 /!
06!
b0 7!
0>!
b0 ?!
#72956
1(!
b10001110011010000 )!
10!
b10001110011011000 1!
18!
b10001110011100000 9!
1@!
b10001110011101000 A!
#72959
0d
b0 e
0l
b0 m
0t
b0 u
0|
b0 }
#72960
1f
b10001110111101100 g
1n
b10001110111110100 o
1v
b10001110111111100 w
1~
b10001111000000100 !!
#72963
0D
b0 E
0L
b0 M
0T
b0 U
0\
b0 ]
#72964
1F
b10001111000101110 G
1N
b10001111000110110 O
1V
b10001111000111110 W
1^
b10001111001000110 _
#72969
0$
b0 %
0,
b0 -
04
b0 5
0<
b0 =
#72970
1&
b10001111001000001 '
1.
b10001111001001010 /
16
b10001111001010010 7
1>
b10001111001011010 ?
#141438
0#!
b0 $!
#141444
0+!
b0 ,!
#141450
03!
b0 4!
#141456
0;!
b0 <!
#141512
0a
b0 b
#141520
0i
b0 j
#141528
0q
b0 r
#141536
0y
b0 z
#141576
0A
b0 B
#141584
0I
b0 J
#141592
0Q
b0 R
#141600
0Y
b0 Z
#141608
0!
b0 "
#141616
0)
b0 *
#141624
01
b0 2
#141632
09
b0 :
#145868
0(!
b0 )!
#145870
b1 *!
#145871
1&!
b11100110111 '!
#145876
00!
b0 1!
#145878
b1 2!
#145884
08!
b0 9!
#145886
b1 :!
#145888
1.!
b11100110111 /!
#145889
16!
b11100110111 7!
#145892
0@!
b0 A!
#145894
b1 B!
#145906
1>!
b11100110111 ?!
#146156
0f
b0 g
#146158
b1 h
#146164
0n
b0 o
#146166
b1 p
#146171
1d
b11100110111 e
#146172
1l
b11100110111 m
0v
b0 w
#146174
b1 x
#146180
0~
b0 !!
#146182
b1 "!
#146189
1t
b11100110111 u
#146190
1|
b11100110111 }
#146226
0F
b0 G
#146228
b1 H
#146231
1D
b11100110111 E
#146234
0N
b0 O
#146236
b1 P
#146242
0V
b0 W
#146244
b1 X
#146248
1L
b11100110111 M
#146249
1T
b11100110111 U
#146250
0^
b0 _
#146251
0&
b0 '
#146252
b1 `
#146253
b1 (
#146259
1$
b11100110111 %
#146260
0.
b0 /
#146262
b1 0
#146266
1\
b11100110111 ]
#146268
06
b0 7
#146270
b1 8
#146276
1,
b11100110111 -
0>
b0 ?
#146277
14
b11100110111 5
#146278
b1 @
#146294
1<
b11100110111 =
#146556
1#!
b1101101010110 $!
1+!
b1101101011100 ,!
13!
b1101101100010 4!
1;!
b1101101101000 <!
#146560
1a
b1101110011100 b
1i
b1101110100100 j
1q
b1101110101100 r
1y
b1101110110100 z
#146564
1A
b1101111011000 B
1I
b1101111100000 J
1Q
b1101111101000 R
1Y
b1101111110000 Z
#146570
1!
b1101111110010 "
1)
b1101111111010 *
11
b1110000000010 2
19
b1110000001010 :
#147718
0&!
b0 '!
#147719
1(!
b10100000011001 )!
#147735
0.!
b0 /!
#147736
06!
b0 7!
10!
b10100000010000 1!
#147737
18!
b10100000010111 9!
#147753
0>!
b0 ?!
#147754
1@!
b10100000001110 A!
#148018
0d
b0 e
#148019
0l
b0 m
1f
b10100000001101 g
#148020
1n
b10100000010100 o
#148036
0t
b0 u
#148037
0|
b0 }
1v
b10100000001011 w
#148038
1~
b10100000010010 !!
#148078
0D
b0 E
#148079
1F
b10100000010111 G
#148095
0L
b0 M
#148096
0T
b0 U
1N
b10100000001110 O
#148097
1V
b10100000010101 W
#148106
0$
b0 %
#148107
1&
b10100000010100 '
#148113
0\
b0 ]
#148114
1^
b10100000001100 _
#148123
0,
b0 -
#148124
04
b0 5
1.
b10100000001100 /
#148125
16
b10100000010011 7
#148141
0<
b0 =
#148142
1>
b10100000001010 ?
#153554
0#!
b0 $!
#153560
0+!
b0 ,!
#153566
03!
b0 4!
#153572
0;!
b0 <!
#153628
0a
b0 b
#153636
0i
b0 j
#153644
0q
b0 r
#153652
0y
b0 z
#153692
0A
b0 B
#153700
0I
b0 J
#153708
0Q
b0 R
#153716
0Y
b0 Z
#153724
0!
b0 "
#153732
0)
b0 *
#153740
01
b0 2
#153748
09
b0 :
#157984
0(!
b0 )!
#157986
b10 *!
#157992
00!
b0 1!
#157994
b10 2!
#157999
1&!
b11100110111 '!
#158000
1.!
b11100110111 /!
08!
b0 9!
#158002
b10 :!
#158008
0@!
b0 A!
#158010
b10 B!
#158017
16!
b11100110111 7!
#158018
1>!
b11100110111 ?!
#158272
0f
b0 g
#158274
b10 h
#158280
0n
b0 o
#158282
b10 p
#158283
1d
b11100110111 e
#158284
1l
b11100110111 m
#158288
0v
b0 w
#158290
b10 x
#158296
0~
b0 !!
#158298
b10 "!
#158301
1t
b11100110111 u
#158302
1|
b11100110111 }
#158342
0F
b0 G
#158344
b10 H
#158350
0N
b0 O
#158352
b10 P
#158358
0V
b0 W
#158359
1D
b11100110111 E
#158360
1L
b11100110111 M
b10 X
#158361
1T
b11100110111 U
#158366
0^
b0 _
#158367
0&
b0 '
#158368
b10 `
#158369
b10 (
#158371
1$
b11100110111 %
#158376
0.
b0 /
#158378
1\
b11100110111 ]
b10 0
#158384
06
b0 7
#158386
b10 8
#158388
1,
b11100110111 -
#158389
14
b11100110111 5
#158392
0>
b0 ?
#158394
b10 @
#158406
1<
b11100110111 =
#158672
1#!
b1101101010110 $!
1+!
b1101101011100 ,!
13!
b1101101100010 4!
1;!
b1101101101000 <!
#158676
1a
b1101110011100 b
1i
b1101110100100 j
1q
b1101110101100 r
1y
b1101110110100 z
#158680
1A
b1101111011000 B
1I
b1101111100000 J
1Q
b1101111101000 R
1Y
b1101111110000 Z
#158686
1!
b1101111110010 "
1)
b1101111111010 *
11
b1110000000010 2
19
b1110000001010 :
#159846
0&!
b0 '!
#159847
0.!
b0 /!
1(!
b10100000001101 )!
#159848
10!
b10100000010100 1!
#159864
06!
b0 7!
#159865
0>!
b0 ?!
18!
b10100000001011 9!
#159866
1@!
b10100000010010 A!
#160130
0d
b0 e
#160131
0l
b0 m
1f
b10100000010001 g
#160132
1n
b10100000011000 o
#160148
0t
b0 u
#160149
0|
b0 }
1v
b10100000001111 w
#160150
1~
b10100000010110 !!
#160206
0D
b0 E
#160207
0L
b0 M
1F
b10100000001011 G
#160208
0T
b0 U
1N
b10100000010010 O
#160209
1V
b10100000011001 W
#160218
0$
b0 %
#160219
1&
b10100000011000 '
#160225
0\
b0 ]
#160226
1^
b10100000010000 _
#160235
0,
b0 -
#160236
04
b0 5
1.
b10100000010000 /
#160237
16
b10100000010111 7
#160253
0<
b0 =
#160254
1>
b10100000001110 ?
#165670
0#!
b0 $!
#165676
0+!
b0 ,!
#165682
03!
b0 4!
#165688
0;!
b0 <!
#165744
0a
b0 b
#165752
0i
b0 j
#165760
0q
b0 r
#165768
0y
b0 z
#165808
0A
b0 B
#165816
0I
b0 J
#165824
0Q
b0 R
#165832
0Y
b0 Z
#165840
0!
b0 "
#165848
0)
b0 *
#165856
01
b0 2
#165864
09
b0 :
#170100
0(!
b0 )!
#170102
b11 *!
#170108
00!
b0 1!
#170110
b11 2!
#170111
1&!
b11100110111 '!
#170112
1.!
b11100110111 /!
#170116
08!
b0 9!
#170118
b11 :!
#170124
0@!
b0 A!
#170126
b11 B!
#170129
16!
b11100110111 7!
#170130
1>!
b11100110111 ?!
#170388
0f
b0 g
#170390
b11 h
#170395
1d
b11100110111 e
#170396
0n
b0 o
#170398
b11 p
#170404
0v
b0 w
#170406
b11 x
#170412
1l
b11100110111 m
0~
b0 !!
#170413
1t
b11100110111 u
#170414
b11 "!
#170430
1|
b11100110111 }
#170458
0F
b0 G
#170460
b11 H
#170466
0N
b0 O
#170468
b11 P
#170471
1D
b11100110111 E
#170472
1L
b11100110111 M
#170474
0V
b0 W
#170476
b11 X
#170482
0^
b0 _
#170483
0&
b0 '
#170484
b11 `
#170485
b11 (
#170489
1T
b11100110111 U
#170490
1\
b11100110111 ]
#170492
0.
b0 /
#170494
b11 0
#170499
1$
b11100110111 %
#170500
1,
b11100110111 -
06
b0 7
#170502
b11 8
#170508
0>
b0 ?
#170510
b11 @
#170517
14
b11100110111 5
#170518
1<
b11100110111 =
#170780
1#!
b1101101010110 $!
1+!
b1101101011100 ,!
13!
b1101101100010 4!
1;!
b1101101101000 <!
#170784
1a
b1101110011100 b
1i
b1101110100100 j
1q
b1101110101100 r
1y
b1101110110100 z
#170788
1A
b1101111011000 B
1I
b1101111100000 J
1Q
b1101111101000 R
1Y
b1101111110000 Z
#170794
1!
b1101111110010 "
1)
b1101111111010 *
11
b1110000000010 2
19
b1110000001010 :
#171958
0&!
b0 '!
#171959
0.!
b0 /!
1(!
b10100000001001 )!
#171960
10!
b10100000010000 1!
#171976
06!
b0 7!
#171977
0>!
b0 ?!
18!
b10100000000111 9!
#171978
1@!
b10100000001110 A!
#172242
0d
b0 e
#172243
1f
b10100000001101 g
#172259
0l
b0 m
#172260
0t
b0 u
1n
b10100000000100 o
#172261
1v
b10100000001011 w
#172277
0|
b0 }
#172278
1~
b10100000000010 !!
#172318
0D
b0 E
#172319
0L
b0 M
1F
b10100000000111 G
#172320
1N
b10100000001110 O
#172336
0T
b0 U
#172337
0\
b0 ]
1V
b10100000000101 W
#172338
1^
b10100000001100 _
#172346
0$
b0 %
#172347
0,
b0 -
1&
b10100000000100 '
#172348
1.
b10100000001100 /
#172364
04
b0 5
#172365
0<
b0 =
16
b10100000000011 7
#172366
1>
b10100000001010 ?
#177778
0#!
b0 $!
#177784
0+!
b0 ,!
#177790
03!
b0 4!
#177796
0;!
b0 <!
#177852
0a
b0 b
#177860
0i
b0 j
#177868
0q
b0 r
#177876
0y
b0 z
#177916
0A
b0 B
#177924
0I
b0 J
#177932
0Q
b0 R
#177940
0Y
b0 Z
#177948
0!
b0 "
#177956
0)
b0 *
#177964
01
b0 2
#177972
09
b0 :
#182208
0(!
b0 )!
#182210
b100 *!
#182216
00!
b0 1!
#182218
b100 2!
#182223
1&!
b11100110111 '!
#182224
1.!
b11100110111 /!
08!
b0 9!
#182226
b100 :!
#182232
0@!
b0 A!
#182234
b100 B!
#182241
16!
b11100110111 7!
#182242
1>!
b11100110111 ?!
#182496
0f
b0 g
#182498
b100 h
#182504
0n
b0 o
#182506
b100 p
#182507
1d
b11100110111 e
#182508
1l
b11100110111 m
#182512
0v
b0 w
#182514
b100 x
#182520
0~
b0 !!
#182522
b100 "!
#182525
1t
b11100110111 u
#182526
1|
b11100110111 }
#182566
0F
b0 G
#182568
b100 H
#182574
0N
b0 O
#182576
b100 P
#182582
0V
b0 W
#182583
1D
b11100110111 E
#182584
1L
b11100110111 M
b100 X
#182585
1T
b11100110111 U
#182590
0^
b0 _
#182591
0&
b0 '
#182592
b100 `
#182593
b100 (
#182595
1$
b11100110111 %
#182600
0.
b0 /
#182602
1\
b11100110111 ]
b100 0
#182608
06
b0 7
#182610
b100 8
#182612
1,
b11100110111 -
#182613
14
b11100110111 5
#182616
0>
b0 ?
#182618
b100 @
#182630
1<
b11100110111 =
#182896
1#!
b1101101010110 $!
1+!
b1101101011100 ,!
13!
b1101101100010 4!
1;!
b1101101101000 <!
#182900
1a
b1101110011100 b
1i
b1101110100100 j
1q
b1101110101100 r
1y
b1101110110100 z
#182904
1A
b1101111011000 B
1I
b1101111100000 J
1Q
b1101111101000 R
1Y
b1101111110000 Z
#182910
1!
b1101111110010 "
1)
b1101111111010 *
11
b1110000000010 2
19
b1110000001010 :
#184070
0&!
b0 '!
#184071
0.!
b0 /!
1(!
b10100000001101 )!
#184072
10!
b10100000010100 1!
#184088
06!
b0 7!
#184089
0>!
b0 ?!
18!
b10100000001011 9!
#184090
1@!
b10100000010010 A!
#184354
0d
b0 e
#184355
0l
b0 m
1f
b10100000010001 g
#184356
1n
b10100000011000 o
#184372
0t
b0 u
#184373
0|
b0 }
1v
b10100000001111 w
#184374
1~
b10100000010110 !!
#184430
0D
b0 E
#184431
0L
b0 M
1F
b10100000001011 G
#184432
0T
b0 U
1N
b10100000010010 O
#184433
1V
b10100000011001 W
#184442
0$
b0 %
#184443
1&
b10100000011000 '
#184449
0\
b0 ]
#184450
1^
b10100000010000 _
#184459
0,
b0 -
#184460
04
b0 5
1.
b10100000010000 /
#184461
16
b10100000010111 7
#184477
0<
b0 =
#184478
1>
b10100000001110 ?
#189894
0#!
b0 $!
#189900
0+!
b0 ,!
#189906
03!
b0 4!
#189912
0;!
b0 <!
#189968
0a
b0 b
#189976
0i
b0 j
#189984
0q
b0 r
#189992
0y
b0 z
#190032
0A
b0 B
#190040
0I
b0 J
#190048
0Q
b0 R
#190056
0Y
b0 Z
#190064
0!
b0 "
#190072
0)
b0 *
#190080
01
b0 2
#190088
09
b0 :
#194324
0(!
b0 )!
#194326
b101 *!
#194332
00!
b0 1!
#194334
b101 2!
#194335
1&!
b11100110111 '!
#194336
1.!
b11100110111 /!
#194340
08!
b0 9!
#194342
b101 :!
#194348
0@!
b0 A!
#194350
b101 B!
#194353
16!
b11100110111 7!
#194354
1>!
b11100110111 ?!
#194612
0f
b0 g
#194614
b101 h
#194619
1d
b11100110111 e
#194620
0n
b0 o
#194622
b101 p
#194628
0v
b0 w
#194630
b101 x
#194636
1l
b11100110111 m
0~
b0 !!
#194637
1t
b11100110111 u
#194638
b101 "!
#194654
1|
b11100110111 }
#194682
0F
b0 G
#194684
b101 H
#194690
0N
b0 O
#194692
b101 P
#194695
1D
b11100110111 E
#194696
1L
b11100110111 M
#194698
0V
b0 W
#194700
b101 X
#194706
0^
b0 _
#194707
0&
b0 '
#194708
b101 `
#194709
b101 (
#194713
1T
b11100110111 U
#194714
1\
b11100110111 ]
#194716
0.
b0 /
#194718
b101 0
#194723
1$
b11100110111 %
#194724
1,
b11100110111 -
06
b0 7
#194726
b101 8
#194732
0>
b0 ?
#194734
b101 @
#194741
14
b11100110111 5
#194742
1<
b11100110111 =
#195004
1#!
b1101101010110 $!
1+!
b1101101011100 ,!
13!
b1101101100010 4!
1;!
b1101101101000 <!
#195008
1a
b1101110011100 b
1i
b1101110100100 j
1q
b1101110101100 r
1y
b1101110110100 z
#195012
1A
b1101111011000 B
1I
b1101111100000 J
1Q
b1101111101000 R
1Y
b1101111110000 Z
#195018
1!
b1101111110010 "
1)
b1101111111010 *
11
b1110000000010 2
19
b1110000001010 :
#196182
0&!
b0 '!
#196183
0.!
b0 /!
1(!
b10100000001001 )!
#196184
10!
b10100000010000 1!
#196200
06!
b0 7!
#196201
0>!
b0 ?!
18!
b10100000000111 9!
#196202
1@!
b10100000001110 A!
#196466
0d
b0 e
#196467
1f
b10100000001101 g
#196483
0l
b0 m
#196484
0t
b0 u
1n
b10100000000100 o
#196485
1v
b10100000001011 w
#196501
0|
b0 }
#196502
1~
b10100000000010 !!
#196542
0D
b0 E
#196543
0L
b0 M
1F
b10100000000111 G
#196544
1N
b10100000001110 O
#196560
0T
b0 U
#196561
0\
b0 ]
1V
b10100000000101 W
#196562
1^
b10100000001100 _
#196570
0$
b0 %
#196571
0,
b0 -
1&
b10100000000100 '
#196572
1.
b10100000001100 /
#196588
04
b0 5
#196589
0<
b0 =
16
b10100000000011 7
#196590
1>
b10100000001010 ?
#202002
0#!
b0 $!
#202008
0+!
b0 ,!
#202014
03!
b0 4!
#202020
0;!
b0 <!
#202076
0a
b0 b
#202084
0i
b0 j
#202092
0q
b0 r
#202100
0y
b0 z
#202140
0A
b0 B
#202148
0I
b0 J
#202156
0Q
b0 R
#202164
0Y
b0 Z
#202172
0!
b0 "
#202180
0)
b0 *
#202188
01
b0 2
#202196
09
b0 :
#206432
0(!
b0 )!
#206434
b110 *!
#206440
00!
b0 1!
#206442
b110 2!
#206447
1&!
b11100110111 '!
#206448
1.!
b11100110111 /!
08!
b0 9!
#206450
b110 :!
#206456
0@!
b0 A!
#206458
b110 B!
#206465
16!
b11100110111 7!
#206466
1>!
b11100110111 ?!
#206720
0f
b0 g
#206722
b110 h
#206728
0n
b0 o
#206730
b110 p
#206731
1d
b11100110111 e
#206732
1l
b11100110111 m
#206736
0v
b0 w
#206738
b110 x
#206744
0~
b0 !!
#206746
b110 "!
#206749
1t
b11100110111 u
#206750
1|
b11100110111 }
#206790
0F
b0 G
#206792
b110 H
#206798
0N
b0 O
#206800
b110 P
#206806
0V
b0 W
#206807
1D
b11100110111 E
#206808
1L
b11100110111 M
b110 X
#206809
1T
b11100110111 U
#206814
0^
b0 _
#206815
0&
b0 '
#206816
b110 `
#206817
b110 (
#206819
1$
b11100110111 %
#206824
0.
b0 /
#206826
1\
b11100110111 ]
b110 0
#206832
06
b0 7
#206834
b110 8
#206836
1,
b11100110111 -
#206837
14
b11100110111 5
#206840
0>
b0 ?
#206842
b110 @
#206854
1<
b11100110111 =
#207120
1#!
b1101101010110 $!
1+!
b1101101011100 ,!
13!
b1101101100010 4!
1;!
b1101101101000 <!
#207124
1a
b1101110011100 b
1i
b1101110100100 j
1q
b1101110101100 r
1y
b1101110110100 z
#207128
1A
b1101111011000 B
1I
b1101111100000 J
1Q
b1101111101000 R
1Y
b1101111110000 Z
#207134
1!
b1101111110010 "
1)
b1101111111010 *
11
b1110000000010 2
19
b1110000001010 :
#208294
0&!
b0 '!
#208295
0.!
b0 /!
1(!
b10100000001101 )!
#208296
10!
b10100000010100 1!
#208312
06!
b0 7!
#208313
0>!
b0 ?!
18!
b10100000001011 9!
#208314
1@!
b10100000010010 A!
#208578
0d
b0 e
#208579
0l
b0 m
1f
b10100000010001 g
#208580
1n
b10100000011000 o
#208596
0t
b0 u
#208597
0|
b0 }
1v
b10100000001111 w
#208598
1~
b10100000010110 !!
#208654
0D
b0 E
#208655
0L
b0 M
1F
b10100000001011 G
#208656
0T
b0 U
1N
b10100000010010 O
#208657
1V
b10100000011001 W
#208666
0$
b0 %
#208667
1&
b10100000011000 '
#208673
0\
b0 ]
#208674
1^
b10100000010000 _
#208683
0,
b0 -
#208684
04
b0 5
1.
b10100000010000 /
#208685
16
b10100000010111 7
#208701
0<
b0 =
#208702
1>
b10100000001110 ?
#214118
0#!
b0 $!
#214124
0+!
b0 ,!
#214130
03!
b0 4!
#214136
0;!
b0 <!
#214192
0a
b0 b
#214200
0i
b0 j
#214208
0q
b0 r
#214216
0y
b0 z
#214256
0A
b0 B
#214264
0I
b0 J
#214272
0Q
b0 R
#214280
0Y
b0 Z
#214288
0!
b0 "
#214296
0)
b0 *
#214304
01
b0 2
#214312
09
b0 :
#218548
0(!
b0 )!
#218550
b111 *!
#218556
00!
b0 1!
#218558
b111 2!
#218559
1&!
b11100110111 '!
#218560
1.!
b11100110111 /!
#218564
08!
b0 9!
#218566
b111 :!
#218572
0@!
b0 A!
#218574
b111 B!
#218577
16!
b11100110111 7!
#218578
1>!
b11100110111 ?!
#218836
0f
b0 g
#218838
b111 h
#218843
1d
b11100110111 e
#218844
0n
b0 o
#218846
b111 p
#218852
0v
b0 w
#218854
b111 x
#218860
1l
b11100110111 m
0~
b0 !!
#218861
1t
b11100110111 u
#218862
b111 "!
#218878
1|
b11100110111 }
#218906
0F
b0 G
#218908
b111 H
#218914
0N
b0 O
#218916
b111 P
#218919
1D
b11100110111 E
#218920
1L
b11100110111 M
#218922
0V
b0 W
#218924
b111 X
#218930
0^
b0 _
#218931
0&
b0 '
#218932
b111 `
#218933
b111 (
#218937
1T
b11100110111 U
#218938
1\
b11100110111 ]
#218940
0.
b0 /
#218942
b111 0
#218947
1$
b11100110111 %
#218948
1,
b11100110111 -
06
b0 7
#218950
b111 8
#218956
0>
b0 ?
#218958
b111 @
#218965
14
b11100110111 5
#218966
1<
b11100110111 =
#219228
1#!
b1101101010110 $!
1+!
b1101101011100 ,!
13!
b1101101100010 4!
1;!
b1101101101000 <!
#219232
1a
b1101110011100 b
1i
b1101110100100 j
1q
b1101110101100 r
1y
b1101110110100 z
#219236
1A
b1101111011000 B
1I
b1101111100000 J
1Q
b1101111101000 R
1Y
b1101111110000 Z
#219242
1!
b1101111110010 "
1)
b1101111111010 *
11
b1110000000010 2
19
b1110000001010 :
#220406
0&!
b0 '!
#220407
0.!
b0 /!
1(!
b10100000001001 )!
#220408
10!
b10100000010000 1!
#220424
06!
b0 7!
#220425
0>!
b0 ?!
18!
b10100000000111 9!
#220426
1@!
b10100000001110 A!
#220690
0d
b0 e
#220691
1f
b10100000001101 g
#220707
0l
b0 m
#220708
0t
b0 u
1n
b10100000000100 o
#220709
1v
b10100000001011 w
#220725
0|
b0 }
#220726
1~
b10100000000010 !!
#220766
0D
b0 E
#220767
0L
b0 M
1F
b10100000000111 G
#220768
1N
b10100000001110 O
#220784
0T
b0 U
#220785
0\
b0 ]
1V
b10100000000101 W
#220786
1^
b10100000001100 _
#220794
0$
b0 %
#220795
0,
b0 -
1&
b10100000000100 '
#220796
1.
b10100000001100 /
#220812
04
b0 5
#220813
0<
b0 =
16
b10100000000011 7
#220814
1>
b10100000001010 ?
#226226
0#!
b0 $!
#226232
0+!
b0 ,!
#226238
03!
b0 4!
#226244
0;!
b0 <!
#226300
0a
b0 b
#226308
0i
b0 j
#226316
0q
b0 r
#226324
0y
b0 z
#226364
0A
b0 B
#226372
0I
b0 J
#226380
0Q
b0 R
#226388
0Y
b0 Z
#226396
0!
b0 "
#226404
0)
b0 *
#226412
01
b0 2
#226420
09
b0 :
#230656
0(!
b0 )!
#230658
b1000 *!
#230664
00!
b0 1!
#230666
b1000 2!
#230671
1&!
b11100110111 '!
#230672
1.!
b11100110111 /!
08!
b0 9!
#230674
b1000 :!
#230680
0@!
b0 A!
#230682
b1000 B!
#230689
16!
b11100110111 7!
#230690
1>!
b11100110111 ?!
#230944
0f
b0 g
#230946
b1000 h
#230952
0n
b0 o
#230954
b1000 p
#230955
1d
b11100110111 e
#230956
1l
b11100110111 m
#230960
0v
b0 w
#230962
b1000 x
#230968
0~
b0 !!
#230970
b1000 "!
#230973
1t
b11100110111 u
#230974
1|
b11100110111 }
#231014
0F
b0 G
#231016
b1000 H
#231022
0N
b0 O
#231024
b1000 P
#231030
0V
b0 W
#231031
1D
b11100110111 E
#231032
1L
b11100110111 M
b1000 X
#231033
1T
b11100110111 U
#231038
0^
b0 _
#231039
0&
b0 '
#231040
b1000 `
#231041
b1000 (
#231043
1$
b11100110111 %
#231048
0.
b0 /
#231050
1\
b11100110111 ]
b1000 0
#231056
06
b0 7
#231058
b1000 8
#231060
1,
b11100110111 -
#231061
14
b11100110111 5
#231064
0>
b0 ?
#231066
b1000 @
#231078
1<
b11100110111 =
#231344
1#!
b1101101010110 $!
1+!
b1101101011100 ,!
13!
b1101101100010 4!
1;!
b1101101101000 <!
