gemm_5layers/gemm_layer3.vcd
$date today $end
$timescale 1 ns $end
$scope module top $end
$scope module slice0 $end
$var integer 1 ! prefetch $end
$var integer 32 " prefetch_time $end
$var integer 1 # config $end
$var integer 1 $ compute $end
$var integer 32 % compute_time $end
$var integer 1 & write_back $end
$var integer 32 ' write_back_time $end
$var integer 10 ( TG_id $end
$upscope $end
$scope module slice1 $end
$var integer 1 ) prefetch $end
$var integer 32 * prefetch_time $end
$var integer 1 + config $end
$var integer 1 , compute $end
$var integer 32 - compute_time $end
$var integer 1 . write_back $end
$var integer 32 / write_back_time $end
$var integer 10 0 TG_id $end
$upscope $end
$scope module slice10 $end
$var integer 1 q prefetch $end
$var integer 32 r prefetch_time $end
$var integer 1 s config $end
$var integer 1 t compute $end
$var integer 32 u compute_time $end
$var integer 1 v write_back $end
$var integer 32 w write_back_time $end
$var integer 10 x TG_id $end
$upscope $end
$scope module slice11 $end
$var integer 1 y prefetch $end
$var integer 32 z prefetch_time $end
$var integer 1 { config $end
$var integer 1 | compute $end
$var integer 32 } compute_time $end
$var integer 1 ~ write_back $end
$var integer 32 !! write_back_time $end
$var integer 10 "! TG_id $end
$upscope $end
$scope module slice12 $end
$var integer 1 #! prefetch $end
$var integer 32 $! prefetch_time $end
$var integer 1 %! config $end
$var integer 1 &! compute $end
$var integer 32 '! compute_time $end
$var integer 1 (! write_back $end
$var integer 32 )! write_back_time $end
$var integer 10 *! TG_id $end
$upscope $end
$scope module slice13 $end
$var integer 1 +! prefetch $end
$var integer 32 ,! prefetch_time $end
$var integer 1 -! config $end
$var integer 1 .! compute $end
$var integer 32 /! compute_time $end
$var integer 1 0! write_back $end
$var integer 32 1! write_back_time $end
$var integer 10 2! TG_id $end
$upscope $end
$scope module slice14 $end
$var integer 1 3! prefetch $end
$var integer 32 4! prefetch_time $end
$var integer 1 5! config $end
$var integer 1 6! compute $end
$var integer 32 7! compute_time $end
$var integer 1 8! write_back $end
$var integer 32 9! write_back_time $end
$var integer 10 :! TG_id $end
$upscope $end
$scope module slice15 $end
$var integer 1 ;! prefetch $end
$var integer 32 <! prefetch_time $end
$var integer 1 =! config $end
$var integer 1 >! compute $end
$var integer 32 ?! compute_time $end
$var integer 1 @! write_back $end
$var integer 32 A! write_back_time $end
$var integer 10 B! TG_id $end
$upscope $end
$scope module slice2 $end
$var integer 1 1 prefetch $end
$var integer 32 2 prefetch_time $end
$var integer 1 3 config $end
$var integer 1 4 compute $end
$var integer 32 5 compute_time $end
$var integer 1 6 write_back $end
$var integer 32 7 write_back_time $end
$var integer 10 8 TG_id $end
$upscope $end
$scope module slice3 $end
$var integer 1 9 prefetch $end
$var integer 32 : prefetch_time $end
$var integer 1 ; config $end
$var integer 1 < compute $end
$var integer 32 = compute_time $end
$var integer 1 > write_back $end
$var integer 32 ? write_back_time $end
$var integer 10 @ TG_id $end
$upscope $end
$scope module slice4 $end
$var integer 1 A prefetch $end
$var integer 32 B prefetch_time $end
$var integer 1 C config $end
$var integer 1 D compute $end
$var integer 32 E compute_time $end
$var integer 1 F write_back $end
$var integer 32 G write_back_time $end
$var integer 10 H TG_id $end
$upscope $end
$scope module slice5 $end
$var integer 1 I prefetch $end
$var integer 32 J prefetch_time $end
$var integer 1 K config $end
$var integer 1 L compute $end
$var integer 32 M compute_time $end
$var integer 1 N write_back $end
$var integer 32 O write_back_time $end
$var integer 10 P TG_id $end
$upscope $end
$scope module slice6 $end
$var integer 1 Q prefetch $end
$var integer 32 R prefetch_time $end
$var integer 1 S config $end
$var integer 1 T compute $end
$var integer 32 U compute_time $end
$var integer 1 V write_back $end
$var integer 32 W write_back_time $end
$var integer 10 X TG_id $end
$upscope $end
$scope module slice7 $end
$var integer 1 Y prefetch $end
$var integer 32 Z prefetch_time $end
$var integer 1 [ config $end
$var integer 1 \ compute $end
$var integer 32 ] compute_time $end
$var integer 1 ^ write_back $end
$var integer 32 _ write_back_time $end
$var integer 10 ` TG_id $end
$upscope $end
$scope module slice8 $end
$var integer 1 a prefetch $end
$var integer 32 b prefetch_time $end
$var integer 1 c config $end
$var integer 1 d compute $end
$var integer 32 e compute_time $end
$var integer 1 f write_back $end
$var integer 32 g write_back_time $end
$var integer 10 h TG_id $end
$upscope $end
$scope module slice9 $end
$var integer 1 i prefetch $end
$var integer 32 j prefetch_time $end
$var integer 1 k config $end
$var integer 1 l compute $end
$var integer 32 m compute_time $end
$var integer 1 n write_back $end
$var integer 32 o write_back_time $end
$var integer 10 p TG_id $end
$upscope $end
$upscope $end
$enddefinitions $end
#0
$dumpvars
0!
b0 "
0#
0$
b0 %
0&
b0 '
b0 (
0)
b0 *
0+
0,
b0 -
0.
b0 /
b0 0
01
b0 2
03
04
b0 5
06
b0 7
b0 8
09
b0 :
0;
0<
b0 =
0>
b0 ?
b0 @
0A
b0 B
0C
0D
b0 E
0F
b0 G
b0 H
0I
b0 J
0K
0L
b0 M
0N
b0 O
b0 P
0Q
b0 R
0S
0T
b0 U
0V
b0 W
b0 X
0Y
b0 Z
0[
0\
b0 ]
0^
b0 _
b0 `
0a
b0 b
0c
0d
b0 e
0f
b0 g
b0 h
0i
b0 j
0k
0l
b0 m
0n
b0 o
b0 p
0q
b0 r
0s
0t
b0 u
0v
b0 w
b0 x
0y
b0 z
0{
0|
b0 }
0~
b0 !!
b0 "!
1#!
b1101010110010101 $!
0%!
0&!
b0 '!
0(!
b0 )!
b0 *!
1+!
b1101010110110111 ,!
0-!
0.!
b0 /!
00!
b0 1!
b0 2!
13!
b1101010111011001 4!
05!
06!
b0 7!
08!
b0 9!
b0 :!
1;!
b1101010111111011 <!
0=!
0>!
b0 ?!
0@!
b0 A!
b0 B!
$end
#4
1a
b1101011100101001 b
1i
b1101011101001011 j
1q
b1101011101101101 r
1y
b1101011110001111 z
#8
1A
b1101100000110101 B
1I
b1101100001010111 J
1Q
b1101100001111001 R
1Y
b1101100010011011 Z
#14
1!
b1101100010110111 "
1)
b1101100011011001 *
11
b1101100011111011 2
19
b1101100100011101 :
#54677
0#!
b0 $!
#54711
0+!
b0 ,!
#54745
03!
b0 4!
#54779
0;!
b0 <!
#55085
0a
b0 b
#55119
0i
b0 j
#55153
0q
b0 r
#55187
0y
b0 z
#55357
0A
b0 B
#55391
0I
b0 J
#55425
0Q
b0 R
#55459
0Y
b0 Z
#55493
0!
b0 "
#55527
0)
b0 *
#55561
01
b0 2
#55595
09
b0 :
#56612
1&!
b11001010111 '!
1.!
b11001010111 /!
16!
b11001010111 7!
1>!
b11001010111 ?!
#56616
1d
b11001010111 e
1l
b11001010111 m
1t
b11001010111 u
1|
b11001010111 }
#56620
1D
b11001010111 E
1L
b11001010111 M
1T
b11001010111 U
1\
b11001010111 ]
#56626
1$
b11001010111 %
1,
b11001010111 -
14
b11001010111 5
1<
b11001010111 =
#56968
1#!
b1101010111000011 $!
1+!
b1101010111100101 ,!
13!
b1101011000000111 4!
1;!
b1101011000101001 <!
#56972
1a
b1101011101010111 b
1i
b1101011101111001 j
1q
b1101011110011011 r
1y
b1101011110111101 z
#56976
1A
b1101100001100011 B
1I
b1101100010000101 J
1Q
b1101100010100111 R
1Y
b1101100011001001 Z
#56982
1!
b1101100011100101 "
1)
b1101100100000111 *
11
b1101100100101001 2
19
b1101100101001011 :
#58235
0&!
b0 '!
0.!
b0 /!
06!
b0 7!
0>!
b0 ?!
#58236
1(!
b1110010010000110 )!
10!
b1110010010001110 1!
18!
b1110010010010110 9!
1@!
b1110010100000110 A!
#58239
0d
b0 e
0l
b0 m
0t
b0 u
0|
b0 }
#58240
1f
b1110010110101010 g
1n
b1110010110110010 o
1v
b1110011000001010 w
1~
b1110011000010010 !!
#58243
0D
b0 E
0L
b0 M
0T
b0 U
0\
b0 ]
#58244
1F
b1110011000111100 G
1N
b1110011001000100 O
1V
b1110011001001100 W
1^
b1110011001010100 _
#58249
0$
b0 %
0,
b0 -
04
b0 5
0<
b0 =
#58250
1&
b1110011001001111 '
1.
b1110011001011000 /
16
b1110011001100000 7
1>
b1110011001101000 ?
#111691
0#!
b0 $!
#111725
0+!
b0 ,!
#111759
03!
b0 4!
#111793
0;!
b0 <!
#112099
0a
b0 b
#112133
0i
b0 j
#112167
0q
b0 r
#112201
0y
b0 z
#112371
0A
b0 B
#112405
0I
b0 J
#112439
0Q
b0 R
#112473
0Y
b0 Z
#112507
0!
b0 "
#112541
0)
b0 *
#112575
01
b0 2
#112609
09
b0 :
#116738
0(!
b0 )!
#116740
b1 *!
#116746
00!
b0 1!
#116748
b1 2!
#116751
1&!
b11001010111 '!
#116752
1.!
b11001010111 /!
#116754
08!
b0 9!
#116756
b1 :!
#116769
16!
b11001010111 7!
#116866
0@!
b0 A!
#116868
b1 B!
#116882
1>!
b11001010111 ?!
#117034
0f
b0 g
#117036
b1 h
#117042
0n
b0 o
#117044
b1 p
#117051
1d
b11001010111 e
#117052
1l
b11001010111 m
#117130
0v
b0 w
#117132
b1 x
#117133
1t
b11001010111 u
#117138
0~
b0 !!
#117140
b1 "!
#117150
1|
b11001010111 }
#117184
0F
b0 G
#117186
b1 H
#117191
1D
b11001010111 E
#117192
0N
b0 O
#117194
b1 P
#117200
0V
b0 W
#117202
b1 X
#117208
1L
b11001010111 M
0^
b0 _
#117209
1T
b11001010111 U
0&
b0 '
#117210
b1 `
#117211
b1 (
#117218
0.
b0 /
#117219
1$
b11001010111 %
#117220
b1 0
#117226
1\
b11001010111 ]
06
b0 7
#117228
b1 8
#117234
0>
b0 ?
#117236
1,
b11001010111 -
b1 @
#117237
14
b11001010111 5
#117238
1<
b11001010111 =
#117506
1#!
b110101011010 $!
1+!
b110101011010 ,!
13!
b110101011010 4!
1;!
b110101011010 <!
#117510
1a
b110101010110 b
1i
b110101010110 j
1q
b110101010110 r
1y
b110101010110 z
#117514
1A
b110101010010 B
1I
b110101010010 J
1Q
b110101010010 R
1Y
b110101010010 Z
#117520
1!
b110101001100 "
1)
b110101001100 *
11
b110101001100 2
19
b110101001100 :
#118374
0&!
b0 '!
#118375
0.!
b0 /!
1(!
b1110001101101 )!
#118376
10!
b1110001110100 1!
#118392
06!
b0 7!
#118393
18!
b1110001101011 9!
#118505
0>!
b0 ?!
#118506
1@!
b1110000000010 A!
#118674
0d
b0 e
#118675
0l
b0 m
1f
b1101100100001 g
#118676
1n
b1101100101000 o
#118756
0t
b0 u
#118757
1v
b1101011011111 w
#118773
0|
b0 }
#118774
1~
b1101011010110 !!
#118814
0D
b0 E
#118815
1F
b1101001110101 G
#118831
0L
b0 M
#118832
0T
b0 U
1N
b1101001101100 O
#118833
1V
b1101001110011 W
#118842
0$
b0 %
#118843
1&
b1101010111001 '
#118849
0\
b0 ]
#118850
1^
b1101001101010 _
#118859
0,
b0 -
#118860
04
b0 5
1.
b1101010110000 /
#118861
0<
b0 =
16
b1101010110111 7
#118862
1>
b1101010111110 ?
#120924
0!
b0 "
0)
b0 *
01
b0 2
09
b0 :
0A
b0 B
0I
b0 J
0Q
b0 R
0Y
b0 Z
0a
b0 b
0i
b0 j
0q
b0 r
0y
b0 z
0#!
b0 $!
0+!
b0 ,!
03!
b0 4!
0;!
b0 <!
#125588
0F
b0 G
#125590
b10 H
#125591
1D
b11001010111 E
#125596
0N
b0 O
#125598
b10 P
#125604
0V
b0 W
#125606
b10 X
#125608
1L
b11001010111 M
#125609
1T
b11001010111 U
#125612
0^
b0 _
#125614
b10 `
#125620
0f
b0 g
#125622
b10 h
#125626
1\
b11001010111 ]
#125627
1d
b11001010111 e
#125628
0n
b0 o
#125630
b10 p
#125636
0v
b0 w
#125638
b10 x
#125644
1l
b11001010111 m
0~
b0 !!
#125645
1t
b11001010111 u
#125646
b10 "!
#125652
0(!
b0 )!
#125654
b10 *!
#125660
00!
b0 1!
#125662
1|
b11001010111 }
b10 2!
#125663
1&!
b11001010111 '!
#125664
1.!
b11001010111 /!
#125668
08!
b0 9!
#125670
b10 :!
#125676
0@!
b0 A!
#125678
b10 B!
#125681
16!
b11001010111 7!
#125682
1>!
b11001010111 ?!
#125684
0&
b0 '
#125686
b10 (
#125692
0.
b0 /
#125694
b10 0
#125699
1$
b11001010111 %
#125700
1,
b11001010111 -
06
b0 7
#125702
b10 8
#125708
0>
b0 ?
#125710
b10 @
#125717
14
b11001010111 5
#125718
1<
b11001010111 =
#125980
1#!
b110101011010 $!
1+!
b110101011010 ,!
13!
b110101011010 4!
1;!
b110101011010 <!
#125984
1a
b110101010110 b
1i
b110101010110 j
1q
b110101010110 r
1y
b110101010110 z
#125988
1A
b110101010010 B
1I
b110101010010 J
1Q
b110101010010 R
1Y
b110101010010 Z
#125994
1!
b110101001100 "
1)
b110101001100 *
11
b110101001100 2
19
b110101001100 :
#127214
0D
b0 E
#127215
1F
b1101010111111 G
#127231
0L
b0 M
#127232
0T
b0 U
1N
b1101010110110 O
#127233
1V
b1101010111101 W
#127249
0\
b0 ]
#127250
0d
b0 e
1^
b1101010110100 _
#127251
1f
b1101010111011 g
#127267
0l
b0 m
#127268
0t
b0 u
1n
b1101010110010 o
#127269
1v
b1101010111001 w
#127285
0|
b0 }
#127286
0&!
b0 '!
1~
b1101010110000 !!
#127287
0.!
b0 /!
1(!
b1101010110111 )!
#127288
10!
b1101010111110 1!
#127304
06!
b0 7!
#127305
0>!
b0 ?!
18!
b1101010110101 9!
#127306
1@!
b1101010111100 A!
#127322
0$
b0 %
#127323
0,
b0 -
1&
b1101010110011 '
#127324
1.
b1101010111010 /
#127340
04
b0 5
#127341
0<
b0 =
16
b1101010110001 7
#127342
1>
b1101010111000 ?
#129398
0!
b0 "
0)
b0 *
01
b0 2
09
b0 :
0A
b0 B
0I
b0 J
0Q
b0 R
0Y
b0 Z
0a
b0 b
0i
b0 j
0q
b0 r
0y
b0 z
0#!
b0 $!
0+!
b0 ,!
03!
b0 4!
0;!
b0 <!
#134062
0F
b0 G
#134064
b11 H
#134070
0N
b0 O
#134071
1D
b11001010111 E
#134072
b11 P
#134078
0V
b0 W
#134080
b11 X
#134086
0^
b0 _
#134088
1L
b11001010111 M
b11 `
#134089
1T
b11001010111 U
#134090
1\
b11001010111 ]
#134094
0f
b0 g
#134096
b11 h
#134102
0n
b0 o
#134104
b11 p
#134107
1d
b11001010111 e
#134108
1l
b11001010111 m
#134110
0v
b0 w
#134112
b11 x
#134118
0~
b0 !!
#134120
b11 "!
#134125
1t
b11001010111 u
#134126
1|
b11001010111 }
0(!
b0 )!
#134128
b11 *!
#134134
00!
b0 1!
#134136
b11 2!
#134142
08!
b0 9!
#134143
1&!
b11001010111 '!
#134144
1.!
b11001010111 /!
b11 :!
#134145
16!
b11001010111 7!
#134150
0@!
b0 A!
#134152
b11 B!
#134158
0&
b0 '
#134160
b11 (
#134162
1>!
b11001010111 ?!
#134163
1$
b11001010111 %
#134166
0.
b0 /
#134168
b11 0
#134174
06
b0 7
#134176
b11 8
#134180
1,
b11001010111 -
#134181
14
b11001010111 5
#134182
0>
b0 ?
#134184
b11 @
#134198
1<
b11001010111 =
#134462
1#!
b110101011010 $!
1+!
b110101011010 ,!
13!
b110101011010 4!
1;!
b110101011010 <!
#134466
1a
b110101010110 b
1i
b110101010110 j
1q
b110101010110 r
1y
b110101010110 z
#134470
1A
b110101010010 B
1I
b110101010010 J
1Q
b110101010010 R
1Y
b110101010010 Z
#134476
1!
b110101001100 "
1)
b110101001100 *
11
b110101001100 2
19
b110101001100 :
#135694
0D
b0 E
#135695
1F
b1101011000001 G
#135711
0L
b0 M
#135712
0T
b0 U
1N
b1101010111000 O
#135713
0\
b0 ]
1V
b1101010111111 W
#135714
1^
b1101011000110 _
#135730
0d
b0 e
#135731
0l
b0 m
1f
b1101010111101 g
#135732
1n
b1101011000100 o
#135748
0t
b0 u
#135749
0|
b0 }
1v
b1101010111011 w
#135750
1~
b1101011000010 !!
#135766
0&!
b0 '!
#135767
0.!
b0 /!
1(!
b1101010111001 )!
#135768
06!
b0 7!
10!
b1101011000000 1!
#135769
18!
b1101011000111 9!
#135785
0>!
b0 ?!
#135786
0$
b0 %
1@!
b1101010111110 A!
#135787
1&
b1101011000101 '
#135803
0,
b0 -
#135804
04
b0 5
1.
b1101010111100 /
#135805
16
b1101011000011 7
#135821
0<
b0 =
#135822
1>
b1101010111010 ?
#137880
0!
b0 "
0)
b0 *
01
b0 2
09
b0 :
0A
b0 B
0I
b0 J
0Q
b0 R
0Y
b0 Z
0a
b0 b
0i
b0 j
0q
b0 r
0y
b0 z
0#!
b0 $!
0+!
b0 ,!
03!
b0 4!
0;!
b0 <!
#142544
0F
b0 G
#142546
b100 H
#142551
1D
b11001010111 E
#142552
0N
b0 O
#142554
b100 P
#142560
0V
b0 W
#142562
b100 X
#142568
1L
b11001010111 M
0^
b0 _
#142569
1T
b11001010111 U
#142570
b100 `
#142576
0f
b0 g
#142578
b100 h
#142584
0n
b0 o
#142586
1\
b11001010111 ]
b100 p
#142587
1d
b11001010111 e
#142588
1l
b11001010111 m
#142592
0v
b0 w
#142594
b100 x
#142600
0~
b0 !!
#142602
b100 "!
#142605
1t
b11001010111 u
#142606
1|
b11001010111 }
#142608
0(!
b0 )!
#142610
b100 *!
#142616
00!
b0 1!
#142618
b100 2!
#142623
1&!
b11001010111 '!
#142624
1.!
b11001010111 /!
08!
b0 9!
#142626
b100 :!
#142632
0@!
b0 A!
#142634
b100 B!
#142640
0&
b0 '
#142641
16!
b11001010111 7!
#142642
1>!
b11001010111 ?!
b100 (
#142643
1$
b11001010111 %
#142648
0.
b0 /
#142650
b100 0
#142656
06
b0 7
#142658
b100 8
#142660
1,
b11001010111 -
#142661
14
b11001010111 5
#142664
0>
b0 ?
#142666
b100 @
#142678
1<
b11001010111 =
#142944
1#!
b110101011010 $!
1+!
b110101011010 ,!
13!
b110101011010 4!
1;!
b110101011010 <!
#142948
1a
b110101010110 b
1i
b110101010110 j
1q
b110101010110 r
1y
b110101010110 z
#142952
1A
b110101010010 B
1I
b110101010010 J
1Q
b110101010010 R
1Y
b110101010010 Z
#142958
1!
b110101001100 "
1)
b110101001100 *
11
b110101001100 2
19
b110101001100 :
#144174
0D
b0 E
#144175
1F
b1101011000011 G
#144191
0L
b0 M
#144192
0T
b0 U
1N
b1101010111010 O
#144193
1V
b1101011000001 W
#144209
0\
b0 ]
#144210
0d
b0 e
1^
b1101010111000 _
#144211
0l
b0 m
1f
b1101010111111 g
#144212
1n
b1101011000110 o
#144228
0t
b0 u
#144229
0|
b0 }
1v
b1101010111101 w
#144230
1~
b1101011000100 !!
#144246
0&!
b0 '!
#144247
0.!
b0 /!
1(!
b1101010111011 )!
#144248
10!
b1101011000010 1!
#144264
06!
b0 7!
#144265
0>!
b0 ?!
18!
b1101010111001 9!
#144266
0$
b0 %
1@!
b1101011000000 A!
#144267
1&
b1101011000111 '
#144283
0,
b0 -
#144284
04
b0 5
1.
b1101010111110 /
#144285
16
b1101011000101 7
#144301
0<
b0 =
#144302
1>
b1101010111100 ?
#146362
0!
b0 "
0)
b0 *
01
b0 2
09
b0 :
0A
b0 B
0I
b0 J
0Q
b0 R
0Y
b0 Z
0a
b0 b
0i
b0 j
0q
b0 r
0y
b0 z
0#!
b0 $!
0+!
b0 ,!
03!
b0 4!
0;!
b0 <!
#151026
0F
b0 G
#151028
b101 H
#151031
1D
b11001010111 E
#151034
0N
b0 O
#151036
b101 P
#151042
0V
b0 W
#151044
b101 X
#151048
1L
b11001010111 M
#151049
1T
b11001010111 U
#151050
0^
b0 _
#151052
b101 `
#151058
0f
b0 g
#151060
b101 h
#151066
1\
b11001010111 ]
0n
b0 o
#151067
1d
b11001010111 e
#151068
b101 p
#151074
0v
b0 w
#151076
b101 x
#151082
0~
b0 !!
#151084
1l
b11001010111 m
b101 "!
#151085
1t
b11001010111 u
#151086
1|
b11001010111 }
#151090
0(!
b0 )!
#151092
b101 *!
#151098
00!
b0 1!
#151100
b101 2!
#151103
1&!
b11001010111 '!
#151104
1.!
b11001010111 /!
#151106
08!
b0 9!
#151108
b101 :!
#151114
0@!
b0 A!
#151116
b101 B!
#151121
16!
b11001010111 7!
#151122
1>!
b11001010111 ?!
0&
b0 '
#151124
b101 (
#151130
0.
b0 /
#151132
b101 0
#151138
06
b0 7
#151139
1$
b11001010111 %
#151140
1,
b11001010111 -
b101 8
#151141
14
b11001010111 5
#151146
0>
b0 ?
#151148
b101 @
#151158
1<
b11001010111 =
#151426
1#!
b110101011010 $!
1+!
b110101011010 ,!
13!
b110101011010 4!
1;!
b110101011010 <!
#151430
1a
b110101010110 b
1i
b110101010110 j
1q
b110101010110 r
1y
b110101010110 z
#151434
1A
b110101010010 B
1I
b110101010010 J
1Q
b110101010010 R
1Y
b110101010010 Z
#151440
1!
b110101001100 "
1)
b110101001100 *
11
b110101001100 2
19
b110101001100 :
#152654
0D
b0 E
#152655
1F
b1101011000101 G
#152671
0L
b0 M
#152672
0T
b0 U
1N
b1101010111100 O
#152673
1V
b1101011000011 W
#152689
0\
b0 ]
#152690
0d
b0 e
1^
b1101010111010 _
#152691
1f
b1101011000001 g
#152707
0l
b0 m
#152708
0t
b0 u
1n
b1101010111000 o
#152709
0|
b0 }
1v
b1101010111111 w
#152710
1~
b1101011000110 !!
#152726
0&!
b0 '!
#152727
0.!
b0 /!
1(!
b1101010111101 )!
#152728
10!
b1101011000100 1!
#152744
06!
b0 7!
#152745
0>!
b0 ?!
18!
b1101010111011 9!
#152746
1@!
b1101011000010 A!
#152762
0$
b0 %
#152763
0,
b0 -
1&
b1101010111001 '
#152764
04
b0 5
1.
b1101011000000 /
#152765
16
b1101011000111 7
#152781
0<
b0 =
#152782
1>
b1101010111110 ?
#154844
0!
b0 "
0)
b0 *
01
b0 2
09
b0 :
0A
b0 B
0I
b0 J
0Q
b0 R
0Y
b0 Z
0a
b0 b
0i
b0 j
0q
b0 r
0y
b0 z
0#!
b0 $!
0+!
b0 ,!
03!
b0 4!
0;!
b0 <!
#159508
0F
b0 G
#159510
b110 H
#159511
1D
b11001010111 E
#159516
0N
b0 O
#159518
b110 P
#159524
0V
b0 W
#159526
b110 X
#159528
1L
b11001010111 M
#159529
1T
b11001010111 U
#159532
0^
b0 _
#159534
b110 `
#159540
0f
b0 g
#159542
b110 h
#159546
1\
b11001010111 ]
#159547
1d
b11001010111 e
#159548
0n
b0 o
#159550
b110 p
#159556
0v
b0 w
#159558
b110 x
#159564
1l
b11001010111 m
0~
b0 !!
#159565
1t
b11001010111 u
#159566
b110 "!
#159572
0(!
b0 )!
#159574
b110 *!
#159580
00!
b0 1!
#159582
1|
b11001010111 }
b110 2!
#159583
1&!
b11001010111 '!
#159584
1.!
b11001010111 /!
#159588
08!
b0 9!
#159590
b110 :!
#159596
0@!
b0 A!
#159598
b110 B!
#159601
16!
b11001010111 7!
#159602
1>!
b11001010111 ?!
#159604
0&
b0 '
#159606
b110 (
#159612
0.
b0 /
#159614
b110 0
#159619
1$
b11001010111 %
#159620
1,
b11001010111 -
06
b0 7
#159622
b110 8
#159628
0>
b0 ?
#159630
b110 @
#159637
14
b11001010111 5
#159638
1<
b11001010111 =
#159900
1#!
b110101011010 $!
1+!
b110101011010 ,!
13!
b110101011010 4!
1;!
b110101011010 <!
#159904
1a
b110101010110 b
1i
b110101010110 j
1q
b110101010110 r
1y
b110101010110 z
#159908
1A
b110101010010 B
1I
b110101010010 J
1Q
b110101010010 R
1Y
b110101010010 Z
#159914
1!
b110101001100 "
1)
b110101001100 *
11
b110101001100 2
19
b110101001100 :
#161134
0D
b0 E
#161135
1F
b1101010111111 G
#161151
0L
b0 M
#161152
0T
b0 U
1N
b1101010110110 O
#161153
1V
b1101010111101 W
#161169
0\
b0 ]
#161170
0d
b0 e
1^
b1101010110100 _
#161171
1f
b1101010111011 g
#161187
0l
b0 m
#161188
0t
b0 u
1n
b1101010110010 o
#161189
1v
b1101010111001 w
#161205
0|
b0 }
#161206
0&!
b0 '!
1~
b1101010110000 !!
#161207
0.!
b0 /!
1(!
b1101010110111 )!
#161208
10!
b1101010111110 1!
#161224
06!
b0 7!
#161225
0>!
b0 ?!
18!
b1101010110101 9!
#161226
1@!
b1101010111100 A!
#161242
0$
b0 %
#161243
0,
b0 -
1&
b1101010110011 '
#161244
1.
b1101010111010 /
#161260
04
b0 5
#161261
0<
b0 =
16
b1101010110001 7
#161262
1>
b1101010111000 ?
#163318
0!
b0 "
0)
b0 *
01
b0 2
09
b0 :
0A
b0 B
0I
b0 J
0Q
b0 R
0Y
b0 Z
0a
b0 b
0i
b0 j
0q
b0 r
0y
b0 z
0#!
b0 $!
0+!
b0 ,!
03!
b0 4!
0;!
b0 <!
#167982
0F
b0 G
#167984
b111 H
#167990
0N
b0 O
#167991
1D
b11001010111 E
#167992
b111 P
#167998
0V
b0 W
#168000
b111 X
#168006
0^
b0 _
#168008
1L
b11001010111 M
b111 `
#168009
1T
b11001010111 U
#168010
1\
b11001010111 ]
#168014
0f
b0 g
#168016
b111 h
#168022
0n
b0 o
#168024
b111 p
#168027
1d
b11001010111 e
#168028
1l
b11001010111 m
#168030
0v
b0 w
#168032
b111 x
#168038
0~
b0 !!
#168040
b111 "!
#168045
1t
b11001010111 u
#168046
1|
b11001010111 }
0(!
b0 )!
#168048
b111 *!
#168054
00!
b0 1!
#168056
b111 2!
#168062
08!
b0 9!
#168063
1&!
b11001010111 '!
#168064
1.!
b11001010111 /!
b111 :!
#168065
16!
b11001010111 7!
#168070
0@!
b0 A!
#168072
b111 B!
#168078
0&
b0 '
#168080
b111 (
#168082
1>!
b11001010111 ?!
#168083
1$
b11001010111 %
#168086
0.
b0 /
#168088
b111 0
#168094
06
b0 7
#168096
b111 8
#168100
1,
b11001010111 -
#168101
14
b11001010111 5
#168102
0>
b0 ?
#168104
b111 @
#168118
1<
b11001010111 =
#168382
1#!
b110101011010 $!
1+!
b110101011010 ,!
13!
b110101011010 4!
1;!
b110101011010 <!
#168386
1a
b110101010110 b
1i
b110101010110 j
1q
b110101010110 r
1y
b110101010110 z
#168390
1A
b110101010010 B
1I
b110101010010 J
1Q
b110101010010 R
1Y
b110101010010 Z
#168396
1!
b110101001100 "
1)
b110101001100 *
11
b110101001100 2
19
b110101001100 :
#169614
0D
b0 E
#169615
1F
b1101011000001 G
#169631
0L
b0 M
#169632
0T
b0 U
1N
b1101010111000 O
#169633
0\
b0 ]
1V
b1101010111111 W
#169634
1^
b1101011000110 _
#169650
0d
b0 e
#169651
0l
b0 m
1f
b1101010111101 g
#169652
1n
b1101011000100 o
#169668
0t
b0 u
#169669
0|
b0 }
1v
b1101010111011 w
#169670
1~
b1101011000010 !!
#169686
0&!
b0 '!
#169687
0.!
b0 /!
1(!
b1101010111001 )!
#169688
06!
b0 7!
10!
b1101011000000 1!
#169689
18!
b1101011000111 9!
#169705
0>!
b0 ?!
#169706
0$
b0 %
1@!
b1101010111110 A!
#169707
1&
b1101011000101 '
#169723
0,
b0 -
#169724
04
b0 5
1.
b1101010111100 /
#169725
16
b1101011000011 7
#169741
0<
b0 =
#169742
1>
b1101010111010 ?
#171800
0!
b0 "
0)
b0 *
01
b0 2
09
b0 :
0A
b0 B
0I
b0 J
0Q
b0 R
0Y
b0 Z
0a
b0 b
0i
b0 j
0q
b0 r
0y
b0 z
0#!
b0 $!
0+!
b0 ,!
03!
b0 4!
0;!
b0 <!
#176464
0F
b0 G
#176466
b1000 H
#176471
1D
b11001010111 E
#176472
0N
b0 O
#176474
b1000 P
#176480
0V
b0 W
#176482
b1000 X
#176488
1L
b11001010111 M
0^
b0 _
#176489
1T
b11001010111 U
#176490
b1000 `
#176496
0f
b0 g
#176498
b1000 h
#176504
0n
b0 o
#176506
1\
b11001010111 ]
b1000 p
#176507
1d
b11001010111 e
#176508
1l
b11001010111 m
#176512
0v
b0 w
#176514
b1000 x
#176520
0~
b0 !!
#176522
b1000 "!
#176525
1t
b11001010111 u
#176526
1|
b11001010111 }
#176528
0(!
b0 )!
#176530
b1000 *!
#176536
00!
b0 1!
#176538
b1000 2!
#176543
1&!
b11001010111 '!
#176544
1.!
b11001010111 /!
08!
b0 9!
#176546
b1000 :!
#176552
0@!
b0 A!
#176554
b1000 B!
#176560
0&
b0 '
#176561
16!
b11001010111 7!
#176562
1>!
b11001010111 ?!
b1000 (
#176563
1$
b11001010111 %
#176568
0.
b0 /
#176570
b1000 0
#176576
06
b0 7
#176578
b1000 8
#176580
1,
b11001010111 -
#176581
14
b11001010111 5
#176584
0>
b0 ?
#176586
b1000 @
#176598
1<
b11001010111 =
#176864
1#!
b110101011010 $!
1+!
b110101011010 ,!
13!
b110101011010 4!
1;!
b110101011010 <!
#176868
1a
b110101010110 b
1i
b110101010110 j
1q
b110101010110 r
1y
b110101010110 z
#176872
1A
b110101010010 B
1I
b110101010010 J
1Q
b110101010010 R
1Y
b110101010010 Z
#176878
1!
b110101001100 "
1)
b110101001100 *
11
b110101001100 2
19
b110101001100 :
#178094
0D
b0 E
#178095
1F
b1101011000011 G
#178111
0L
b0 M
#178112
0T
b0 U
1N
b1101010111010 O
#178113
1V
b1101011000001 W
#178129
0\
b0 ]
#178130
0d
b0 e
1^
b1101010111000 _
#178131
0l
b0 m
1f
b1101010111111 g
#178132
1n
b1101011000110 o
#178148
0t
b0 u
#178149
0|
b0 }
1v
b1101010111101 w
#178150
1~
b1101011000100 !!
#178166
0&!
b0 '!
#178167
0.!
b0 /!
1(!
b1101010111011 )!
#178168
10!
b1101011000010 1!
#178184
06!
b0 7!
#178185
0>!
b0 ?!
18!
b1101010111001 9!
#178186
0$
b0 %
1@!
b1101011000000 A!
#178187
1&
b1101011000111 '
#178203
0,
b0 -
#178204
04
b0 5
1.
b1101010111110 /
#178205
16
b1101011000101 7
#178221
0<
b0 =
#178222
1>
b1101010111100 ?
