test.vcd
$date today $end
$timescale 1 ns $end
$scope module top $end
$scope module slice0 $end
$var integer 1 ! prefetch $end
$var integer 1 " config $end
$var integer 1 # compute $end
$var integer 1 $ write_back $end
$var integer 10 % task_id $end
$upscope $end
$scope module slice1 $end
$var integer 1 & prefetch $end
$var integer 1 ' config $end
$var integer 1 ( compute $end
$var integer 1 ) write_back $end
$var integer 10 * task_id $end
$upscope $end
$scope module slice10 $end
$var integer 1 S prefetch $end
$var integer 1 T config $end
$var integer 1 U compute $end
$var integer 1 V write_back $end
$var integer 10 W task_id $end
$upscope $end
$scope module slice11 $end
$var integer 1 X prefetch $end
$var integer 1 Y config $end
$var integer 1 Z compute $end
$var integer 1 [ write_back $end
$var integer 10 \ task_id $end
$upscope $end
$scope module slice12 $end
$var integer 1 ] prefetch $end
$var integer 1 ^ config $end
$var integer 1 _ compute $end
$var integer 1 ` write_back $end
$var integer 10 a task_id $end
$upscope $end
$scope module slice13 $end
$var integer 1 b prefetch $end
$var integer 1 c config $end
$var integer 1 d compute $end
$var integer 1 e write_back $end
$var integer 10 f task_id $end
$upscope $end
$scope module slice14 $end
$var integer 1 g prefetch $end
$var integer 1 h config $end
$var integer 1 i compute $end
$var integer 1 j write_back $end
$var integer 10 k task_id $end
$upscope $end
$scope module slice15 $end
$var integer 1 l prefetch $end
$var integer 1 m config $end
$var integer 1 n compute $end
$var integer 1 o write_back $end
$var integer 10 p task_id $end
$upscope $end
$scope module slice2 $end
$var integer 1 + prefetch $end
$var integer 1 , config $end
$var integer 1 - compute $end
$var integer 1 . write_back $end
$var integer 10 / task_id $end
$upscope $end
$scope module slice3 $end
$var integer 1 0 prefetch $end
$var integer 1 1 config $end
$var integer 1 2 compute $end
$var integer 1 3 write_back $end
$var integer 10 4 task_id $end
$upscope $end
$scope module slice4 $end
$var integer 1 5 prefetch $end
$var integer 1 6 config $end
$var integer 1 7 compute $end
$var integer 1 8 write_back $end
$var integer 10 9 task_id $end
$upscope $end
$scope module slice5 $end
$var integer 1 : prefetch $end
$var integer 1 ; config $end
$var integer 1 < compute $end
$var integer 1 = write_back $end
$var integer 10 > task_id $end
$upscope $end
$scope module slice6 $end
$var integer 1 ? prefetch $end
$var integer 1 @ config $end
$var integer 1 A compute $end
$var integer 1 B write_back $end
$var integer 10 C task_id $end
$upscope $end
$scope module slice7 $end
$var integer 1 D prefetch $end
$var integer 1 E config $end
$var integer 1 F compute $end
$var integer 1 G write_back $end
$var integer 10 H task_id $end
$upscope $end
$scope module slice8 $end
$var integer 1 I prefetch $end
$var integer 1 J config $end
$var integer 1 K compute $end
$var integer 1 L write_back $end
$var integer 10 M task_id $end
$upscope $end
$scope module slice9 $end
$var integer 1 N prefetch $end
$var integer 1 O config $end
$var integer 1 P compute $end
$var integer 1 Q write_back $end
$var integer 10 R task_id $end
$upscope $end
$upscope $end
$enddefinitions $end
#0
$dumpvars
0!
0"
0#
0$
b0 %
0&
0'
0(
0)
b0 *
0+
0,
0-
0.
b0 /
00
01
02
03
b0 4
05
06
07
08
b0 9
0:
0;
0<
0=
b0 >
0?
0@
0A
0B
b0 C
0D
0E
0F
0G
b0 H
0I
0J
0K
0L
b0 M
0N
0O
0P
0Q
b0 R
0S
0T
0U
0V
b0 W
0X
0Y
0Z
0[
b0 \
1]
0^
0_
0`
b0 a
1b
0c
0d
0e
b0 f
1g
0h
0i
0j
b0 k
1l
0m
0n
0o
b0 p
$end
#4
1I
1N
1S
1X
#8
15
1:
1?
1D
#14
1!
1&
1+
10
#36873
0]
#36879
0b
#36885
0g
#36891
0l
#36945
0I
#36951
0N
#36957
0S
#36963
0X
#36993
05
#36999
0:
#37005
0?
#37011
0D
#37017
0!
#37023
0&
#37029
0+
#37035
00
#38052
1_
1d
1i
1n
#38056
1K
1P
1U
1Z
#38060
17
1<
1A
1F
#38066
1#
1(
1-
12
#38408
1]
1b
1g
1l
#38412
1I
1N
1S
1X
#38416
15
1:
1?
1D
#38422
1!
1&
1+
10
#43583
0_
0d
0i
0n
#43584
1`
1e
1j
1o
#43585
0`
0e
0j
0o
#43587
0K
0P
0U
0Z
b1 a
b1 f
b1 k
b1 p
#43588
1L
1Q
1V
1[
#43589
0L
0Q
0V
0[
#43591
07
0<
0A
0F
b1 M
b1 R
b1 W
b1 \
#43592
18
1=
1B
1G
#43593
08
0=
0B
0G
#43595
b1 9
b1 >
b1 C
b1 H
#43597
0#
0(
0-
02
#43598
1$
1)
1.
13
#43599
0$
0)
0.
03
#43601
b1 %
b1 *
b1 /
b1 4
#66111
0]
#66117
0b
#66123
0g
#66129
0l
#66183
0I
#66189
0N
#66195
0S
#66201
0X
#66231
05
#66237
0:
#66243
0?
#66249
0D
#66255
0!
#66261
0&
#66267
0+
#66273
00
#67154
1_
1d
1i
1n
#67158
1K
1P
1U
1Z
#67162
17
1<
1A
1F
#67168
1#
1(
1-
12
#67510
1]
1b
1g
1l
#67514
1I
1N
1S
1X
#67518
15
1:
1?
1D
#67524
1!
1&
1+
10
#71505
0_
0d
0i
0n
#71506
1`
1e
1j
1o
#71507
0`
0e
0j
0o
#71509
0K
0P
0U
0Z
b10 a
b10 f
b10 k
b10 p
#71510
1L
1Q
1V
1[
#71511
0L
0Q
0V
0[
#71513
07
0<
0A
0F
b10 M
b10 R
b10 W
b10 \
#71514
18
1=
1B
1G
#71515
08
0=
0B
0G
#71517
b10 9
b10 >
b10 C
b10 H
#71519
0#
0(
0-
02
#71520
1$
1)
1.
13
#71521
0$
0)
0.
03
#71523
b10 %
b10 *
b10 /
b10 4
#104429
0]
#104435
0b
#104441
0g
#104447
0l
#104501
0I
#104507
0N
#104513
0S
#104519
0X
#104549
05
#104555
0:
#104561
0?
#104567
0D
#104573
0!
#104579
0&
#104585
0+
#104591
00
#105472
1_
1d
1i
1n
#105476
1K
1P
1U
1Z
#105480
17
1<
1A
1F
#105486
1#
1(
1-
12
#105828
1]
1b
1g
1l
#105832
1I
1N
1S
1X
#105836
15
1:
1?
1D
#105842
1!
1&
1+
10
#111003
0_
0d
0i
0n
#111004
1`
1e
1j
1o
#111005
0`
0e
0j
0o
#111007
0K
0P
0U
0Z
b11 a
b11 f
b11 k
b11 p
#111008
1L
1Q
1V
1[
#111009
0L
0Q
0V
0[
#111011
07
0<
0A
0F
b11 M
b11 R
b11 W
b11 \
#111012
18
1=
1B
1G
#111013
08
0=
0B
0G
#111015
b11 9
b11 >
b11 C
b11 H
#111017
0#
0(
0-
02
#111018
1$
1)
1.
13
#111019
0$
0)
0.
03
#111021
b11 %
b11 *
b11 /
b11 4
#133531
0]
#133537
0b
#133543
0g
#133549
0l
#133603
0I
#133609
0N
#133615
0S
#133621
0X
#133651
05
#133657
0:
#133663
0?
#133669
0D
#133675
0!
#133681
0&
#133687
0+
#133693
00
#134574
1_
1d
1i
1n
#134578
1K
1P
1U
1Z
#134582
17
1<
1A
1F
#134588
1#
1(
1-
12
#134930
1]
1b
1g
1l
#134934
1I
1N
1S
1X
#134938
15
1:
1?
1D
#134944
1!
1&
1+
10
#138925
0_
0d
0i
0n
#138926
1`
1e
1j
1o
#138927
0`
0e
0j
0o
#138929
0K
0P
0U
0Z
b100 a
b100 f
b100 k
b100 p
#138930
1L
1Q
1V
1[
#138931
0L
0Q
0V
0[
#138933
07
0<
0A
0F
b100 M
b100 R
b100 W
b100 \
#138934
18
1=
1B
1G
#138935
08
0=
0B
0G
#138937
b100 9
b100 >
b100 C
b100 H
#138939
0#
0(
0-
02
#138940
1$
1)
1.
13
#138941
0$
0)
0.
03
#138943
b100 %
b100 *
b100 /
b100 4
#171849
0]
#171855
0b
#171861
0g
#171867
0l
#171921
0I
#171927
0N
#171933
0S
#171939
0X
#171969
05
#171975
0:
#171981
0?
#171987
0D
#171993
0!
#171999
0&
#172005
0+
#172011
00
#172892
1_
1d
1i
1n
#172896
1K
1P
1U
1Z
#172900
17
1<
1A
1F
#172906
1#
1(
1-
12
#173248
1]
1b
1g
1l
#173252
1I
1N
1S
1X
#173256
15
1:
1?
1D
#173262
1!
1&
1+
10
#178423
0_
0d
0i
0n
#178424
1`
1e
1j
1o
#178425
0`
0e
0j
0o
#178427
0K
0P
0U
0Z
b101 a
b101 f
b101 k
b101 p
#178428
1L
1Q
1V
1[
#178429
0L
0Q
0V
0[
#178431
07
0<
0A
0F
b101 M
b101 R
b101 W
b101 \
#178432
18
1=
1B
1G
#178433
08
0=
0B
0G
#178435
b101 9
b101 >
b101 C
b101 H
#178437
0#
0(
0-
02
#178438
1$
1)
1.
13
#178439
0$
0)
0.
03
#178441
b101 %
b101 *
b101 /
b101 4
#200951
0]
#200957
0b
#200963
0g
#200969
0l
#201023
0I
#201029
0N
#201035
0S
#201041
0X
#201071
05
#201077
0:
#201083
0?
#201089
0D
#201095
0!
#201101
0&
#201107
0+
#201113
00
#201994
1_
1d
1i
1n
#201998
1K
1P
1U
1Z
#202002
17
1<
1A
1F
#202008
1#
1(
1-
12
#202350
1]
1b
1g
1l
#202354
1I
1N
1S
1X
#202358
15
1:
1?
1D
#202364
1!
1&
1+
10
#206345
0_
0d
0i
0n
#206346
1`
1e
1j
1o
#206347
0`
0e
0j
0o
#206349
0K
0P
0U
0Z
b110 a
b110 f
b110 k
b110 p
#206350
1L
1Q
1V
1[
#206351
0L
0Q
0V
0[
#206353
07
0<
0A
0F
b110 M
b110 R
b110 W
b110 \
#206354
18
1=
1B
1G
#206355
08
0=
0B
0G
#206357
b110 9
b110 >
b110 C
b110 H
#206359
0#
0(
0-
02
#206360
1$
1)
1.
13
#206361
0$
0)
0.
03
#206363
b110 %
b110 *
b110 /
b110 4
#239269
0]
#239275
0b
#239281
0g
#239287
0l
#239341
0I
#239347
0N
#239353
0S
#239359
0X
#239389
05
#239395
0:
#239401
0?
#239407
0D
#239413
0!
#239419
0&
#239425
0+
#239431
00
#240312
1_
1d
1i
1n
#240316
1K
1P
1U
1Z
#240320
17
1<
1A
1F
#240326
1#
1(
1-
12
#240668
1]
1b
1g
1l
#240672
1I
1N
1S
1X
#240676
15
1:
1?
1D
#240682
1!
1&
1+
10
#245843
0_
0d
0i
0n
#245844
1`
1e
1j
1o
#245845
0`
0e
0j
0o
#245847
0K
0P
0U
0Z
b111 a
b111 f
b111 k
b111 p
#245848
1L
1Q
1V
1[
#245849
0L
0Q
0V
0[
#245851
07
0<
0A
0F
b111 M
b111 R
b111 W
b111 \
#245852
18
1=
1B
1G
#245853
08
0=
0B
0G
#245855
b111 9
b111 >
b111 C
b111 H
#245857
0#
0(
0-
02
#245858
1$
1)
1.
13
#245859
0$
0)
0.
03
#245861
b111 %
b111 *
b111 /
b111 4
#268371
0]
#268377
0b
#268383
0g
#268389
0l
#268443
0I
#268449
0N
#268455
0S
#268461
0X
#268491
05
#268497
0:
#268503
0?
#268509
0D
#268515
0!
#268521
0&
#268527
0+
#268533
00
#269414
1_
1d
1i
1n
#269418
1K
1P
1U
1Z
#269422
17
1<
1A
1F
#269428
1#
1(
1-
12
#269770
1]
1b
1g
1l
#269774
1I
1N
1S
1X
#269778
15
1:
1?
1D
#269784
1!
1&
1+
10
#273765
0_
0d
0i
0n
#273766
1`
1e
1j
1o
#273767
0`
0e
0j
0o
#273769
0K
0P
0U
0Z
b1000 a
b1000 f
b1000 k
b1000 p
#273770
1L
1Q
1V
1[
#273771
0L
0Q
0V
0[
#273773
07
0<
0A
0F
b1000 M
b1000 R
b1000 W
b1000 \
#273774
18
1=
1B
1G
#273775
08
0=
0B
0G
#273777
b1000 9
b1000 >
b1000 C
b1000 H
#273779
0#
0(
0-
02
#273780
1$
1)
1.
13
#273781
0$
0)
0.
03
#273783
b1000 %
b1000 *
b1000 /
b1000 4
#306689
0]
#306695
0b
#306701
0g
#306707
0l
#306761
0I
#306767
0N
#306773
0S
#306779
0X
#306809
05
#306815
0:
#306821
0?
#306827
0D
#306833
0!
#306839
0&
#306845
0+
#306851
00
#307732
1_
1d
1i
1n
#307736
1K
1P
1U
1Z
#307740
17
1<
1A
1F
#307746
1#
1(
1-
12
#308088
1]
1b
1g
1l
#308092
1I
1N
1S
1X
#308096
15
1:
1?
1D
#308102
1!
1&
1+
10
#313263
0_
0d
0i
0n
#313264
1`
1e
1j
1o
#313265
0`
0e
0j
0o
#313267
0K
0P
0U
0Z
b1001 a
b1001 f
b1001 k
b1001 p
#313268
1L
1Q
1V
1[
#313269
0L
0Q
0V
0[
#313271
07
0<
0A
0F
b1001 M
b1001 R
b1001 W
b1001 \
#313272
18
1=
1B
1G
#313273
08
0=
0B
0G
#313275
b1001 9
b1001 >
b1001 C
b1001 H
#313277
0#
0(
0-
02
#313278
1$
1)
1.
13
#313279
0$
0)
0.
03
#313281
b1001 %
b1001 *
b1001 /
b1001 4
#335791
0]
#335797
0b
#335803
0g
#335809
0l
#335863
0I
#335869
0N
#335875
0S
#335881
0X
#335911
05
#335917
0:
#335923
0?
#335929
0D
#335935
0!
#335941
0&
#335947
0+
#335953
00
#336834
1_
1d
1i
1n
#336838
1K
1P
1U
1Z
#336842
17
1<
1A
1F
#336848
1#
1(
1-
12
#337190
1]
1b
1g
1l
#337194
1I
1N
1S
1X
#337198
15
1:
1?
1D
#337204
1!
1&
1+
10
#341185
0_
0d
0i
0n
#341186
1`
1e
1j
1o
#341187
0`
0e
0j
0o
#341189
0K
0P
0U
0Z
b1010 a
b1010 f
b1010 k
b1010 p
#341190
1L
1Q
1V
1[
#341191
0L
0Q
0V
0[
#341193
07
0<
0A
0F
b1010 M
b1010 R
b1010 W
b1010 \
#341194
18
1=
1B
1G
#341195
08
0=
0B
0G
#341197
b1010 9
b1010 >
b1010 C
b1010 H
#341199
0#
0(
0-
02
#341200
1$
1)
1.
13
#341201
0$
0)
0.
03
#341203
b1010 %
b1010 *
b1010 /
b1010 4
#374109
0]
#374115
0b
#374121
0g
#374127
0l
#374181
0I
#374187
0N
#374193
0S
#374199
0X
#374229
05
#374235
0:
#374241
0?
#374247
0D
#374253
0!
#374259
0&
#374265
0+
#374271
00
#375152
1_
1d
1i
1n
#375156
1K
1P
1U
1Z
#375160
17
1<
1A
1F
#375166
1#
1(
1-
12
#375508
1]
1b
1g
1l
#375512
1I
1N
1S
1X
#375516
15
1:
1?
1D
#375522
1!
1&
1+
10
#380683
0_
0d
0i
0n
#380684
1`
1e
1j
1o
#380685
0`
0e
0j
0o
#380687
0K
0P
0U
0Z
b1011 a
b1011 f
b1011 k
b1011 p
#380688
1L
1Q
1V
1[
#380689
0L
0Q
0V
0[
#380691
07
0<
0A
0F
b1011 M
b1011 R
b1011 W
b1011 \
#380692
18
1=
1B
1G
#380693
08
0=
0B
0G
#380695
b1011 9
b1011 >
b1011 C
b1011 H
#380697
0#
0(
0-
02
#380698
1$
1)
1.
13
#380699
0$
0)
0.
03
#380701
b1011 %
b1011 *
b1011 /
b1011 4
#403211
0]
#403217
0b
#403223
0g
#403229
0l
#403283
0I
#403289
0N
#403295
0S
#403301
0X
#403331
05
#403337
0:
#403343
0?
#403349
0D
#403355
0!
#403361
0&
#403367
0+
#403373
00
#404254
1_
1d
1i
1n
#404258
1K
1P
1U
1Z
#404262
17
1<
1A
1F
#404268
1#
1(
1-
12
#404610
1]
1b
1g
1l
#404614
1I
1N
1S
1X
#404618
15
1:
1?
1D
#404624
1!
1&
1+
10
#408605
0_
0d
0i
0n
#408606
1`
1e
1j
1o
#408607
0`
0e
0j
0o
#408609
0K
0P
0U
0Z
b1100 a
b1100 f
b1100 k
b1100 p
#408610
1L
1Q
1V
1[
#408611
0L
0Q
0V
0[
#408613
07
0<
0A
0F
b1100 M
b1100 R
b1100 W
b1100 \
#408614
18
1=
1B
1G
#408615
08
0=
0B
0G
#408617
b1100 9
b1100 >
b1100 C
b1100 H
#408619
0#
0(
0-
02
#408620
1$
1)
1.
13
#408621
0$
0)
0.
03
#408623
b1100 %
b1100 *
b1100 /
b1100 4
#441529
0]
#441535
0b
#441541
0g
#441547
0l
#441601
0I
#441607
0N
#441613
0S
#441619
0X
#441649
05
#441655
0:
#441661
0?
#441667
0D
#441673
0!
#441679
0&
#441685
0+
#441691
00
#442572
1_
1d
1i
1n
#442576
1K
1P
1U
1Z
#442580
17
1<
1A
1F
#442586
1#
1(
1-
12
#442928
1]
1b
1g
1l
#442932
1I
1N
1S
1X
#442936
15
1:
1?
1D
#442942
1!
1&
1+
10
#448103
0_
0d
0i
0n
#448104
1`
1e
1j
1o
#448105
0`
0e
0j
0o
#448107
0K
0P
0U
0Z
b1101 a
b1101 f
b1101 k
b1101 p
#448108
1L
1Q
1V
1[
#448109
0L
0Q
0V
0[
#448111
07
0<
0A
0F
b1101 M
b1101 R
b1101 W
b1101 \
#448112
18
1=
1B
1G
#448113
08
0=
0B
0G
#448115
b1101 9
b1101 >
b1101 C
b1101 H
#448117
0#
0(
0-
02
#448118
1$
1)
1.
13
#448119
0$
0)
0.
03
#448121
b1101 %
b1101 *
b1101 /
b1101 4
#470631
0]
#470637
0b
#470643
0g
#470649
0l
#470703
0I
#470709
0N
#470715
0S
#470721
0X
#470751
05
#470757
0:
#470763
0?
#470769
0D
#470775
0!
#470781
0&
#470787
0+
#470793
00
#471674
1_
1d
1i
1n
#471678
1K
1P
1U
1Z
#471682
17
1<
1A
1F
#471688
1#
1(
1-
12
#472030
1]
1b
1g
1l
#472034
1I
1N
1S
1X
#472038
15
1:
1?
1D
#472044
1!
1&
1+
10
#476025
0_
0d
0i
0n
#476026
1`
1e
1j
1o
#476027
0`
0e
0j
0o
#476029
0K
0P
0U
0Z
b1110 a
b1110 f
b1110 k
b1110 p
#476030
1L
1Q
1V
1[
#476031
0L
0Q
0V
0[
#476033
07
0<
0A
0F
b1110 M
b1110 R
b1110 W
b1110 \
#476034
18
1=
1B
1G
#476035
08
0=
0B
0G
#476037
b1110 9
b1110 >
b1110 C
b1110 H
#476039
0#
0(
0-
02
#476040
1$
1)
1.
13
#476041
0$
0)
0.
03
#476043
b1110 %
b1110 *
b1110 /
b1110 4
#508949
0]
#508955
0b
#508961
0g
#508967
0l
#509021
0I
#509027
0N
#509033
0S
#509039
0X
#509069
05
#509075
0:
#509081
0?
#509087
0D
#509093
0!
#509099
0&
#509105
0+
#509111
00
#509992
1_
1d
1i
1n
#509996
1K
1P
1U
1Z
#510000
17
1<
1A
1F
#510006
1#
1(
1-
12
#510348
1]
1b
1g
1l
#510352
1I
1N
1S
1X
#510356
15
1:
1?
1D
#510362
1!
1&
1+
10
#515523
0_
0d
0i
0n
#515524
1`
1e
1j
1o
#515527
0K
0P
0U
0Z
#515528
1L
1Q
1V
1[
#515531
07
0<
0A
0F
#515532
18
1=
1B
1G
#515537
0#
0(
0-
02
#515538
1$
1)
1.
13
#538051
0]
#538057
0b
#538063
0g
#538069
0l
#538139
0I
#538161
0N
#538183
0S
#538205
0X
#538259
05
#538267
0:
#538289
0?
#538297
0D
#538305
0!
#538327
0&
#538335
0+
#538343
00
#609960
0`
#609962
b1111 a
#609967
1_
#609968
0e
#609970
b1111 f
#609976
0j
#609978
b1111 k
#609984
1d
#609985
1i
#610088
0o
#610090
b1111 p
#610098
1n
#610160
0L
#610162
b1111 M
#610168
0Q
#610170
b1111 R
#610171
1K
#610172
1P
#610256
0V
#610258
b1111 W
#610264
0[
#610266
b1111 \
#610269
1U
#610270
1Z
#610310
08
#610312
b1111 9
#610318
0=
#610320
b1111 >
#610326
0B
#610327
17
#610328
1<
b1111 C
#610329
1A
#610334
0G
#610335
0$
#610336
b1111 H
#610337
b1111 %
#610339
1#
#610344
0)
#610346
1F
b1111 *
#610352
0.
#610354
b1111 /
#610356
1(
#610357
1-
#610360
03
#610362
b1111 4
#610374
12
#614318
0_
#614319
1`
#614335
0d
#614336
0i
1e
#614337
1j
#614449
0n
#614450
1o
#614522
0K
#614523
0P
1L
#614524
1Q
#614620
0U
#614621
0Z
1V
#614622
1[
#614678
07
#614679
0<
18
#614680
0A
1=
#614681
1B
#614690
0#
#614691
1$
#614697
0F
#614698
1G
#614707
0(
#614708
0-
1)
#614709
1.
#614725
02
#614726
13
#660157
0`
#660159
b10000 a
#660160
0e
#660162
b10000 f
#660174
0j
#660176
b10000 k
#660779
0o
#660781
b10000 p
#661184
0L
#661186
b10000 M
#661206
0Q
#661208
b10000 R
#661294
0V
#661296
b10000 W
#661302
0[
#661304
b10000 \
#661348
08
#661350
b10000 9
#661356
0=
#661358
b10000 >
#661364
0B
#661366
b10000 C
#661372
0G
#661373
0$
#661374
b10000 H
#661375
b10000 %
#661382
0)
#661384
b10000 *
#661390
0.
#661392
b10000 /
#661398
03
#661400
b10000 4
