XuLei_conv3x3/XuLei_conv3x3_2.vcd
$date today $end
$timescale 1 ns $end
$scope module top $end
$scope module slice0 $end
$var integer 1 ! prefetch $end
$var integer 32 " prefetch_time $end
$var integer 1 # config $end
$var integer 1 $ compute $end
$var integer 32 % compute_time $end
$var integer 1 & write_back $end
$var integer 32 ' write_back_time $end
$var integer 10 ( TG_id $end
$upscope $end
$scope module slice1 $end
$var integer 1 ) prefetch $end
$var integer 32 * prefetch_time $end
$var integer 1 + config $end
$var integer 1 , compute $end
$var integer 32 - compute_time $end
$var integer 1 . write_back $end
$var integer 32 / write_back_time $end
$var integer 10 0 TG_id $end
$upscope $end
$scope module slice10 $end
$var integer 1 q prefetch $end
$var integer 32 r prefetch_time $end
$var integer 1 s config $end
$var integer 1 t compute $end
$var integer 32 u compute_time $end
$var integer 1 v write_back $end
$var integer 32 w write_back_time $end
$var integer 10 x TG_id $end
$upscope $end
$scope module slice11 $end
$var integer 1 y prefetch $end
$var integer 32 z prefetch_time $end
$var integer 1 { config $end
$var integer 1 | compute $end
$var integer 32 } compute_time $end
$var integer 1 ~ write_back $end
$var integer 32 !! write_back_time $end
$var integer 10 "! TG_id $end
$upscope $end
$scope module slice12 $end
$var integer 1 #! prefetch $end
$var integer 32 $! prefetch_time $end
$var integer 1 %! config $end
$var integer 1 &! compute $end
$var integer 32 '! compute_time $end
$var integer 1 (! write_back $end
$var integer 32 )! write_back_time $end
$var integer 10 *! TG_id $end
$upscope $end
$scope module slice13 $end
$var integer 1 +! prefetch $end
$var integer 32 ,! prefetch_time $end
$var integer 1 -! config $end
$var integer 1 .! compute $end
$var integer 32 /! compute_time $end
$var integer 1 0! write_back $end
$var integer 32 1! write_back_time $end
$var integer 10 2! TG_id $end
$upscope $end
$scope module slice14 $end
$var integer 1 3! prefetch $end
$var integer 32 4! prefetch_time $end
$var integer 1 5! config $end
$var integer 1 6! compute $end
$var integer 32 7! compute_time $end
$var integer 1 8! write_back $end
$var integer 32 9! write_back_time $end
$var integer 10 :! TG_id $end
$upscope $end
$scope module slice15 $end
$var integer 1 ;! prefetch $end
$var integer 32 <! prefetch_time $end
$var integer 1 =! config $end
$var integer 1 >! compute $end
$var integer 32 ?! compute_time $end
$var integer 1 @! write_back $end
$var integer 32 A! write_back_time $end
$var integer 10 B! TG_id $end
$upscope $end
$scope module slice2 $end
$var integer 1 1 prefetch $end
$var integer 32 2 prefetch_time $end
$var integer 1 3 config $end
$var integer 1 4 compute $end
$var integer 32 5 compute_time $end
$var integer 1 6 write_back $end
$var integer 32 7 write_back_time $end
$var integer 10 8 TG_id $end
$upscope $end
$scope module slice3 $end
$var integer 1 9 prefetch $end
$var integer 32 : prefetch_time $end
$var integer 1 ; config $end
$var integer 1 < compute $end
$var integer 32 = compute_time $end
$var integer 1 > write_back $end
$var integer 32 ? write_back_time $end
$var integer 10 @ TG_id $end
$upscope $end
$scope module slice4 $end
$var integer 1 A prefetch $end
$var integer 32 B prefetch_time $end
$var integer 1 C config $end
$var integer 1 D compute $end
$var integer 32 E compute_time $end
$var integer 1 F write_back $end
$var integer 32 G write_back_time $end
$var integer 10 H TG_id $end
$upscope $end
$scope module slice5 $end
$var integer 1 I prefetch $end
$var integer 32 J prefetch_time $end
$var integer 1 K config $end
$var integer 1 L compute $end
$var integer 32 M compute_time $end
$var integer 1 N write_back $end
$var integer 32 O write_back_time $end
$var integer 10 P TG_id $end
$upscope $end
$scope module slice6 $end
$var integer 1 Q prefetch $end
$var integer 32 R prefetch_time $end
$var integer 1 S config $end
$var integer 1 T compute $end
$var integer 32 U compute_time $end
$var integer 1 V write_back $end
$var integer 32 W write_back_time $end
$var integer 10 X TG_id $end
$upscope $end
$scope module slice7 $end
$var integer 1 Y prefetch $end
$var integer 32 Z prefetch_time $end
$var integer 1 [ config $end
$var integer 1 \ compute $end
$var integer 32 ] compute_time $end
$var integer 1 ^ write_back $end
$var integer 32 _ write_back_time $end
$var integer 10 ` TG_id $end
$upscope $end
$scope module slice8 $end
$var integer 1 a prefetch $end
$var integer 32 b prefetch_time $end
$var integer 1 c config $end
$var integer 1 d compute $end
$var integer 32 e compute_time $end
$var integer 1 f write_back $end
$var integer 32 g write_back_time $end
$var integer 10 h TG_id $end
$upscope $end
$scope module slice9 $end
$var integer 1 i prefetch $end
$var integer 32 j prefetch_time $end
$var integer 1 k config $end
$var integer 1 l compute $end
$var integer 32 m compute_time $end
$var integer 1 n write_back $end
$var integer 32 o write_back_time $end
$var integer 10 p TG_id $end
$upscope $end
$upscope $end
$enddefinitions $end
#0
$dumpvars
0!
b0 "
0#
0$
b0 %
0&
b0 '
b0 (
0)
b0 *
0+
0,
b0 -
0.
b0 /
b0 0
01
b0 2
03
04
b0 5
06
b0 7
b0 8
09
b0 :
0;
0<
b0 =
0>
b0 ?
b0 @
0A
b0 B
0C
0D
b0 E
0F
b0 G
b0 H
0I
b0 J
0K
0L
b0 M
0N
b0 O
b0 P
0Q
b0 R
0S
0T
b0 U
0V
b0 W
b0 X
0Y
b0 Z
0[
0\
b0 ]
0^
b0 _
b0 `
0a
b0 b
0c
0d
b0 e
0f
b0 g
b0 h
0i
b0 j
0k
0l
b0 m
0n
b0 o
b0 p
0q
b0 r
0s
0t
b0 u
0v
b0 w
b0 x
0y
b0 z
0{
0|
b0 }
0~
b0 !!
b0 "!
1#!
b10110111100011 $!
0%!
0&!
b0 '!
0(!
b0 )!
b0 *!
1+!
b10110111101001 ,!
0-!
0.!
b0 /!
00!
b0 1!
b0 2!
13!
b10110111101111 4!
05!
06!
b0 7!
08!
b0 9!
b0 :!
1;!
b10110111110101 <!
0=!
0>!
b0 ?!
0@!
b0 A!
b0 B!
$end
#4
1a
b10111010010111 b
1i
b10111010011101 j
1q
b10111010100011 r
1y
b10111010101001 z
#8
1A
b10111011000011 B
1I
b10111011001001 J
1Q
b10111011001111 R
1Y
b10111011010101 Z
#14
1!
b10111011010101 "
1)
b10111011011011 *
11
b10111011100001 2
19
b10111011100111 :
#11747
0#!
b0 $!
#11753
0+!
b0 ,!
#11759
03!
b0 4!
#11765
0;!
b0 <!
#11931
0a
b0 b
#11937
0i
b0 j
#11943
0q
b0 r
#11949
0y
b0 z
#11979
0A
b0 B
#11985
0I
b0 J
#11991
0Q
b0 R
#11997
0Y
b0 Z
#12003
0!
b0 "
#12009
0)
b0 *
#12015
01
b0 2
#12021
09
b0 :
#13123
1&!
b1010000000010 '!
1.!
b1010000000010 /!
16!
b1010000000010 7!
1>!
b1010000000010 ?!
#13127
1d
b1010000000010 e
1l
b1010000000010 m
1t
b1010000000010 u
1|
b1010000000010 }
#13131
1D
b1010000000010 E
1L
b1010000000010 M
1T
b1010000000010 U
1\
b1010000000010 ]
#13135
1$
b1010000000010 %
1,
b1010000000010 -
14
b1010000000010 5
1<
b1010000000010 =
#13478
1#!
b10110111100011 $!
1+!
b10110111101001 ,!
13!
b10110111101111 4!
1;!
b10110111110101 <!
#13482
1a
b10111010010111 b
1i
b10111010011101 j
1q
b10111010100011 r
1y
b10111010101001 z
#13486
1A
b10111011000011 B
1I
b10111011001001 J
1Q
b10111011001111 R
1Y
b10111011010101 Z
#13492
1!
b10111011010101 "
1)
b10111011011011 *
11
b10111011100001 2
19
b10111011100111 :
#18245
0&!
b0 '!
0.!
b0 /!
06!
b0 7!
0>!
b0 ?!
#18246
1(!
b1 )!
10!
b1 1!
18!
b1 9!
1@!
b1 A!
#18247
0(!
b0 )!
00!
b0 1!
08!
b0 9!
0@!
b0 A!
#18249
0d
b0 e
0l
b0 m
0t
b0 u
0|
b0 }
b1 *!
b1 2!
b1 :!
b1 B!
#18250
1f
b1 g
1n
b1 o
1v
b1 w
1~
b1 !!
#18251
0f
b0 g
0n
b0 o
0v
b0 w
0~
b0 !!
#18253
0D
b0 E
0L
b0 M
0T
b0 U
0\
b0 ]
b1 h
b1 p
b1 x
b1 "!
#18254
1F
b1 G
1N
b1 O
1V
b1 W
1^
b1 _
#18255
0F
b0 G
0N
b0 O
0V
b0 W
0^
b0 _
#18257
0$
b0 %
0,
b0 -
04
b0 5
0<
b0 =
b1 H
b1 P
b1 X
b1 `
#18258
1&
b1 '
1.
b1 /
16
b1 7
1>
b1 ?
#18259
0&
b0 '
0.
b0 /
06
b0 7
0>
b0 ?
#18261
b1 (
b1 0
b1 8
b1 @
#25225
0#!
b0 $!
#25231
0+!
b0 ,!
#25237
03!
b0 4!
#25243
0;!
b0 <!
#25409
0a
b0 b
#25415
0i
b0 j
#25421
0q
b0 r
#25427
0y
b0 z
#25457
0A
b0 B
#25463
0I
b0 J
#25469
0Q
b0 R
#25475
0Y
b0 Z
#25481
0!
b0 "
#25487
0)
b0 *
#25493
01
b0 2
#25499
09
b0 :
#26601
1&!
b1001111101011 '!
1.!
b1001111101011 /!
16!
b1001111101011 7!
1>!
b1001111101011 ?!
#26605
1d
b1001111101011 e
1l
b1001111101011 m
1t
b1001111101011 u
1|
b1001111101011 }
#26609
1D
b1001111101011 E
1L
b1001111101011 M
1T
b1001111101011 U
1\
b1001111101011 ]
#26613
1$
b1001111101011 %
1,
b1001111101011 -
14
b1001111101011 5
1<
b1001111101011 =
#26956
1#!
b10110111100011 $!
1+!
b10110111101001 ,!
13!
b10110111101111 4!
1;!
b10110111110101 <!
#26960
1a
b10111010010111 b
1i
b10111010011101 j
1q
b10111010100011 r
1y
b10111010101001 z
#26964
1A
b10111011000011 B
1I
b10111011001001 J
1Q
b10111011001111 R
1Y
b10111011010101 Z
#26970
1!
b10111011010101 "
1)
b10111011011011 *
11
b10111011100001 2
19
b10111011100111 :
#31700
0&!
b0 '!
0.!
b0 /!
06!
b0 7!
0>!
b0 ?!
#31701
1(!
b1 )!
10!
b1 1!
18!
b1 9!
1@!
b1 A!
#31702
0(!
b0 )!
00!
b0 1!
08!
b0 9!
0@!
b0 A!
#31704
0d
b0 e
0l
b0 m
0t
b0 u
0|
b0 }
b10 *!
b10 2!
b10 :!
b10 B!
#31705
1f
b1 g
1n
b1 o
1v
b1 w
1~
b1 !!
#31706
0f
b0 g
0n
b0 o
0v
b0 w
0~
b0 !!
#31708
0D
b0 E
0L
b0 M
0T
b0 U
0\
b0 ]
b10 h
b10 p
b10 x
b10 "!
#31709
1F
b1 G
1N
b1 O
1V
b1 W
1^
b1 _
#31710
0F
b0 G
0N
b0 O
0V
b0 W
0^
b0 _
#31712
0$
b0 %
0,
b0 -
04
b0 5
0<
b0 =
b10 H
b10 P
b10 X
b10 `
#31713
1&
b1 '
1.
b1 /
16
b1 7
1>
b1 ?
#31714
0&
b0 '
0.
b0 /
06
b0 7
0>
b0 ?
#31716
b10 (
b10 0
b10 8
b10 @
#38703
0#!
b0 $!
#38709
0+!
b0 ,!
#38715
03!
b0 4!
#38721
0;!
b0 <!
#38887
0a
b0 b
#38893
0i
b0 j
#38899
0q
b0 r
#38905
0y
b0 z
#38935
0A
b0 B
#38941
0I
b0 J
#38947
0Q
b0 R
#38953
0Y
b0 Z
#38959
0!
b0 "
#38965
0)
b0 *
#38971
01
b0 2
#38977
09
b0 :
#40079
1&!
b1001111101011 '!
1.!
b1001111101011 /!
16!
b1001111101011 7!
1>!
b1001111101011 ?!
#40083
1d
b1001111101011 e
1l
b1001111101011 m
1t
b1001111101011 u
1|
b1001111101011 }
#40087
1D
b1001111101011 E
1L
b1001111101011 M
1T
b1001111101011 U
1\
b1001111101011 ]
#40091
1$
b1001111101011 %
1,
b1001111101011 -
14
b1001111101011 5
1<
b1001111101011 =
#40434
1#!
b10110111100011 $!
1+!
b10110111101001 ,!
13!
b10110111101111 4!
1;!
b10110111110101 <!
#40438
1a
b10111010010111 b
1i
b10111010011101 j
1q
b10111010100011 r
1y
b10111010101001 z
#40442
1A
b10111011000011 B
1I
b10111011001001 J
1Q
b10111011001111 R
1Y
b10111011010101 Z
#40448
1!
b10111011010101 "
1)
b10111011011011 *
11
b10111011100001 2
19
b10111011100111 :
#45178
0&!
b0 '!
0.!
b0 /!
06!
b0 7!
0>!
b0 ?!
#45179
1(!
b1 )!
10!
b1 1!
18!
b1 9!
1@!
b1 A!
#45180
0(!
b0 )!
00!
b0 1!
08!
b0 9!
0@!
b0 A!
#45182
0d
b0 e
0l
b0 m
0t
b0 u
0|
b0 }
b11 *!
b11 2!
b11 :!
b11 B!
#45183
1f
b1 g
1n
b1 o
1v
b1 w
1~
b1 !!
#45184
0f
b0 g
0n
b0 o
0v
b0 w
0~
b0 !!
#45186
0D
b0 E
0L
b0 M
0T
b0 U
0\
b0 ]
b11 h
b11 p
b11 x
b11 "!
#45187
1F
b1 G
1N
b1 O
1V
b1 W
1^
b1 _
#45188
0F
b0 G
0N
b0 O
0V
b0 W
0^
b0 _
#45190
0$
b0 %
0,
b0 -
04
b0 5
0<
b0 =
b11 H
b11 P
b11 X
b11 `
#45191
1&
b1 '
1.
b1 /
16
b1 7
1>
b1 ?
#45192
0&
b0 '
0.
b0 /
06
b0 7
0>
b0 ?
#45194
b11 (
b11 0
b11 8
b11 @
#52181
0#!
b0 $!
#52187
0+!
b0 ,!
#52193
03!
b0 4!
#52199
0;!
b0 <!
#52365
0a
b0 b
#52371
0i
b0 j
#52377
0q
b0 r
#52383
0y
b0 z
#52413
0A
b0 B
#52419
0I
b0 J
#52425
0Q
b0 R
#52431
0Y
b0 Z
#52437
0!
b0 "
#52443
0)
b0 *
#52449
01
b0 2
#52455
09
b0 :
#53557
1&!
b1001111101011 '!
1.!
b1001111101011 /!
16!
b1001111101011 7!
1>!
b1001111101011 ?!
#53561
1d
b1001111101011 e
1l
b1001111101011 m
1t
b1001111101011 u
1|
b1001111101011 }
#53565
1D
b1001111101011 E
1L
b1001111101011 M
1T
b1001111101011 U
1\
b1001111101011 ]
#53569
1$
b1001111101011 %
1,
b1001111101011 -
14
b1001111101011 5
1<
b1001111101011 =
#53912
1#!
b10110111100011 $!
1+!
b10110111101001 ,!
13!
b10110111101111 4!
1;!
b10110111110101 <!
#53916
1a
b10111010010111 b
1i
b10111010011101 j
1q
b10111010100011 r
1y
b10111010101001 z
#53920
1A
b10111011000011 B
1I
b10111011001001 J
1Q
b10111011001111 R
1Y
b10111011010101 Z
#53926
1!
b10111011010101 "
1)
b10111011011011 *
11
b10111011100001 2
19
b10111011100111 :
#58656
0&!
b0 '!
0.!
b0 /!
06!
b0 7!
0>!
b0 ?!
#58657
1(!
b1 )!
10!
b1 1!
18!
b1 9!
1@!
b1 A!
#58658
0(!
b0 )!
00!
b0 1!
08!
b0 9!
0@!
b0 A!
#58660
0d
b0 e
0l
b0 m
0t
b0 u
0|
b0 }
b100 *!
b100 2!
b100 :!
b100 B!
#58661
1f
b1 g
1n
b1 o
1v
b1 w
1~
b1 !!
#58662
0f
b0 g
0n
b0 o
0v
b0 w
0~
b0 !!
#58664
0D
b0 E
0L
b0 M
0T
b0 U
0\
b0 ]
b100 h
b100 p
b100 x
b100 "!
#58665
1F
b1 G
1N
b1 O
1V
b1 W
1^
b1 _
#58666
0F
b0 G
0N
b0 O
0V
b0 W
0^
b0 _
#58668
0$
b0 %
0,
b0 -
04
b0 5
0<
b0 =
b100 H
b100 P
b100 X
b100 `
#58669
1&
b1 '
1.
b1 /
16
b1 7
1>
b1 ?
#58670
0&
b0 '
0.
b0 /
06
b0 7
0>
b0 ?
#58672
b100 (
b100 0
b100 8
b100 @
#65659
0#!
b0 $!
#65665
0+!
b0 ,!
#65671
03!
b0 4!
#65677
0;!
b0 <!
#65843
0a
b0 b
#65849
0i
b0 j
#65855
0q
b0 r
#65861
0y
b0 z
#65891
0A
b0 B
#65897
0I
b0 J
#65903
0Q
b0 R
#65909
0Y
b0 Z
#65915
0!
b0 "
#65921
0)
b0 *
#65927
01
b0 2
#65933
09
b0 :
#67035
1&!
b1001111101011 '!
1.!
b1001111101011 /!
16!
b1001111101011 7!
1>!
b1001111101011 ?!
#67039
1d
b1001111101011 e
1l
b1001111101011 m
1t
b1001111101011 u
1|
b1001111101011 }
#67043
1D
b1001111101011 E
1L
b1001111101011 M
1T
b1001111101011 U
1\
b1001111101011 ]
#67047
1$
b1001111101011 %
1,
b1001111101011 -
14
b1001111101011 5
1<
b1001111101011 =
#67390
1#!
b10110111100011 $!
1+!
b10110111101001 ,!
13!
b10110111101111 4!
1;!
b10110111110101 <!
#67394
1a
b10111010010111 b
1i
b10111010011101 j
1q
b10111010100011 r
1y
b10111010101001 z
#67398
1A
b10111011000011 B
1I
b10111011001001 J
1Q
b10111011001111 R
1Y
b10111011010101 Z
#67404
1!
b10111011010101 "
1)
b10111011011011 *
11
b10111011100001 2
19
b10111011100111 :
#72134
0&!
b0 '!
0.!
b0 /!
06!
b0 7!
0>!
b0 ?!
#72135
1(!
b1 )!
10!
b1 1!
18!
b1 9!
1@!
b1 A!
#72136
0(!
b0 )!
00!
b0 1!
08!
b0 9!
0@!
b0 A!
#72138
0d
b0 e
0l
b0 m
0t
b0 u
0|
b0 }
b101 *!
b101 2!
b101 :!
b101 B!
#72139
1f
b1 g
1n
b1 o
1v
b1 w
1~
b1 !!
#72140
0f
b0 g
0n
b0 o
0v
b0 w
0~
b0 !!
#72142
0D
b0 E
0L
b0 M
0T
b0 U
0\
b0 ]
b101 h
b101 p
b101 x
b101 "!
#72143
1F
b1 G
1N
b1 O
1V
b1 W
1^
b1 _
#72144
0F
b0 G
0N
b0 O
0V
b0 W
0^
b0 _
#72146
0$
b0 %
0,
b0 -
04
b0 5
0<
b0 =
b101 H
b101 P
b101 X
b101 `
#72147
1&
b1 '
1.
b1 /
16
b1 7
1>
b1 ?
#72148
0&
b0 '
0.
b0 /
06
b0 7
0>
b0 ?
#72150
b101 (
b101 0
b101 8
b101 @
#79137
0#!
b0 $!
#79143
0+!
b0 ,!
#79149
03!
b0 4!
#79155
0;!
b0 <!
#79321
0a
b0 b
#79327
0i
b0 j
#79333
0q
b0 r
#79339
0y
b0 z
#79369
0A
b0 B
#79375
0I
b0 J
#79381
0Q
b0 R
#79387
0Y
b0 Z
#79393
0!
b0 "
#79399
0)
b0 *
#79405
01
b0 2
#79411
09
b0 :
#80513
1&!
b1001111101011 '!
1.!
b1001111101011 /!
16!
b1001111101011 7!
1>!
b1001111101011 ?!
#80517
1d
b1001111101011 e
1l
b1001111101011 m
1t
b1001111101011 u
1|
b1001111101011 }
#80521
1D
b1001111101011 E
1L
b1001111101011 M
1T
b1001111101011 U
1\
b1001111101011 ]
#80525
1$
b1001111101011 %
1,
b1001111101011 -
14
b1001111101011 5
1<
b1001111101011 =
#80868
1#!
b10110111100011 $!
1+!
b10110111101001 ,!
13!
b10110111101111 4!
1;!
b10110111110101 <!
#80872
1a
b10111010010111 b
1i
b10111010011101 j
1q
b10111010100011 r
1y
b10111010101001 z
#80876
1A
b10111011000011 B
1I
b10111011001001 J
1Q
b10111011001111 R
1Y
b10111011010101 Z
#80882
1!
b10111011010101 "
1)
b10111011011011 *
11
b10111011100001 2
19
b10111011100111 :
#85612
0&!
b0 '!
0.!
b0 /!
06!
b0 7!
0>!
b0 ?!
#85613
1(!
b1 )!
10!
b1 1!
18!
b1 9!
1@!
b1 A!
#85614
0(!
b0 )!
00!
b0 1!
08!
b0 9!
0@!
b0 A!
#85616
0d
b0 e
0l
b0 m
0t
b0 u
0|
b0 }
b110 *!
b110 2!
b110 :!
b110 B!
#85617
1f
b1 g
1n
b1 o
1v
b1 w
1~
b1 !!
#85618
0f
b0 g
0n
b0 o
0v
b0 w
0~
b0 !!
#85620
0D
b0 E
0L
b0 M
0T
b0 U
0\
b0 ]
b110 h
b110 p
b110 x
b110 "!
#85621
1F
b1 G
1N
b1 O
1V
b1 W
1^
b1 _
#85622
0F
b0 G
0N
b0 O
0V
b0 W
0^
b0 _
#85624
0$
b0 %
0,
b0 -
04
b0 5
0<
b0 =
b110 H
b110 P
b110 X
b110 `
#85625
1&
b1 '
1.
b1 /
16
b1 7
1>
b1 ?
#85626
0&
b0 '
0.
b0 /
06
b0 7
0>
b0 ?
#85628
b110 (
b110 0
b110 8
b110 @
#92615
0#!
b0 $!
#92621
0+!
b0 ,!
#92627
03!
b0 4!
#92633
0;!
b0 <!
#92799
0a
b0 b
#92805
0i
b0 j
#92811
0q
b0 r
#92817
0y
b0 z
#92847
0A
b0 B
#92853
0I
b0 J
#92859
0Q
b0 R
#92865
0Y
b0 Z
#92871
0!
b0 "
#92877
0)
b0 *
#92883
01
b0 2
#92889
09
b0 :
#93991
1&!
b1001111101011 '!
1.!
b1001111101011 /!
16!
b1001111101011 7!
1>!
b1001111101011 ?!
#93995
1d
b1001111101011 e
1l
b1001111101011 m
1t
b1001111101011 u
1|
b1001111101011 }
#93999
1D
b1001111101011 E
1L
b1001111101011 M
1T
b1001111101011 U
1\
b1001111101011 ]
#94003
1$
b1001111101011 %
1,
b1001111101011 -
14
b1001111101011 5
1<
b1001111101011 =
#94346
1#!
b10110111100011 $!
1+!
b10110111101001 ,!
13!
b10110111101111 4!
1;!
b10110111110101 <!
#94350
1a
b10111010010111 b
1i
b10111010011101 j
1q
b10111010100011 r
1y
b10111010101001 z
#94354
1A
b10111011000011 B
1I
b10111011001001 J
1Q
b10111011001111 R
1Y
b10111011010101 Z
#94360
1!
b10111011010101 "
1)
b10111011011011 *
11
b10111011100001 2
19
b10111011100111 :
#99090
0&!
b0 '!
0.!
b0 /!
06!
b0 7!
0>!
b0 ?!
#99091
1(!
b1 )!
10!
b1 1!
18!
b1 9!
1@!
b1 A!
#99092
0(!
b0 )!
00!
b0 1!
08!
b0 9!
0@!
b0 A!
#99094
0d
b0 e
0l
b0 m
0t
b0 u
0|
b0 }
b111 *!
b111 2!
b111 :!
b111 B!
#99095
1f
b1 g
1n
b1 o
1v
b1 w
1~
b1 !!
#99096
0f
b0 g
0n
b0 o
0v
b0 w
0~
b0 !!
#99098
0D
b0 E
0L
b0 M
0T
b0 U
0\
b0 ]
b111 h
b111 p
b111 x
b111 "!
#99099
1F
b1 G
1N
b1 O
1V
b1 W
1^
b1 _
#99100
0F
b0 G
0N
b0 O
0V
b0 W
0^
b0 _
#99102
0$
b0 %
0,
b0 -
04
b0 5
0<
b0 =
b111 H
b111 P
b111 X
b111 `
#99103
1&
b1 '
1.
b1 /
16
b1 7
1>
b1 ?
#99104
0&
b0 '
0.
b0 /
06
b0 7
0>
b0 ?
#99106
b111 (
b111 0
b111 8
b111 @
#106093
0#!
b0 $!
#106099
0+!
b0 ,!
#106105
03!
b0 4!
#106111
0;!
b0 <!
#106277
0a
b0 b
#106283
0i
b0 j
#106289
0q
b0 r
#106295
0y
b0 z
#106325
0A
b0 B
#106331
0I
b0 J
#106337
0Q
b0 R
#106343
0Y
b0 Z
#106349
0!
b0 "
#106355
0)
b0 *
#106361
01
b0 2
#106367
09
b0 :
#107469
1&!
b1001111101011 '!
1.!
b1001111101011 /!
16!
b1001111101011 7!
1>!
b1001111101011 ?!
#107473
1d
b1001111101011 e
1l
b1001111101011 m
1t
b1001111101011 u
1|
b1001111101011 }
#107477
1D
b1001111101011 E
1L
b1001111101011 M
1T
b1001111101011 U
1\
b1001111101011 ]
#107481
1$
b1001111101011 %
1,
b1001111101011 -
14
b1001111101011 5
1<
b1001111101011 =
#107824
1#!
b10110111100011 $!
1+!
b10110111101001 ,!
13!
b10110111101111 4!
1;!
b10110111110101 <!
#107828
1a
b10111010010111 b
1i
b10111010011101 j
1q
b10111010100011 r
1y
b10111010101001 z
#107832
1A
b10111011000011 B
1I
b10111011001001 J
1Q
b10111011001111 R
1Y
b10111011010101 Z
#107838
1!
b10111011010101 "
1)
b10111011011011 *
11
b10111011100001 2
19
b10111011100111 :
#112568
0&!
b0 '!
0.!
b0 /!
06!
b0 7!
0>!
b0 ?!
#112569
1(!
b1 )!
10!
b1 1!
18!
b1 9!
1@!
b1 A!
#112570
0(!
b0 )!
00!
b0 1!
08!
b0 9!
0@!
b0 A!
#112572
0d
b0 e
0l
b0 m
0t
b0 u
0|
b0 }
b1000 *!
b1000 2!
b1000 :!
b1000 B!
#112573
1f
b1 g
1n
b1 o
1v
b1 w
1~
b1 !!
#112574
0f
b0 g
0n
b0 o
0v
b0 w
0~
b0 !!
#112576
0D
b0 E
0L
b0 M
0T
b0 U
0\
b0 ]
b1000 h
b1000 p
b1000 x
b1000 "!
#112577
1F
b1 G
1N
b1 O
1V
b1 W
1^
b1 _
#112578
0F
b0 G
0N
b0 O
0V
b0 W
0^
b0 _
#112580
0$
b0 %
0,
b0 -
04
b0 5
0<
b0 =
b1000 H
b1000 P
b1000 X
b1000 `
#112581
1&
b1 '
1.
b1 /
16
b1 7
1>
b1 ?
#112582
0&
b0 '
0.
b0 /
06
b0 7
0>
b0 ?
#112584
b1000 (
b1000 0
b1000 8
b1000 @
#119571
0#!
b0 $!
#119577
0+!
b0 ,!
#119583
03!
b0 4!
#119589
0;!
b0 <!
#119755
0a
b0 b
#119761
0i
b0 j
#119767
0q
b0 r
#119773
0y
b0 z
#119803
0A
b0 B
#119809
0I
b0 J
#119815
0Q
b0 R
#119821
0Y
b0 Z
#119827
0!
b0 "
#119833
0)
b0 *
#119839
01
b0 2
#119845
09
b0 :
#120947
1&!
b1001111101011 '!
1.!
b1001111101011 /!
16!
b1001111101011 7!
1>!
b1001111101011 ?!
#120951
1d
b1001111101011 e
1l
b1001111101011 m
1t
b1001111101011 u
1|
b1001111101011 }
#120955
1D
b1001111101011 E
1L
b1001111101011 M
1T
b1001111101011 U
1\
b1001111101011 ]
#120959
1$
b1001111101011 %
1,
b1001111101011 -
14
b1001111101011 5
1<
b1001111101011 =
#121302
1#!
b10110111100011 $!
1+!
b10110111101001 ,!
13!
b10110111101111 4!
1;!
b10110111110101 <!
#121306
1a
b10111010010111 b
1i
b10111010011101 j
1q
b10111010100011 r
1y
b10111010101001 z
#121310
1A
b10111011000011 B
1I
b10111011001001 J
1Q
b10111011001111 R
1Y
b10111011010101 Z
#121316
1!
b10111011010101 "
1)
b10111011011011 *
11
b10111011100001 2
19
b10111011100111 :
#126046
0&!
b0 '!
0.!
b0 /!
06!
b0 7!
0>!
b0 ?!
#126047
1(!
b1 )!
10!
b1 1!
18!
b1 9!
1@!
b1 A!
#126048
0(!
b0 )!
00!
b0 1!
08!
b0 9!
0@!
b0 A!
#126050
0d
b0 e
0l
b0 m
0t
b0 u
0|
b0 }
b1001 *!
b1001 2!
b1001 :!
b1001 B!
#126051
1f
b1 g
1n
b1 o
1v
b1 w
1~
b1 !!
#126052
0f
b0 g
0n
b0 o
0v
b0 w
0~
b0 !!
#126054
0D
b0 E
0L
b0 M
0T
b0 U
0\
b0 ]
b1001 h
b1001 p
b1001 x
b1001 "!
#126055
1F
b1 G
1N
b1 O
1V
b1 W
1^
b1 _
#126056
0F
b0 G
0N
b0 O
0V
b0 W
0^
b0 _
#126058
0$
b0 %
0,
b0 -
04
b0 5
0<
b0 =
b1001 H
b1001 P
b1001 X
b1001 `
#126059
1&
b1 '
1.
b1 /
16
b1 7
1>
b1 ?
#126060
0&
b0 '
0.
b0 /
06
b0 7
0>
b0 ?
#126062
b1001 (
b1001 0
b1001 8
b1001 @
#133049
0#!
b0 $!
#133055
0+!
b0 ,!
#133061
03!
b0 4!
#133067
0;!
b0 <!
#133233
0a
b0 b
#133239
0i
b0 j
#133245
0q
b0 r
#133251
0y
b0 z
#133281
0A
b0 B
#133287
0I
b0 J
#133293
0Q
b0 R
#133299
0Y
b0 Z
#133305
0!
b0 "
#133311
0)
b0 *
#133317
01
b0 2
#133323
09
b0 :
#134425
1&!
b1001111101011 '!
1.!
b1001111101011 /!
16!
b1001111101011 7!
1>!
b1001111101011 ?!
#134429
1d
b1001111101011 e
1l
b1001111101011 m
1t
b1001111101011 u
1|
b1001111101011 }
#134433
1D
b1001111101011 E
1L
b1001111101011 M
1T
b1001111101011 U
1\
b1001111101011 ]
#134437
1$
b1001111101011 %
1,
b1001111101011 -
14
b1001111101011 5
1<
b1001111101011 =
#134780
1#!
b10110111100011 $!
1+!
b10110111101001 ,!
13!
b10110111101111 4!
1;!
b10110111110101 <!
#134784
1a
b10111010010111 b
1i
b10111010011101 j
1q
b10111010100011 r
1y
b10111010101001 z
#134788
1A
b10111011000011 B
1I
b10111011001001 J
1Q
b10111011001111 R
1Y
b10111011010101 Z
#134794
1!
b10111011010101 "
1)
b10111011011011 *
11
b10111011100001 2
19
b10111011100111 :
#139524
0&!
b0 '!
0.!
b0 /!
06!
b0 7!
0>!
b0 ?!
#139525
1(!
b1 )!
10!
b1 1!
18!
b1 9!
1@!
b1 A!
#139526
0(!
b0 )!
00!
b0 1!
08!
b0 9!
0@!
b0 A!
#139528
0d
b0 e
0l
b0 m
0t
b0 u
0|
b0 }
b1010 *!
b1010 2!
b1010 :!
b1010 B!
#139529
1f
b1 g
1n
b1 o
1v
b1 w
1~
b1 !!
#139530
0f
b0 g
0n
b0 o
0v
b0 w
0~
b0 !!
#139532
0D
b0 E
0L
b0 M
0T
b0 U
0\
b0 ]
b1010 h
b1010 p
b1010 x
b1010 "!
#139533
1F
b1 G
1N
b1 O
1V
b1 W
1^
b1 _
#139534
0F
b0 G
0N
b0 O
0V
b0 W
0^
b0 _
#139536
0$
b0 %
0,
b0 -
04
b0 5
0<
b0 =
b1010 H
b1010 P
b1010 X
b1010 `
#139537
1&
b1 '
1.
b1 /
16
b1 7
1>
b1 ?
#139538
0&
b0 '
0.
b0 /
06
b0 7
0>
b0 ?
#139540
b1010 (
b1010 0
b1010 8
b1010 @
#146527
0#!
b0 $!
#146533
0+!
b0 ,!
#146539
03!
b0 4!
#146545
0;!
b0 <!
#146711
0a
b0 b
#146717
0i
b0 j
#146723
0q
b0 r
#146729
0y
b0 z
#146759
0A
b0 B
#146765
0I
b0 J
#146771
0Q
b0 R
#146777
0Y
b0 Z
