XuLei_conv3x3/XuLei_conv3x3_3.vcd
$date today $end
$timescale 1 ns $end
$scope module top $end
$scope module slice0 $end
$var integer 1 ! prefetch $end
$var integer 32 " prefetch_time $end
$var integer 1 # config $end
$var integer 1 $ compute $end
$var integer 32 % compute_time $end
$var integer 1 & write_back $end
$var integer 32 ' write_back_time $end
$var integer 10 ( TG_id $end
$upscope $end
$scope module slice1 $end
$var integer 1 ) prefetch $end
$var integer 32 * prefetch_time $end
$var integer 1 + config $end
$var integer 1 , compute $end
$var integer 32 - compute_time $end
$var integer 1 . write_back $end
$var integer 32 / write_back_time $end
$var integer 10 0 TG_id $end
$upscope $end
$scope module slice10 $end
$var integer 1 q prefetch $end
$var integer 32 r prefetch_time $end
$var integer 1 s config $end
$var integer 1 t compute $end
$var integer 32 u compute_time $end
$var integer 1 v write_back $end
$var integer 32 w write_back_time $end
$var integer 10 x TG_id $end
$upscope $end
$scope module slice11 $end
$var integer 1 y prefetch $end
$var integer 32 z prefetch_time $end
$var integer 1 { config $end
$var integer 1 | compute $end
$var integer 32 } compute_time $end
$var integer 1 ~ write_back $end
$var integer 32 !! write_back_time $end
$var integer 10 "! TG_id $end
$upscope $end
$scope module slice12 $end
$var integer 1 #! prefetch $end
$var integer 32 $! prefetch_time $end
$var integer 1 %! config $end
$var integer 1 &! compute $end
$var integer 32 '! compute_time $end
$var integer 1 (! write_back $end
$var integer 32 )! write_back_time $end
$var integer 10 *! TG_id $end
$upscope $end
$scope module slice13 $end
$var integer 1 +! prefetch $end
$var integer 32 ,! prefetch_time $end
$var integer 1 -! config $end
$var integer 1 .! compute $end
$var integer 32 /! compute_time $end
$var integer 1 0! write_back $end
$var integer 32 1! write_back_time $end
$var integer 10 2! TG_id $end
$upscope $end
$scope module slice14 $end
$var integer 1 3! prefetch $end
$var integer 32 4! prefetch_time $end
$var integer 1 5! config $end
$var integer 1 6! compute $end
$var integer 32 7! compute_time $end
$var integer 1 8! write_back $end
$var integer 32 9! write_back_time $end
$var integer 10 :! TG_id $end
$upscope $end
$scope module slice15 $end
$var integer 1 ;! prefetch $end
$var integer 32 <! prefetch_time $end
$var integer 1 =! config $end
$var integer 1 >! compute $end
$var integer 32 ?! compute_time $end
$var integer 1 @! write_back $end
$var integer 32 A! write_back_time $end
$var integer 10 B! TG_id $end
$upscope $end
$scope module slice2 $end
$var integer 1 1 prefetch $end
$var integer 32 2 prefetch_time $end
$var integer 1 3 config $end
$var integer 1 4 compute $end
$var integer 32 5 compute_time $end
$var integer 1 6 write_back $end
$var integer 32 7 write_back_time $end
$var integer 10 8 TG_id $end
$upscope $end
$scope module slice3 $end
$var integer 1 9 prefetch $end
$var integer 32 : prefetch_time $end
$var integer 1 ; config $end
$var integer 1 < compute $end
$var integer 32 = compute_time $end
$var integer 1 > write_back $end
$var integer 32 ? write_back_time $end
$var integer 10 @ TG_id $end
$upscope $end
$scope module slice4 $end
$var integer 1 A prefetch $end
$var integer 32 B prefetch_time $end
$var integer 1 C config $end
$var integer 1 D compute $end
$var integer 32 E compute_time $end
$var integer 1 F write_back $end
$var integer 32 G write_back_time $end
$var integer 10 H TG_id $end
$upscope $end
$scope module slice5 $end
$var integer 1 I prefetch $end
$var integer 32 J prefetch_time $end
$var integer 1 K config $end
$var integer 1 L compute $end
$var integer 32 M compute_time $end
$var integer 1 N write_back $end
$var integer 32 O write_back_time $end
$var integer 10 P TG_id $end
$upscope $end
$scope module slice6 $end
$var integer 1 Q prefetch $end
$var integer 32 R prefetch_time $end
$var integer 1 S config $end
$var integer 1 T compute $end
$var integer 32 U compute_time $end
$var integer 1 V write_back $end
$var integer 32 W write_back_time $end
$var integer 10 X TG_id $end
$upscope $end
$scope module slice7 $end
$var integer 1 Y prefetch $end
$var integer 32 Z prefetch_time $end
$var integer 1 [ config $end
$var integer 1 \ compute $end
$var integer 32 ] compute_time $end
$var integer 1 ^ write_back $end
$var integer 32 _ write_back_time $end
$var integer 10 ` TG_id $end
$upscope $end
$scope module slice8 $end
$var integer 1 a prefetch $end
$var integer 32 b prefetch_time $end
$var integer 1 c config $end
$var integer 1 d compute $end
$var integer 32 e compute_time $end
$var integer 1 f write_back $end
$var integer 32 g write_back_time $end
$var integer 10 h TG_id $end
$upscope $end
$scope module slice9 $end
$var integer 1 i prefetch $end
$var integer 32 j prefetch_time $end
$var integer 1 k config $end
$var integer 1 l compute $end
$var integer 32 m compute_time $end
$var integer 1 n write_back $end
$var integer 32 o write_back_time $end
$var integer 10 p TG_id $end
$upscope $end
$upscope $end
$enddefinitions $end
#0
$dumpvars
0!
b0 "
0#
0$
b0 %
0&
b0 '
b0 (
0)
b0 *
0+
0,
b0 -
0.
b0 /
b0 0
01
b0 2
03
04
b0 5
06
b0 7
b0 8
09
b0 :
0;
0<
b0 =
0>
b0 ?
b0 @
0A
b0 B
0C
0D
b0 E
0F
b0 G
b0 H
0I
b0 J
0K
0L
b0 M
0N
b0 O
b0 P
0Q
b0 R
0S
0T
b0 U
0V
b0 W
b0 X
0Y
b0 Z
0[
0\
b0 ]
0^
b0 _
b0 `
0a
b0 b
0c
0d
b0 e
0f
b0 g
b0 h
0i
b0 j
0k
0l
b0 m
0n
b0 o
b0 p
0q
b0 r
0s
0t
b0 u
0v
b0 w
b0 x
0y
b0 z
0{
0|
b0 }
0~
b0 !!
b0 "!
1#!
b1110111010011001 $!
0%!
0&!
b0 '!
0(!
b0 )!
b0 *!
1+!
b1110111010011111 ,!
0-!
0.!
b0 /!
00!
b0 1!
b0 2!
13!
b1110111010100101 4!
05!
06!
b0 7!
08!
b0 9!
b0 :!
1;!
b1110111010101011 <!
0=!
0>!
b0 ?!
0@!
b0 A!
b0 B!
$end
#4
1a
b1110111011011101 b
1i
b1110111011100011 j
1q
b1110111011101001 r
1y
b1110111011101111 z
#8
1A
b1110111100001001 B
1I
b1110111100001111 J
1Q
b1110111100010101 R
1Y
b1110111100011011 Z
#14
1!
b1110111100011011 "
1)
b1110111100100001 *
11
b1110111100100111 2
19
b1110111100101101 :
#61081
0#!
b0 $!
#61087
0+!
b0 ,!
#61093
03!
b0 4!
#61099
0;!
b0 <!
#61153
0a
b0 b
#61159
0i
b0 j
#61165
0q
b0 r
#61171
0y
b0 z
#61201
0A
b0 B
#61207
0I
b0 J
#61213
0Q
b0 R
#61219
0Y
b0 Z
#61225
0!
b0 "
#61231
0)
b0 *
#61237
01
b0 2
#61243
09
b0 :
#62345
1&!
b1100110001001 '!
1.!
b1100110001001 /!
16!
b1100110001001 7!
1>!
b1100110001001 ?!
#62349
1d
b1100110001001 e
1l
b1100110001001 m
1t
b1100110001001 u
1|
b1100110001001 }
#62353
1D
b1100110001001 E
1L
b1100110001001 M
1T
b1100110001001 U
1\
b1100110001001 ]
#62357
1$
b1100110001001 %
1,
b1100110001001 -
14
b1100110001001 5
1<
b1100110001001 =
#62700
1#!
b1110111010011001 $!
1+!
b1110111010011111 ,!
13!
b1110111010100101 4!
1;!
b1110111010101011 <!
#62704
1a
b1110111011011101 b
1i
b1110111011100011 j
1q
b1110111011101001 r
1y
b1110111011101111 z
#62708
1A
b1110111100001001 B
1I
b1110111100001111 J
1Q
b1110111100010101 R
1Y
b1110111100011011 Z
#62714
1!
b1110111100011011 "
1)
b1110111100100001 *
11
b1110111100100111 2
19
b1110111100101101 :
#68882
0&!
b0 '!
0.!
b0 /!
06!
b0 7!
0>!
b0 ?!
#68883
1(!
b1 )!
10!
b1 1!
18!
b1 9!
1@!
b1 A!
#68884
0(!
b0 )!
00!
b0 1!
08!
b0 9!
0@!
b0 A!
#68886
0d
b0 e
0l
b0 m
0t
b0 u
0|
b0 }
b1 *!
b1 2!
b1 :!
b1 B!
#68887
1f
b1 g
1n
b1 o
1v
b1 w
1~
b1 !!
#68888
0f
b0 g
0n
b0 o
0v
b0 w
0~
b0 !!
#68890
0D
b0 E
0L
b0 M
0T
b0 U
0\
b0 ]
b1 h
b1 p
b1 x
b1 "!
#68891
1F
b1 G
1N
b1 O
1V
b1 W
1^
b1 _
#68892
0F
b0 G
0N
b0 O
0V
b0 W
0^
b0 _
#68894
0$
b0 %
0,
b0 -
04
b0 5
0<
b0 =
b1 H
b1 P
b1 X
b1 `
#68895
1&
b1 '
1.
b1 /
16
b1 7
1>
b1 ?
#68896
0&
b0 '
0.
b0 /
06
b0 7
0>
b0 ?
#68898
b1 (
b1 0
b1 8
b1 @
#123781
0#!
b0 $!
#123787
0+!
b0 ,!
#123793
03!
b0 4!
#123799
0;!
b0 <!
#123853
0a
b0 b
#123859
0i
b0 j
#123865
0q
b0 r
#123871
0y
b0 z
#123901
0A
b0 B
#123907
0I
b0 J
#123913
0Q
b0 R
#123919
0Y
b0 Z
#123925
0!
b0 "
#123931
0)
b0 *
#123937
01
b0 2
#123943
09
b0 :
#125045
1&!
b1100110000100 '!
1.!
b1100110000100 /!
16!
b1100110000100 7!
1>!
b1100110000100 ?!
#125049
1d
b1100110000100 e
1l
b1100110000100 m
1t
b1100110000100 u
1|
b1100110000100 }
#125053
1D
b1100110000100 E
1L
b1100110000100 M
1T
b1100110000100 U
1\
b1100110000100 ]
#125057
1$
b1100110000100 %
1,
b1100110000100 -
14
b1100110000100 5
1<
b1100110000100 =
#125400
1#!
b1110111010011001 $!
1+!
b1110111010011111 ,!
13!
b1110111010100101 4!
1;!
b1110111010101011 <!
#125404
1a
b1110111011011101 b
1i
b1110111011100011 j
1q
b1110111011101001 r
1y
b1110111011101111 z
#125408
1A
b1110111100001001 B
1I
b1110111100001111 J
1Q
b1110111100010101 R
1Y
b1110111100011011 Z
#125414
1!
b1110111100011011 "
1)
b1110111100100001 *
11
b1110111100100111 2
19
b1110111100101101 :
#131577
0&!
b0 '!
0.!
b0 /!
06!
b0 7!
0>!
b0 ?!
#131578
1(!
b1 )!
10!
b1 1!
18!
b1 9!
1@!
b1 A!
#131579
0(!
b0 )!
00!
b0 1!
08!
b0 9!
0@!
b0 A!
#131581
0d
b0 e
0l
b0 m
0t
b0 u
0|
b0 }
b10 *!
b10 2!
b10 :!
b10 B!
#131582
1f
b1 g
1n
b1 o
1v
b1 w
1~
b1 !!
#131583
0f
b0 g
0n
b0 o
0v
b0 w
0~
b0 !!
#131585
0D
b0 E
0L
b0 M
0T
b0 U
0\
b0 ]
b10 h
b10 p
b10 x
b10 "!
#131586
1F
b1 G
1N
b1 O
1V
b1 W
1^
b1 _
#131587
0F
b0 G
0N
b0 O
0V
b0 W
0^
b0 _
#131589
0$
b0 %
0,
b0 -
04
b0 5
0<
b0 =
b10 H
b10 P
b10 X
b10 `
#131590
1&
b1 '
1.
b1 /
16
b1 7
1>
b1 ?
#131591
0&
b0 '
0.
b0 /
06
b0 7
0>
b0 ?
#131593
b10 (
b10 0
b10 8
b10 @
#186481
0#!
b0 $!
#186487
0+!
b0 ,!
#186493
03!
b0 4!
#186499
0;!
b0 <!
#186553
0a
b0 b
#186559
0i
b0 j
#186565
0q
b0 r
#186571
0y
b0 z
#186601
0A
b0 B
#186607
0I
b0 J
#186613
0Q
b0 R
#186619
0Y
b0 Z
#186625
0!
b0 "
#186631
0)
b0 *
#186637
01
b0 2
#186643
09
b0 :
#187745
1&!
b1100110000100 '!
1.!
b1100110000100 /!
16!
b1100110000100 7!
1>!
b1100110000100 ?!
#187749
1d
b1100110000100 e
1l
b1100110000100 m
1t
b1100110000100 u
1|
b1100110000100 }
#187753
1D
b1100110000100 E
1L
b1100110000100 M
1T
b1100110000100 U
1\
b1100110000100 ]
#187757
1$
b1100110000100 %
1,
b1100110000100 -
14
b1100110000100 5
1<
b1100110000100 =
#188100
1#!
b1110111010011001 $!
1+!
b1110111010011111 ,!
13!
b1110111010100101 4!
1;!
b1110111010101011 <!
#188104
1a
b1110111011011101 b
1i
b1110111011100011 j
1q
b1110111011101001 r
1y
b1110111011101111 z
#188108
1A
b1110111100001001 B
1I
b1110111100001111 J
1Q
b1110111100010101 R
1Y
b1110111100011011 Z
#188114
1!
b1110111100011011 "
1)
b1110111100100001 *
11
b1110111100100111 2
19
b1110111100101101 :
#194277
0&!
b0 '!
0.!
b0 /!
06!
b0 7!
0>!
b0 ?!
#194278
1(!
b1 )!
10!
b1 1!
18!
b1 9!
1@!
b1 A!
#194279
0(!
b0 )!
00!
b0 1!
08!
b0 9!
0@!
b0 A!
#194281
0d
b0 e
0l
b0 m
0t
b0 u
0|
b0 }
b11 *!
b11 2!
b11 :!
b11 B!
#194282
1f
b1 g
1n
b1 o
1v
b1 w
1~
b1 !!
#194283
0f
b0 g
0n
b0 o
0v
b0 w
0~
b0 !!
#194285
0D
b0 E
0L
b0 M
0T
b0 U
0\
b0 ]
b11 h
b11 p
b11 x
b11 "!
#194286
1F
b1 G
1N
b1 O
1V
b1 W
1^
b1 _
#194287
0F
b0 G
0N
b0 O
0V
b0 W
0^
b0 _
#194289
0$
b0 %
0,
b0 -
04
b0 5
0<
b0 =
b11 H
b11 P
b11 X
b11 `
#194290
1&
b1 '
1.
b1 /
16
b1 7
1>
b1 ?
#194291
0&
b0 '
0.
b0 /
06
b0 7
0>
b0 ?
#194293
b11 (
b11 0
b11 8
b11 @
#249181
0#!
b0 $!
#249187
0+!
b0 ,!
#249193
03!
b0 4!
#249199
0;!
b0 <!
#249253
0a
b0 b
#249259
0i
b0 j
#249265
0q
b0 r
#249271
0y
b0 z
#249301
0A
b0 B
#249307
0I
b0 J
#249313
0Q
b0 R
#249319
0Y
b0 Z
#249325
0!
b0 "
#249331
0)
b0 *
#249337
01
b0 2
#249343
09
b0 :
#250445
1&!
b1100110000100 '!
1.!
b1100110000100 /!
16!
b1100110000100 7!
1>!
b1100110000100 ?!
#250449
1d
b1100110000100 e
1l
b1100110000100 m
1t
b1100110000100 u
1|
b1100110000100 }
#250453
1D
b1100110000100 E
1L
b1100110000100 M
1T
b1100110000100 U
1\
b1100110000100 ]
#250457
1$
b1100110000100 %
1,
b1100110000100 -
14
b1100110000100 5
1<
b1100110000100 =
#250800
1#!
b1110111010011001 $!
1+!
b1110111010011111 ,!
13!
b1110111010100101 4!
1;!
b1110111010101011 <!
#250804
1a
b1110111011011101 b
1i
b1110111011100011 j
1q
b1110111011101001 r
1y
b1110111011101111 z
#250808
1A
b1110111100001001 B
1I
b1110111100001111 J
1Q
b1110111100010101 R
1Y
b1110111100011011 Z
#250814
1!
b1110111100011011 "
1)
b1110111100100001 *
11
b1110111100100111 2
19
b1110111100101101 :
#256977
0&!
b0 '!
0.!
b0 /!
06!
b0 7!
0>!
b0 ?!
#256978
1(!
b1 )!
10!
b1 1!
18!
b1 9!
1@!
b1 A!
#256979
0(!
b0 )!
00!
b0 1!
08!
b0 9!
0@!
b0 A!
#256981
0d
b0 e
0l
b0 m
0t
b0 u
0|
b0 }
b100 *!
b100 2!
b100 :!
b100 B!
#256982
1f
b1 g
1n
b1 o
1v
b1 w
1~
b1 !!
#256983
0f
b0 g
0n
b0 o
0v
b0 w
0~
b0 !!
#256985
0D
b0 E
0L
b0 M
0T
b0 U
0\
b0 ]
b100 h
b100 p
b100 x
b100 "!
#256986
1F
b1 G
1N
b1 O
1V
b1 W
1^
b1 _
#256987
0F
b0 G
0N
b0 O
0V
b0 W
0^
b0 _
#256989
0$
b0 %
0,
b0 -
04
b0 5
0<
b0 =
b100 H
b100 P
b100 X
b100 `
#256990
1&
b1 '
1.
b1 /
16
b1 7
1>
b1 ?
#256991
0&
b0 '
0.
b0 /
06
b0 7
0>
b0 ?
#256993
b100 (
b100 0
b100 8
b100 @
#311881
0#!
b0 $!
#311887
0+!
b0 ,!
#311893
03!
b0 4!
#311899
0;!
b0 <!
#311953
0a
b0 b
#311959
0i
b0 j
#311965
0q
b0 r
#311971
0y
b0 z
#312001
0A
b0 B
#312007
0I
b0 J
#312013
0Q
b0 R
#312019
0Y
b0 Z
#312025
0!
b0 "
#312031
0)
b0 *
#312037
01
b0 2
#312043
09
b0 :
#313145
1&!
b1100110000100 '!
1.!
b1100110000100 /!
16!
b1100110000100 7!
1>!
b1100110000100 ?!
#313149
1d
b1100110000100 e
1l
b1100110000100 m
1t
b1100110000100 u
1|
b1100110000100 }
#313153
1D
b1100110000100 E
1L
b1100110000100 M
1T
b1100110000100 U
1\
b1100110000100 ]
#313157
1$
b1100110000100 %
1,
b1100110000100 -
14
b1100110000100 5
1<
b1100110000100 =
#313500
1#!
b1110111010011001 $!
1+!
b1110111010011111 ,!
13!
b1110111010100101 4!
1;!
b1110111010101011 <!
#313504
1a
b1110111011011101 b
1i
b1110111011100011 j
1q
b1110111011101001 r
1y
b1110111011101111 z
#313508
1A
b1110111100001001 B
1I
b1110111100001111 J
1Q
b1110111100010101 R
1Y
b1110111100011011 Z
#313514
1!
b1110111100011011 "
1)
b1110111100100001 *
11
b1110111100100111 2
19
b1110111100101101 :
#319677
0&!
b0 '!
0.!
b0 /!
06!
b0 7!
0>!
b0 ?!
#319678
1(!
b1 )!
10!
b1 1!
18!
b1 9!
1@!
b1 A!
#319679
0(!
b0 )!
00!
b0 1!
08!
b0 9!
0@!
b0 A!
#319681
0d
b0 e
0l
b0 m
0t
b0 u
0|
b0 }
b101 *!
b101 2!
b101 :!
b101 B!
#319682
1f
b1 g
1n
b1 o
1v
b1 w
1~
b1 !!
#319683
0f
b0 g
0n
b0 o
0v
b0 w
0~
b0 !!
#319685
0D
b0 E
0L
b0 M
0T
b0 U
0\
b0 ]
b101 h
b101 p
b101 x
b101 "!
#319686
1F
b1 G
1N
b1 O
1V
b1 W
1^
b1 _
#319687
0F
b0 G
0N
b0 O
0V
b0 W
0^
b0 _
#319689
0$
b0 %
0,
b0 -
04
b0 5
0<
b0 =
b101 H
b101 P
b101 X
b101 `
#319690
1&
b1 '
1.
b1 /
16
b1 7
1>
b1 ?
#319691
0&
b0 '
0.
b0 /
06
b0 7
0>
b0 ?
#319693
b101 (
b101 0
b101 8
b101 @
#374581
0#!
b0 $!
#374587
0+!
b0 ,!
#374593
03!
b0 4!
#374599
0;!
b0 <!
#374653
0a
b0 b
#374659
0i
b0 j
#374665
0q
b0 r
#374671
0y
b0 z
#374701
0A
b0 B
#374707
0I
b0 J
#374713
0Q
b0 R
#374719
0Y
b0 Z
#374725
0!
b0 "
#374731
0)
b0 *
#374737
01
b0 2
#374743
09
b0 :
#375845
1&!
b1100110000100 '!
1.!
b1100110000100 /!
16!
b1100110000100 7!
1>!
b1100110000100 ?!
#375849
1d
b1100110000100 e
1l
b1100110000100 m
1t
b1100110000100 u
1|
b1100110000100 }
#375853
1D
b1100110000100 E
1L
b1100110000100 M
1T
b1100110000100 U
1\
b1100110000100 ]
#375857
1$
b1100110000100 %
1,
b1100110000100 -
14
b1100110000100 5
1<
b1100110000100 =
#376200
1#!
b1110111010011001 $!
1+!
b1110111010011111 ,!
13!
b1110111010100101 4!
1;!
b1110111010101011 <!
#376204
1a
b1110111011011101 b
1i
b1110111011100011 j
1q
b1110111011101001 r
1y
b1110111011101111 z
#376208
1A
b1110111100001001 B
1I
b1110111100001111 J
1Q
b1110111100010101 R
1Y
b1110111100011011 Z
#376214
1!
b1110111100011011 "
1)
b1110111100100001 *
11
b1110111100100111 2
19
b1110111100101101 :
#382377
0&!
b0 '!
0.!
b0 /!
06!
b0 7!
0>!
b0 ?!
#382378
1(!
b1 )!
10!
b1 1!
18!
b1 9!
1@!
b1 A!
#382379
0(!
b0 )!
00!
b0 1!
08!
b0 9!
0@!
b0 A!
#382381
0d
b0 e
0l
b0 m
0t
b0 u
0|
b0 }
b110 *!
b110 2!
b110 :!
b110 B!
#382382
1f
b1 g
1n
b1 o
1v
b1 w
1~
b1 !!
#382383
0f
b0 g
0n
b0 o
0v
b0 w
0~
b0 !!
#382385
0D
b0 E
0L
b0 M
0T
b0 U
0\
b0 ]
b110 h
b110 p
b110 x
b110 "!
#382386
1F
b1 G
1N
b1 O
1V
b1 W
1^
b1 _
#382387
0F
b0 G
0N
b0 O
0V
b0 W
0^
b0 _
#382389
0$
b0 %
0,
b0 -
04
b0 5
0<
b0 =
b110 H
b110 P
b110 X
b110 `
#382390
1&
b1 '
1.
b1 /
16
b1 7
1>
b1 ?
#382391
0&
b0 '
0.
b0 /
06
b0 7
0>
b0 ?
#382393
b110 (
b110 0
b110 8
b110 @
#437281
0#!
b0 $!
#437287
0+!
b0 ,!
#437293
03!
b0 4!
#437299
0;!
b0 <!
#437353
0a
b0 b
#437359
0i
b0 j
#437365
0q
b0 r
#437371
0y
b0 z
#437401
0A
b0 B
#437407
0I
b0 J
#437413
0Q
b0 R
#437419
0Y
b0 Z
#437425
0!
b0 "
#437431
0)
b0 *
#437437
01
b0 2
#437443
09
b0 :
#438545
1&!
b1100110000100 '!
1.!
b1100110000100 /!
16!
b1100110000100 7!
1>!
b1100110000100 ?!
#438549
1d
b1100110000100 e
1l
b1100110000100 m
1t
b1100110000100 u
1|
b1100110000100 }
#438553
1D
b1100110000100 E
1L
b1100110000100 M
1T
b1100110000100 U
1\
b1100110000100 ]
#438557
1$
b1100110000100 %
1,
b1100110000100 -
14
b1100110000100 5
1<
b1100110000100 =
#438900
1#!
b1110111010011001 $!
1+!
b1110111010011111 ,!
13!
b1110111010100101 4!
1;!
b1110111010101011 <!
#438904
1a
b1110111011011101 b
1i
b1110111011100011 j
1q
b1110111011101001 r
1y
b1110111011101111 z
#438908
1A
b1110111100001001 B
1I
b1110111100001111 J
1Q
b1110111100010101 R
1Y
b1110111100011011 Z
#438914
1!
b1110111100011011 "
1)
b1110111100100001 *
11
b1110111100100111 2
19
b1110111100101101 :
#445077
0&!
b0 '!
0.!
b0 /!
06!
b0 7!
0>!
b0 ?!
#445078
1(!
b1 )!
10!
b1 1!
18!
b1 9!
1@!
b1 A!
#445079
0(!
b0 )!
00!
b0 1!
08!
b0 9!
0@!
b0 A!
#445081
0d
b0 e
0l
b0 m
0t
b0 u
0|
b0 }
b111 *!
b111 2!
b111 :!
b111 B!
#445082
1f
b1 g
1n
b1 o
1v
b1 w
1~
b1 !!
#445083
0f
b0 g
0n
b0 o
0v
b0 w
0~
b0 !!
#445085
0D
b0 E
0L
b0 M
0T
b0 U
0\
b0 ]
b111 h
b111 p
b111 x
b111 "!
#445086
1F
b1 G
1N
b1 O
1V
b1 W
1^
b1 _
#445087
0F
b0 G
0N
b0 O
0V
b0 W
0^
b0 _
#445089
0$
b0 %
0,
b0 -
04
b0 5
0<
b0 =
b111 H
b111 P
b111 X
b111 `
#445090
1&
b1 '
1.
b1 /
16
b1 7
1>
b1 ?
#445091
0&
b0 '
0.
b0 /
06
b0 7
0>
b0 ?
#445093
b111 (
b111 0
b111 8
b111 @
#499981
0#!
b0 $!
#499987
0+!
b0 ,!
#499993
03!
b0 4!
#499999
0;!
b0 <!
#500053
0a
b0 b
#500059
0i
b0 j
#500065
0q
b0 r
#500071
0y
b0 z
#500101
0A
b0 B
#500107
0I
b0 J
#500113
0Q
b0 R
#500119
0Y
b0 Z
#500125
0!
b0 "
#500131
0)
b0 *
#500137
01
b0 2
#500143
09
b0 :
#501245
1&!
b1100110000100 '!
1.!
b1100110000100 /!
16!
b1100110000100 7!
1>!
b1100110000100 ?!
#501249
1d
b1100110000100 e
1l
b1100110000100 m
1t
b1100110000100 u
1|
b1100110000100 }
#501253
1D
b1100110000100 E
1L
b1100110000100 M
1T
b1100110000100 U
1\
b1100110000100 ]
#501257
1$
b1100110000100 %
1,
b1100110000100 -
14
b1100110000100 5
1<
b1100110000100 =
#501600
1#!
b1110111010011001 $!
1+!
b1110111010011111 ,!
13!
b1110111010100101 4!
1;!
b1110111010101011 <!
#501604
1a
b1110111011011101 b
1i
b1110111011100011 j
1q
b1110111011101001 r
1y
b1110111011101111 z
#501608
1A
b1110111100001001 B
1I
b1110111100001111 J
1Q
b1110111100010101 R
1Y
b1110111100011011 Z
#501614
1!
b1110111100011011 "
1)
b1110111100100001 *
11
b1110111100100111 2
19
b1110111100101101 :
#507777
0&!
b0 '!
0.!
b0 /!
06!
b0 7!
0>!
b0 ?!
#507778
1(!
b1 )!
10!
b1 1!
18!
b1 9!
1@!
b1 A!
#507779
0(!
b0 )!
00!
b0 1!
08!
b0 9!
0@!
b0 A!
#507781
0d
b0 e
0l
b0 m
0t
b0 u
0|
b0 }
b1000 *!
b1000 2!
b1000 :!
b1000 B!
#507782
1f
b1 g
1n
b1 o
1v
b1 w
1~
b1 !!
#507783
0f
b0 g
0n
b0 o
0v
b0 w
0~
b0 !!
#507785
0D
b0 E
0L
b0 M
0T
b0 U
0\
b0 ]
b1000 h
b1000 p
b1000 x
b1000 "!
#507786
1F
b1 G
1N
b1 O
1V
b1 W
1^
b1 _
#507787
0F
b0 G
0N
b0 O
0V
b0 W
0^
b0 _
#507789
0$
b0 %
0,
b0 -
04
b0 5
0<
b0 =
b1000 H
b1000 P
b1000 X
b1000 `
#507790
1&
b1 '
1.
b1 /
16
b1 7
1>
b1 ?
#507791
0&
b0 '
0.
b0 /
06
b0 7
0>
b0 ?
#507793
b1000 (
b1000 0
b1000 8
b1000 @
#562681
0#!
b0 $!
#562687
0+!
b0 ,!
#562693
03!
b0 4!
#562699
0;!
b0 <!
#562753
0a
b0 b
#562759
0i
b0 j
#562765
0q
b0 r
#562771
0y
b0 z
#562801
0A
b0 B
#562807
0I
b0 J
#562813
0Q
b0 R
#562819
0Y
b0 Z
#562825
0!
b0 "
#562831
0)
b0 *
#562837
01
b0 2
#562843
09
b0 :
#563945
1&!
b1100110000100 '!
1.!
b1100110000100 /!
16!
b1100110000100 7!
1>!
b1100110000100 ?!
#563949
1d
b1100110000100 e
1l
b1100110000100 m
1t
b1100110000100 u
1|
b1100110000100 }
#563953
1D
b1100110000100 E
1L
b1100110000100 M
1T
b1100110000100 U
1\
b1100110000100 ]
#563957
1$
b1100110000100 %
1,
b1100110000100 -
14
b1100110000100 5
1<
b1100110000100 =
#564300
1#!
b1110111010011001 $!
1+!
b1110111010011111 ,!
13!
b1110111010100101 4!
1;!
b1110111010101011 <!
#564304
1a
b1110111011011101 b
1i
b1110111011100011 j
1q
b1110111011101001 r
1y
b1110111011101111 z
#564308
1A
b1110111100001001 B
1I
b1110111100001111 J
1Q
b1110111100010101 R
1Y
b1110111100011011 Z
#564314
1!
b1110111100011011 "
1)
b1110111100100001 *
11
b1110111100100111 2
19
b1110111100101101 :
#570477
0&!
b0 '!
0.!
b0 /!
06!
b0 7!
0>!
b0 ?!
#570478
1(!
b1 )!
10!
b1 1!
18!
b1 9!
1@!
b1 A!
#570479
0(!
b0 )!
00!
b0 1!
08!
b0 9!
0@!
b0 A!
#570481
0d
b0 e
0l
b0 m
0t
b0 u
0|
b0 }
b1001 *!
b1001 2!
b1001 :!
b1001 B!
#570482
1f
b1 g
1n
b1 o
1v
b1 w
1~
b1 !!
#570483
0f
b0 g
0n
b0 o
0v
b0 w
0~
b0 !!
#570485
0D
b0 E
0L
b0 M
0T
b0 U
0\
b0 ]
b1001 h
b1001 p
b1001 x
b1001 "!
#570486
1F
b1 G
1N
b1 O
1V
b1 W
1^
b1 _
#570487
0F
b0 G
0N
b0 O
0V
b0 W
0^
b0 _
#570489
0$
b0 %
0,
b0 -
04
b0 5
0<
b0 =
b1001 H
b1001 P
b1001 X
b1001 `
#570490
1&
b1 '
1.
b1 /
16
b1 7
1>
b1 ?
#570491
0&
b0 '
0.
b0 /
06
b0 7
0>
b0 ?
#570493
b1001 (
b1001 0
b1001 8
b1001 @
#625381
0#!
b0 $!
#625387
0+!
b0 ,!
#625393
03!
b0 4!
#625399
0;!
b0 <!
#625453
0a
b0 b
#625459
0i
b0 j
#625465
0q
b0 r
#625471
0y
b0 z
#625501
0A
b0 B
#625507
0I
b0 J
#625513
0Q
b0 R
#625519
0Y
b0 Z
#625525
0!
b0 "
#625531
0)
b0 *
#625537
01
b0 2
#625543
09
b0 :
#626645
1&!
b1100110000100 '!
1.!
b1100110000100 /!
16!
b1100110000100 7!
1>!
b1100110000100 ?!
#626649
1d
b1100110000100 e
1l
b1100110000100 m
1t
b1100110000100 u
1|
b1100110000100 }
#626653
1D
b1100110000100 E
1L
b1100110000100 M
1T
b1100110000100 U
1\
b1100110000100 ]
#626657
1$
b1100110000100 %
1,
b1100110000100 -
14
b1100110000100 5
1<
b1100110000100 =
#627000
1#!
b1110111010011001 $!
1+!
b1110111010011111 ,!
13!
b1110111010100101 4!
1;!
b1110111010101011 <!
#627004
1a
b1110111011011101 b
1i
b1110111011100011 j
1q
b1110111011101001 r
1y
b1110111011101111 z
#627008
1A
b1110111100001001 B
1I
b1110111100001111 J
1Q
b1110111100010101 R
1Y
b1110111100011011 Z
#627014
1!
b1110111100011011 "
1)
b1110111100100001 *
11
b1110111100100111 2
19
b1110111100101101 :
#633177
0&!
b0 '!
0.!
b0 /!
06!
b0 7!
0>!
b0 ?!
#633178
1(!
b1 )!
10!
b1 1!
18!
b1 9!
1@!
b1 A!
#633179
0(!
b0 )!
00!
b0 1!
08!
b0 9!
0@!
b0 A!
#633181
0d
b0 e
0l
b0 m
0t
b0 u
0|
b0 }
b1010 *!
b1010 2!
b1010 :!
b1010 B!
#633182
1f
b1 g
1n
b1 o
1v
b1 w
1~
b1 !!
#633183
0f
b0 g
0n
b0 o
0v
b0 w
0~
b0 !!
#633185
0D
b0 E
0L
b0 M
0T
b0 U
0\
b0 ]
b1010 h
b1010 p
b1010 x
b1010 "!
#633186
1F
b1 G
1N
b1 O
1V
b1 W
1^
b1 _
#633187
0F
b0 G
0N
b0 O
0V
b0 W
0^
b0 _
#633189
0$
b0 %
0,
b0 -
04
b0 5
0<
b0 =
b1010 H
b1010 P
b1010 X
b1010 `
#633190
1&
b1 '
1.
b1 /
16
b1 7
1>
b1 ?
#633191
0&
b0 '
0.
b0 /
06
b0 7
0>
b0 ?
