XuLei_conv3x3/XuLei_conv3x3_0.vcd
$date today $end
$timescale 1 ns $end
$scope module top $end
$scope module slice0 $end
$var integer 1 ! prefetch $end
$var integer 32 " prefetch_time $end
$var integer 1 # config $end
$var integer 1 $ compute $end
$var integer 32 % compute_time $end
$var integer 1 & write_back $end
$var integer 32 ' write_back_time $end
$var integer 10 ( TG_id $end
$upscope $end
$scope module slice1 $end
$var integer 1 ) prefetch $end
$var integer 32 * prefetch_time $end
$var integer 1 + config $end
$var integer 1 , compute $end
$var integer 32 - compute_time $end
$var integer 1 . write_back $end
$var integer 32 / write_back_time $end
$var integer 10 0 TG_id $end
$upscope $end
$scope module slice10 $end
$var integer 1 q prefetch $end
$var integer 32 r prefetch_time $end
$var integer 1 s config $end
$var integer 1 t compute $end
$var integer 32 u compute_time $end
$var integer 1 v write_back $end
$var integer 32 w write_back_time $end
$var integer 10 x TG_id $end
$upscope $end
$scope module slice11 $end
$var integer 1 y prefetch $end
$var integer 32 z prefetch_time $end
$var integer 1 { config $end
$var integer 1 | compute $end
$var integer 32 } compute_time $end
$var integer 1 ~ write_back $end
$var integer 32 !! write_back_time $end
$var integer 10 "! TG_id $end
$upscope $end
$scope module slice12 $end
$var integer 1 #! prefetch $end
$var integer 32 $! prefetch_time $end
$var integer 1 %! config $end
$var integer 1 &! compute $end
$var integer 32 '! compute_time $end
$var integer 1 (! write_back $end
$var integer 32 )! write_back_time $end
$var integer 10 *! TG_id $end
$upscope $end
$scope module slice13 $end
$var integer 1 +! prefetch $end
$var integer 32 ,! prefetch_time $end
$var integer 1 -! config $end
$var integer 1 .! compute $end
$var integer 32 /! compute_time $end
$var integer 1 0! write_back $end
$var integer 32 1! write_back_time $end
$var integer 10 2! TG_id $end
$upscope $end
$scope module slice14 $end
$var integer 1 3! prefetch $end
$var integer 32 4! prefetch_time $end
$var integer 1 5! config $end
$var integer 1 6! compute $end
$var integer 32 7! compute_time $end
$var integer 1 8! write_back $end
$var integer 32 9! write_back_time $end
$var integer 10 :! TG_id $end
$upscope $end
$scope module slice15 $end
$var integer 1 ;! prefetch $end
$var integer 32 <! prefetch_time $end
$var integer 1 =! config $end
$var integer 1 >! compute $end
$var integer 32 ?! compute_time $end
$var integer 1 @! write_back $end
$var integer 32 A! write_back_time $end
$var integer 10 B! TG_id $end
$upscope $end
$scope module slice2 $end
$var integer 1 1 prefetch $end
$var integer 32 2 prefetch_time $end
$var integer 1 3 config $end
$var integer 1 4 compute $end
$var integer 32 5 compute_time $end
$var integer 1 6 write_back $end
$var integer 32 7 write_back_time $end
$var integer 10 8 TG_id $end
$upscope $end
$scope module slice3 $end
$var integer 1 9 prefetch $end
$var integer 32 : prefetch_time $end
$var integer 1 ; config $end
$var integer 1 < compute $end
$var integer 32 = compute_time $end
$var integer 1 > write_back $end
$var integer 32 ? write_back_time $end
$var integer 10 @ TG_id $end
$upscope $end
$scope module slice4 $end
$var integer 1 A prefetch $end
$var integer 32 B prefetch_time $end
$var integer 1 C config $end
$var integer 1 D compute $end
$var integer 32 E compute_time $end
$var integer 1 F write_back $end
$var integer 32 G write_back_time $end
$var integer 10 H TG_id $end
$upscope $end
$scope module slice5 $end
$var integer 1 I prefetch $end
$var integer 32 J prefetch_time $end
$var integer 1 K config $end
$var integer 1 L compute $end
$var integer 32 M compute_time $end
$var integer 1 N write_back $end
$var integer 32 O write_back_time $end
$var integer 10 P TG_id $end
$upscope $end
$scope module slice6 $end
$var integer 1 Q prefetch $end
$var integer 32 R prefetch_time $end
$var integer 1 S config $end
$var integer 1 T compute $end
$var integer 32 U compute_time $end
$var integer 1 V write_back $end
$var integer 32 W write_back_time $end
$var integer 10 X TG_id $end
$upscope $end
$scope module slice7 $end
$var integer 1 Y prefetch $end
$var integer 32 Z prefetch_time $end
$var integer 1 [ config $end
$var integer 1 \ compute $end
$var integer 32 ] compute_time $end
$var integer 1 ^ write_back $end
$var integer 32 _ write_back_time $end
$var integer 10 ` TG_id $end
$upscope $end
$scope module slice8 $end
$var integer 1 a prefetch $end
$var integer 32 b prefetch_time $end
$var integer 1 c config $end
$var integer 1 d compute $end
$var integer 32 e compute_time $end
$var integer 1 f write_back $end
$var integer 32 g write_back_time $end
$var integer 10 h TG_id $end
$upscope $end
$scope module slice9 $end
$var integer 1 i prefetch $end
$var integer 32 j prefetch_time $end
$var integer 1 k config $end
$var integer 1 l compute $end
$var integer 32 m compute_time $end
$var integer 1 n write_back $end
$var integer 32 o write_back_time $end
$var integer 10 p TG_id $end
$upscope $end
$upscope $end
$enddefinitions $end
#0
$dumpvars
0!
b0 "
0#
0$
b0 %
0&
b0 '
b0 (
0)
b0 *
0+
0,
b0 -
0.
b0 /
b0 0
01
b0 2
03
04
b0 5
06
b0 7
b0 8
09
b0 :
0;
0<
b0 =
0>
b0 ?
b0 @
0A
b0 B
0C
0D
b0 E
0F
b0 G
b0 H
0I
b0 J
0K
0L
b0 M
0N
b0 O
b0 P
0Q
b0 R
0S
0T
b0 U
0V
b0 W
b0 X
0Y
b0 Z
0[
0\
b0 ]
0^
b0 _
b0 `
0a
b0 b
0c
0d
b0 e
0f
b0 g
b0 h
0i
b0 j
0k
0l
b0 m
0n
b0 o
b0 p
0q
b0 r
0s
0t
b0 u
0v
b0 w
b0 x
0y
b0 z
0{
0|
b0 }
0~
b0 !!
b0 "!
1#!
b1011011110001 $!
0%!
0&!
b0 '!
0(!
b0 )!
b0 *!
1+!
b1011011110111 ,!
0-!
0.!
b0 /!
00!
b0 1!
b0 2!
13!
b1011011111101 4!
05!
06!
b0 7!
08!
b0 9!
b0 :!
1;!
b1011100000011 <!
0=!
0>!
b0 ?!
0@!
b0 A!
b0 B!
$end
#4
1a
b1011110100101 b
1i
b1011110101011 j
1q
b1011110110001 r
1y
b1011110110111 z
#8
1A
b1100001000001 B
1I
b1100001000111 J
1Q
b1100001001101 R
1Y
b1100001010011 Z
#14
1!
b1100001010011 "
1)
b1100001011001 *
11
b1100001011111 2
19
b1100001100101 :
#5873
0#!
b0 $!
#5879
0+!
b0 ,!
#5885
03!
b0 4!
#5891
0;!
b0 <!
#6057
0a
b0 b
#6063
0i
b0 j
#6069
0q
b0 r
#6075
0y
b0 z
#6217
0A
b0 B
#6223
0I
b0 J
#6229
0Q
b0 R
#6235
0Y
b0 Z
#6241
0!
b0 "
#6247
0)
b0 *
#6253
01
b0 2
#6259
09
b0 :
#7361
1&!
b10100101100100 '!
1.!
b10100101100100 /!
16!
b10100101100100 7!
1>!
b10100101100100 ?!
#7365
1d
b10100101100100 e
1l
b10100101100100 m
1t
b10100101100100 u
1|
b10100101100100 }
#7369
1D
b10100101100100 E
1L
b10100101100100 M
1T
b10100101100100 U
1\
b10100101100100 ]
#7373
1$
b10100101100100 %
1,
b10100101100100 -
14
b10100101100100 5
1<
b10100101100100 =
#7716
1#!
b1011111010001 $!
1+!
b1011111010111 ,!
13!
b1011111011101 4!
1;!
b1011111100011 <!
#7720
1a
b1100010000101 b
1i
b1100010001011 j
1q
b1100010010001 r
1y
b1100010010111 z
#7724
1A
b1100100100001 B
1I
b1100100100111 J
1Q
b1100100101101 R
1Y
b1100100110011 Z
#7730
1!
b1100100110011 "
1)
b1100100111001 *
11
b1100100111111 2
19
b1100101000101 :
#13813
0#!
b0 $!
#13819
0+!
b0 ,!
#13825
03!
b0 4!
#13831
0;!
b0 <!
#13997
0a
b0 b
#14003
0i
b0 j
#14009
0q
b0 r
#14015
0y
b0 z
#14157
0A
b0 B
#14163
0I
b0 J
#14169
0Q
b0 R
#14175
0Y
b0 Z
#14181
0!
b0 "
#14187
0)
b0 *
#14193
01
b0 2
#14199
09
b0 :
#17957
0&!
b0 '!
0.!
b0 /!
06!
b0 7!
0>!
b0 ?!
#17958
1(!
b1 )!
10!
b1 1!
18!
b1 9!
1@!
b1 A!
#17959
0(!
b0 )!
00!
b0 1!
08!
b0 9!
0@!
b0 A!
#17961
0d
b0 e
0l
b0 m
0t
b0 u
0|
b0 }
b1 *!
b1 2!
b1 :!
b1 B!
#17962
1f
b1 g
1n
b1 o
1v
b1 w
1~
b1 !!
#17963
0f
b0 g
0n
b0 o
0v
b0 w
0~
b0 !!
#17965
0D
b0 E
0L
b0 M
0T
b0 U
0\
b0 ]
b1 h
b1 p
b1 x
b1 "!
#17966
1F
b1 G
1N
b1 O
1V
b1 W
1^
b1 _
#17967
0F
b0 G
0N
b0 O
0V
b0 W
0^
b0 _
#17969
0$
b0 %
0,
b0 -
04
b0 5
0<
b0 =
b1 H
b1 P
b1 X
b1 `
#17970
1&
b1 '
1.
b1 /
16
b1 7
1>
b1 ?
#17971
0&
b0 '
0.
b0 /
06
b0 7
0>
b0 ?
#17973
b1 (
b1 0
b1 8
b1 @
#18917
1&!
b10100101000000 '!
1.!
b10100101000000 /!
16!
b10100101000000 7!
1>!
b10100101000000 ?!
#18921
1d
b10100101000000 e
1l
b10100101000000 m
1t
b10100101000000 u
1|
b10100101000000 }
#18925
1D
b10100101000000 E
1L
b10100101000000 M
1T
b10100101000000 U
1\
b10100101000000 ]
#18929
1$
b10100101000000 %
1,
b10100101000000 -
14
b10100101000000 5
1<
b10100101000000 =
#19005
1#!
b1011100111010 $!
1+!
b1011101000000 ,!
13!
b1011101000110 4!
1;!
b1011101001100 <!
#19009
1a
b1100001011110 b
1i
b1100001100100 j
1q
b1100001101010 r
1y
b1100001110000 z
#19013
1A
b1100010001010 B
1I
b1100010010000 J
1Q
b1100010010110 R
1Y
b1100010011100 Z
#19017
1!
b1100001101110 "
1)
b1100001110100 *
11
b1100001111010 2
19
b1100010000000 :
#24951
0#!
b0 $!
#24957
0+!
b0 ,!
#24963
03!
b0 4!
#24969
0;!
b0 <!
#25247
0a
b0 b
#25253
0i
b0 j
#25259
0q
b0 r
#25265
0y
b0 z
#25271
0!
b0 "
#25277
0)
b0 *
#25283
01
b0 2
#25289
09
b0 :
#25295
0A
b0 B
#25301
0I
b0 J
#25307
0Q
b0 R
#25313
0Y
b0 Z
#29477
0&!
b0 '!
0.!
b0 /!
06!
b0 7!
0>!
b0 ?!
#29478
1(!
b1 )!
10!
b1 1!
18!
b1 9!
1@!
b1 A!
#29479
0(!
b0 )!
00!
b0 1!
08!
b0 9!
0@!
b0 A!
#29481
0d
b0 e
0l
b0 m
0t
b0 u
0|
b0 }
b10 *!
b10 2!
b10 :!
b10 B!
#29482
1f
b1 g
1n
b1 o
1v
b1 w
1~
b1 !!
#29483
0f
b0 g
0n
b0 o
0v
b0 w
0~
b0 !!
#29485
0D
b0 E
0L
b0 M
0T
b0 U
0\
b0 ]
b10 h
b10 p
b10 x
b10 "!
#29486
1F
b1 G
1N
b1 O
1V
b1 W
1^
b1 _
#29487
0F
b0 G
0N
b0 O
0V
b0 W
0^
b0 _
#29489
0$
b0 %
0,
b0 -
04
b0 5
0<
b0 =
b10 H
b10 P
b10 X
b10 `
#29490
1&
b1 '
1.
b1 /
16
b1 7
1>
b1 ?
#29491
0&
b0 '
0.
b0 /
06
b0 7
0>
b0 ?
#29493
b10 (
b10 0
b10 8
b10 @
#30437
1&!
b10100101000000 '!
1.!
b10100101000000 /!
16!
b10100101000000 7!
1>!
b10100101000000 ?!
#30441
1d
b10100101000000 e
1l
b10100101000000 m
1t
b10100101000000 u
1|
b10100101000000 }
#30445
1D
b10100101000000 E
1L
b10100101000000 M
1T
b10100101000000 U
1\
b10100101000000 ]
#30449
1$
b10100101000000 %
1,
b10100101000000 -
14
b10100101000000 5
1<
b10100101000000 =
#30525
1#!
b1100000011110 $!
1+!
b1100000100100 ,!
13!
b1100000101010 4!
1;!
b1100000110000 <!
#30529
1a
b1100101000010 b
1i
b1100101001000 j
1q
b1100101001110 r
1y
b1100101010100 z
#30533
1A
b1100101101110 B
1I
b1100101110100 J
1Q
b1100101111010 R
1Y
b1100110000000 Z
#30537
1!
b1100101010010 "
1)
b1100101011000 *
11
b1100101011110 2
19
b1100101100100 :
#36699
0#!
b0 $!
#36705
0+!
b0 ,!
#36711
03!
b0 4!
#36717
0;!
b0 <!
#36995
0a
b0 b
#37001
0i
b0 j
#37007
0q
b0 r
#37013
0y
b0 z
#37019
0!
b0 "
#37025
0)
b0 *
#37031
01
b0 2
#37037
09
b0 :
#37043
0A
b0 B
#37049
0I
b0 J
#37055
0Q
b0 R
#37061
0Y
b0 Z
#40997
0&!
b0 '!
0.!
b0 /!
06!
b0 7!
0>!
b0 ?!
#40998
1(!
b1 )!
10!
b1 1!
18!
b1 9!
1@!
b1 A!
#40999
0(!
b0 )!
00!
b0 1!
08!
b0 9!
0@!
b0 A!
#41001
0d
b0 e
0l
b0 m
0t
b0 u
0|
b0 }
b11 *!
b11 2!
b11 :!
b11 B!
#41002
1f
b1 g
1n
b1 o
1v
b1 w
1~
b1 !!
#41003
0f
b0 g
0n
b0 o
0v
b0 w
0~
b0 !!
#41005
0D
b0 E
0L
b0 M
0T
b0 U
0\
b0 ]
b11 h
b11 p
b11 x
b11 "!
#41006
1F
b1 G
1N
b1 O
1V
b1 W
1^
b1 _
#41007
0F
b0 G
0N
b0 O
0V
b0 W
0^
b0 _
#41009
0$
b0 %
0,
b0 -
04
b0 5
0<
b0 =
b11 H
b11 P
b11 X
b11 `
#41010
1&
b1 '
1.
b1 /
16
b1 7
1>
b1 ?
#41011
0&
b0 '
0.
b0 /
06
b0 7
0>
b0 ?
#41013
b11 (
b11 0
b11 8
b11 @
#41957
1&!
b10100101000000 '!
1.!
b10100101000000 /!
16!
b10100101000000 7!
1>!
b10100101000000 ?!
#41961
1d
b10100101000000 e
1l
b10100101000000 m
1t
b10100101000000 u
1|
b10100101000000 }
#41965
1D
b10100101000000 E
1L
b10100101000000 M
1T
b10100101000000 U
1\
b10100101000000 ]
#41969
1$
b10100101000000 %
1,
b10100101000000 -
14
b10100101000000 5
1<
b10100101000000 =
#42045
1#!
b1011100111010 $!
1+!
b1011101000000 ,!
13!
b1011101000110 4!
1;!
b1011101001100 <!
#42049
1a
b1100001011110 b
1i
b1100001100100 j
1q
b1100001101010 r
1y
b1100001110000 z
#42053
1A
b1100010001010 B
1I
b1100010010000 J
1Q
b1100010010110 R
1Y
b1100010011100 Z
#42057
1!
b1100001101110 "
1)
b1100001110100 *
11
b1100001111010 2
19
b1100010000000 :
#47991
0#!
b0 $!
#47997
0+!
b0 ,!
#48003
03!
b0 4!
#48009
0;!
b0 <!
#48287
0a
b0 b
#48293
0i
b0 j
#48299
0q
b0 r
#48305
0y
b0 z
#48311
0!
b0 "
#48317
0)
b0 *
#48323
01
b0 2
#48329
09
b0 :
#48335
0A
b0 B
#48341
0I
b0 J
#48347
0Q
b0 R
#48353
0Y
b0 Z
#52517
0&!
b0 '!
0.!
b0 /!
06!
b0 7!
0>!
b0 ?!
#52518
1(!
b1 )!
10!
b1 1!
18!
b1 9!
1@!
b1 A!
#52519
0(!
b0 )!
00!
b0 1!
08!
b0 9!
0@!
b0 A!
#52521
0d
b0 e
0l
b0 m
0t
b0 u
0|
b0 }
b100 *!
b100 2!
b100 :!
b100 B!
#52522
1f
b1 g
1n
b1 o
1v
b1 w
1~
b1 !!
#52523
0f
b0 g
0n
b0 o
0v
b0 w
0~
b0 !!
#52525
0D
b0 E
0L
b0 M
0T
b0 U
0\
b0 ]
b100 h
b100 p
b100 x
b100 "!
#52526
1F
b1 G
1N
b1 O
1V
b1 W
1^
b1 _
#52527
0F
b0 G
0N
b0 O
0V
b0 W
0^
b0 _
#52529
0$
b0 %
0,
b0 -
04
b0 5
0<
b0 =
b100 H
b100 P
b100 X
b100 `
#52530
1&
b1 '
1.
b1 /
16
b1 7
1>
b1 ?
#52531
0&
b0 '
0.
b0 /
06
b0 7
0>
b0 ?
#52533
b100 (
b100 0
b100 8
b100 @
#53477
1&!
b10100101000000 '!
1.!
b10100101000000 /!
16!
b10100101000000 7!
1>!
b10100101000000 ?!
#53481
1d
b10100101000000 e
1l
b10100101000000 m
1t
b10100101000000 u
1|
b10100101000000 }
#53485
1D
b10100101000000 E
1L
b10100101000000 M
1T
b10100101000000 U
1\
b10100101000000 ]
#53489
1$
b10100101000000 %
1,
b10100101000000 -
14
b10100101000000 5
1<
b10100101000000 =
#53565
1#!
b1100000011110 $!
1+!
b1100000100100 ,!
13!
b1100000101010 4!
1;!
b1100000110000 <!
#53569
1a
b1100101000010 b
1i
b1100101001000 j
1q
b1100101001110 r
1y
b1100101010100 z
#53573
1A
b1100101101110 B
1I
b1100101110100 J
1Q
b1100101111010 R
1Y
b1100110000000 Z
#53577
1!
b1100101010010 "
1)
b1100101011000 *
11
b1100101011110 2
19
b1100101100100 :
#59739
0#!
b0 $!
#59745
0+!
b0 ,!
#59751
03!
b0 4!
#59757
0;!
b0 <!
#60035
0a
b0 b
#60041
0i
b0 j
#60047
0q
b0 r
#60053
0y
b0 z
#60059
0!
b0 "
#60065
0)
b0 *
#60071
01
b0 2
#60077
09
b0 :
#60083
0A
b0 B
#60089
0I
b0 J
#60095
0Q
b0 R
#60101
0Y
b0 Z
#64037
0&!
b0 '!
0.!
b0 /!
06!
b0 7!
0>!
b0 ?!
#64038
1(!
b1 )!
10!
b1 1!
18!
b1 9!
1@!
b1 A!
#64039
0(!
b0 )!
00!
b0 1!
08!
b0 9!
0@!
b0 A!
#64041
0d
b0 e
0l
b0 m
0t
b0 u
0|
b0 }
b101 *!
b101 2!
b101 :!
b101 B!
#64042
1f
b1 g
1n
b1 o
1v
b1 w
1~
b1 !!
#64043
0f
b0 g
0n
b0 o
0v
b0 w
0~
b0 !!
#64045
0D
b0 E
0L
b0 M
0T
b0 U
0\
b0 ]
b101 h
b101 p
b101 x
b101 "!
#64046
1F
b1 G
1N
b1 O
1V
b1 W
1^
b1 _
#64047
0F
b0 G
0N
b0 O
0V
b0 W
0^
b0 _
#64049
0$
b0 %
0,
b0 -
04
b0 5
0<
b0 =
b101 H
b101 P
b101 X
b101 `
#64050
1&
b1 '
1.
b1 /
16
b1 7
1>
b1 ?
#64051
0&
b0 '
0.
b0 /
06
b0 7
0>
b0 ?
#64053
b101 (
b101 0
b101 8
b101 @
#64997
1&!
b10100101000000 '!
1.!
b10100101000000 /!
16!
b10100101000000 7!
1>!
b10100101000000 ?!
#65001
1d
b10100101000000 e
1l
b10100101000000 m
1t
b10100101000000 u
1|
b10100101000000 }
#65005
1D
b10100101000000 E
1L
b10100101000000 M
1T
b10100101000000 U
1\
b10100101000000 ]
#65009
1$
b10100101000000 %
1,
b10100101000000 -
14
b10100101000000 5
1<
b10100101000000 =
#65085
1#!
b1011100111010 $!
1+!
b1011101000000 ,!
13!
b1011101000110 4!
1;!
b1011101001100 <!
#65089
1a
b1100001011110 b
1i
b1100001100100 j
1q
b1100001101010 r
1y
b1100001110000 z
#65093
1A
b1100010001010 B
1I
b1100010010000 J
1Q
b1100010010110 R
1Y
b1100010011100 Z
#65097
1!
b1100001101110 "
1)
b1100001110100 *
11
b1100001111010 2
19
b1100010000000 :
#71031
0#!
b0 $!
#71037
0+!
b0 ,!
#71043
03!
b0 4!
#71049
0;!
b0 <!
#71327
0a
b0 b
#71333
0i
b0 j
#71339
0q
b0 r
#71345
0y
b0 z
#71351
0!
b0 "
#71357
0)
b0 *
#71363
01
b0 2
#71369
09
b0 :
#71375
0A
b0 B
#71381
0I
b0 J
#71387
0Q
b0 R
#71393
0Y
b0 Z
#75557
0&!
b0 '!
0.!
b0 /!
06!
b0 7!
0>!
b0 ?!
#75558
1(!
b1 )!
10!
b1 1!
18!
b1 9!
1@!
b1 A!
#75559
0(!
b0 )!
00!
b0 1!
08!
b0 9!
0@!
b0 A!
#75561
0d
b0 e
0l
b0 m
0t
b0 u
0|
b0 }
b110 *!
b110 2!
b110 :!
b110 B!
#75562
1f
b1 g
1n
b1 o
1v
b1 w
1~
b1 !!
#75563
0f
b0 g
0n
b0 o
0v
b0 w
0~
b0 !!
#75565
0D
b0 E
0L
b0 M
0T
b0 U
0\
b0 ]
b110 h
b110 p
b110 x
b110 "!
#75566
1F
b1 G
1N
b1 O
1V
b1 W
1^
b1 _
#75567
0F
b0 G
0N
b0 O
0V
b0 W
0^
b0 _
#75569
0$
b0 %
0,
b0 -
04
b0 5
0<
b0 =
b110 H
b110 P
b110 X
b110 `
#75570
1&
b1 '
1.
b1 /
16
b1 7
1>
b1 ?
#75571
0&
b0 '
0.
b0 /
06
b0 7
0>
b0 ?
#75573
b110 (
b110 0
b110 8
b110 @
#76517
1&!
b10100101000000 '!
1.!
b10100101000000 /!
16!
b10100101000000 7!
1>!
b10100101000000 ?!
#76521
1d
b10100101000000 e
1l
b10100101000000 m
1t
b10100101000000 u
1|
b10100101000000 }
#76525
1D
b10100101000000 E
1L
b10100101000000 M
1T
b10100101000000 U
1\
b10100101000000 ]
#76529
1$
b10100101000000 %
1,
b10100101000000 -
14
b10100101000000 5
1<
b10100101000000 =
#76605
1#!
b1100000011110 $!
1+!
b1100000100100 ,!
13!
b1100000101010 4!
1;!
b1100000110000 <!
#76609
1a
b1100101000010 b
1i
b1100101001000 j
1q
b1100101001110 r
1y
b1100101010100 z
#76613
1A
b1100101101110 B
1I
b1100101110100 J
1Q
b1100101111010 R
1Y
b1100110000000 Z
#76617
1!
b1100101010010 "
1)
b1100101011000 *
11
b1100101011110 2
19
b1100101100100 :
#82779
0#!
b0 $!
#82785
0+!
b0 ,!
#82791
03!
b0 4!
#82797
0;!
b0 <!
#83075
0a
b0 b
#83081
0i
b0 j
#83087
0q
b0 r
#83093
0y
b0 z
#83099
0!
b0 "
#83105
0)
b0 *
#83111
01
b0 2
#83117
09
b0 :
#83123
0A
b0 B
#83129
0I
b0 J
#83135
0Q
b0 R
#83141
0Y
b0 Z
#87077
0&!
b0 '!
0.!
b0 /!
06!
b0 7!
0>!
b0 ?!
#87078
1(!
b1 )!
10!
b1 1!
18!
b1 9!
1@!
b1 A!
#87079
0(!
b0 )!
00!
b0 1!
08!
b0 9!
0@!
b0 A!
#87081
0d
b0 e
0l
b0 m
0t
b0 u
0|
b0 }
b111 *!
b111 2!
b111 :!
b111 B!
#87082
1f
b1 g
1n
b1 o
1v
b1 w
1~
b1 !!
#87083
0f
b0 g
0n
b0 o
0v
b0 w
0~
b0 !!
#87085
0D
b0 E
0L
b0 M
0T
b0 U
0\
b0 ]
b111 h
b111 p
b111 x
b111 "!
#87086
1F
b1 G
1N
b1 O
1V
b1 W
1^
b1 _
#87087
0F
b0 G
0N
b0 O
0V
b0 W
0^
b0 _
#87089
0$
b0 %
0,
b0 -
04
b0 5
0<
b0 =
b111 H
b111 P
b111 X
b111 `
#87090
1&
b1 '
1.
b1 /
16
b1 7
1>
b1 ?
#87091
0&
b0 '
0.
b0 /
06
b0 7
0>
b0 ?
#87093
b111 (
b111 0
b111 8
b111 @
#88037
1&!
b10100101000000 '!
1.!
b10100101000000 /!
16!
b10100101000000 7!
1>!
b10100101000000 ?!
#88041
1d
b10100101000000 e
1l
b10100101000000 m
1t
b10100101000000 u
1|
b10100101000000 }
#88045
1D
b10100101000000 E
1L
b10100101000000 M
1T
b10100101000000 U
1\
b10100101000000 ]
#88049
1$
b10100101000000 %
1,
b10100101000000 -
14
b10100101000000 5
1<
b10100101000000 =
#88125
1#!
b1011100111010 $!
1+!
b1011101000000 ,!
13!
b1011101000110 4!
1;!
b1011101001100 <!
#88129
1a
b1100001011110 b
1i
b1100001100100 j
1q
b1100001101010 r
1y
b1100001110000 z
#88133
1A
b1100010001010 B
1I
b1100010010000 J
1Q
b1100010010110 R
1Y
b1100010011100 Z
#88137
1!
b1100001101110 "
1)
b1100001110100 *
11
b1100001111010 2
19
b1100010000000 :
#94071
0#!
b0 $!
#94077
0+!
b0 ,!
#94083
03!
b0 4!
#94089
0;!
b0 <!
#94367
0a
b0 b
#94373
0i
b0 j
#94379
0q
b0 r
#94385
0y
b0 z
#94391
0!
b0 "
#94397
0)
b0 *
#94403
01
b0 2
#94409
09
b0 :
#94415
0A
b0 B
#94421
0I
b0 J
#94427
0Q
b0 R
#94433
0Y
b0 Z
#98597
0&!
b0 '!
0.!
b0 /!
06!
b0 7!
0>!
b0 ?!
#98598
1(!
b1 )!
10!
b1 1!
18!
b1 9!
1@!
b1 A!
#98599
0(!
b0 )!
00!
b0 1!
08!
b0 9!
0@!
b0 A!
#98601
0d
b0 e
0l
b0 m
0t
b0 u
0|
b0 }
b1000 *!
b1000 2!
b1000 :!
b1000 B!
#98602
1f
b1 g
1n
b1 o
1v
b1 w
1~
b1 !!
#98603
0f
b0 g
0n
b0 o
0v
b0 w
0~
b0 !!
#98605
0D
b0 E
0L
b0 M
0T
b0 U
0\
b0 ]
b1000 h
b1000 p
b1000 x
b1000 "!
#98606
1F
b1 G
1N
b1 O
1V
b1 W
1^
b1 _
#98607
0F
b0 G
0N
b0 O
0V
b0 W
0^
b0 _
#98609
0$
b0 %
0,
b0 -
04
b0 5
0<
b0 =
b1000 H
b1000 P
b1000 X
b1000 `
#98610
1&
b1 '
1.
b1 /
16
b1 7
1>
b1 ?
#98611
0&
b0 '
0.
b0 /
06
b0 7
0>
b0 ?
#98613
b1000 (
b1000 0
b1000 8
b1000 @
#99557
1&!
b10100101000000 '!
1.!
b10100101000000 /!
16!
b10100101000000 7!
1>!
b10100101000000 ?!
#99561
1d
b10100101000000 e
1l
b10100101000000 m
1t
b10100101000000 u
1|
b10100101000000 }
#99565
1D
b10100101000000 E
1L
b10100101000000 M
1T
b10100101000000 U
1\
b10100101000000 ]
#99569
1$
b10100101000000 %
1,
b10100101000000 -
14
b10100101000000 5
1<
b10100101000000 =
#99645
1#!
b1100000011110 $!
1+!
b1100000100100 ,!
13!
b1100000101010 4!
1;!
b1100000110000 <!
#99649
1a
b1100101000010 b
1i
b1100101001000 j
1q
b1100101001110 r
1y
b1100101010100 z
#99653
1A
b1100101101110 B
1I
b1100101110100 J
1Q
b1100101111010 R
1Y
b1100110000000 Z
#99657
1!
b1100101010010 "
1)
b1100101011000 *
11
b1100101011110 2
19
b1100101100100 :
#105819
0#!
b0 $!
#105825
0+!
b0 ,!
#105831
03!
b0 4!
#105837
0;!
b0 <!
#106115
0a
b0 b
#106121
0i
b0 j
#106127
0q
b0 r
#106133
0y
b0 z
#106139
0!
b0 "
#106145
0)
b0 *
#106151
01
b0 2
#106157
09
b0 :
#106163
0A
b0 B
#106169
0I
b0 J
#106175
0Q
b0 R
#106181
0Y
b0 Z
#110117
0&!
b0 '!
0.!
b0 /!
06!
b0 7!
0>!
b0 ?!
#110118
1(!
b1 )!
10!
b1 1!
18!
b1 9!
1@!
b1 A!
#110119
0(!
b0 )!
00!
b0 1!
08!
b0 9!
0@!
b0 A!
#110121
0d
b0 e
0l
b0 m
0t
b0 u
0|
b0 }
b1001 *!
b1001 2!
b1001 :!
b1001 B!
#110122
1f
b1 g
1n
b1 o
1v
b1 w
1~
b1 !!
#110123
0f
b0 g
0n
b0 o
0v
b0 w
0~
b0 !!
#110125
0D
b0 E
0L
b0 M
0T
b0 U
0\
b0 ]
b1001 h
b1001 p
b1001 x
b1001 "!
#110126
1F
b1 G
1N
b1 O
1V
b1 W
1^
b1 _
#110127
0F
b0 G
0N
b0 O
0V
b0 W
0^
b0 _
#110129
0$
b0 %
0,
b0 -
04
b0 5
0<
b0 =
b1001 H
b1001 P
b1001 X
b1001 `
#110130
1&
b1 '
1.
b1 /
16
b1 7
1>
b1 ?
#110131
0&
b0 '
0.
b0 /
06
b0 7
0>
b0 ?
#110133
b1001 (
b1001 0
b1001 8
b1001 @
#111077
1&!
b10100101000000 '!
1.!
b10100101000000 /!
16!
b10100101000000 7!
1>!
b10100101000000 ?!
#111081
1d
b10100101000000 e
1l
b10100101000000 m
1t
b10100101000000 u
1|
b10100101000000 }
#111085
1D
b10100101000000 E
1L
b10100101000000 M
1T
b10100101000000 U
1\
b10100101000000 ]
#111089
1$
b10100101000000 %
1,
b10100101000000 -
14
b10100101000000 5
1<
b10100101000000 =
#111165
1#!
b1011100111010 $!
1+!
b1011101000000 ,!
13!
b1011101000110 4!
1;!
b1011101001100 <!
#111169
1a
b1100001011110 b
1i
b1100001100100 j
1q
b1100001101010 r
1y
b1100001110000 z
#111173
1A
b1100010001010 B
1I
b1100010010000 J
1Q
b1100010010110 R
1Y
b1100010011100 Z
#111177
1!
b1100001101110 "
1)
b1100001110100 *
11
b1100001111010 2
19
b1100010000000 :
#117111
0#!
b0 $!
#117117
0+!
b0 ,!
#117123
03!
b0 4!
#117129
0;!
b0 <!
#117407
0a
b0 b
#117413
0i
b0 j
#117419
0q
b0 r
#117425
0y
b0 z
#117431
0!
b0 "
#117437
0)
b0 *
#117443
01
b0 2
#117449
09
b0 :
#117455
0A
b0 B
#117461
0I
b0 J
#117467
0Q
b0 R
#117473
0Y
b0 Z
#121637
0&!
b0 '!
0.!
b0 /!
06!
b0 7!
0>!
b0 ?!
#121638
1(!
b1 )!
10!
b1 1!
18!
b1 9!
1@!
b1 A!
#121639
0(!
b0 )!
00!
b0 1!
08!
b0 9!
0@!
b0 A!
#121641
0d
b0 e
0l
b0 m
0t
b0 u
0|
b0 }
b1010 *!
b1010 2!
b1010 :!
b1010 B!
#121642
1f
b1 g
1n
b1 o
1v
b1 w
1~
b1 !!
#121643
0f
b0 g
0n
b0 o
0v
b0 w
0~
b0 !!
#121645
0D
b0 E
0L
b0 M
0T
b0 U
0\
b0 ]
b1010 h
b1010 p
b1010 x
b1010 "!
#121646
1F
b1 G
1N
b1 O
1V
b1 W
1^
b1 _
#121647
0F
b0 G
0N
b0 O
0V
b0 W
0^
b0 _
#121649
0$
b0 %
0,
b0 -
04
b0 5
0<
b0 =
b1010 H
b1010 P
b1010 X
b1010 `
#121650
1&
b1 '
1.
b1 /
16
b1 7
1>
b1 ?
