ddr_test/0.vcd
$date today $end
$timescale 1 ns $end
$scope module top $end
$scope module slice0 $end
$var integer 1 ! prefetch $end
$var integer 32 " prefetch_time $end
$var integer 1 # config $end
$var integer 1 $ compute $end
$var integer 32 % compute_time $end
$var integer 1 & write_back $end
$var integer 32 ' write_back_time $end
$var integer 10 ( TG_id $end
$upscope $end
$scope module slice1 $end
$var integer 1 ) prefetch $end
$var integer 32 * prefetch_time $end
$var integer 1 + config $end
$var integer 1 , compute $end
$var integer 32 - compute_time $end
$var integer 1 . write_back $end
$var integer 32 / write_back_time $end
$var integer 10 0 TG_id $end
$upscope $end
$scope module slice10 $end
$var integer 1 q prefetch $end
$var integer 32 r prefetch_time $end
$var integer 1 s config $end
$var integer 1 t compute $end
$var integer 32 u compute_time $end
$var integer 1 v write_back $end
$var integer 32 w write_back_time $end
$var integer 10 x TG_id $end
$upscope $end
$scope module slice11 $end
$var integer 1 y prefetch $end
$var integer 32 z prefetch_time $end
$var integer 1 { config $end
$var integer 1 | compute $end
$var integer 32 } compute_time $end
$var integer 1 ~ write_back $end
$var integer 32 !! write_back_time $end
$var integer 10 "! TG_id $end
$upscope $end
$scope module slice12 $end
$var integer 1 #! prefetch $end
$var integer 32 $! prefetch_time $end
$var integer 1 %! config $end
$var integer 1 &! compute $end
$var integer 32 '! compute_time $end
$var integer 1 (! write_back $end
$var integer 32 )! write_back_time $end
$var integer 10 *! TG_id $end
$upscope $end
$scope module slice13 $end
$var integer 1 +! prefetch $end
$var integer 32 ,! prefetch_time $end
$var integer 1 -! config $end
$var integer 1 .! compute $end
$var integer 32 /! compute_time $end
$var integer 1 0! write_back $end
$var integer 32 1! write_back_time $end
$var integer 10 2! TG_id $end
$upscope $end
$scope module slice14 $end
$var integer 1 3! prefetch $end
$var integer 32 4! prefetch_time $end
$var integer 1 5! config $end
$var integer 1 6! compute $end
$var integer 32 7! compute_time $end
$var integer 1 8! write_back $end
$var integer 32 9! write_back_time $end
$var integer 10 :! TG_id $end
$upscope $end
$scope module slice15 $end
$var integer 1 ;! prefetch $end
$var integer 32 <! prefetch_time $end
$var integer 1 =! config $end
$var integer 1 >! compute $end
$var integer 32 ?! compute_time $end
$var integer 1 @! write_back $end
$var integer 32 A! write_back_time $end
$var integer 10 B! TG_id $end
$upscope $end
$scope module slice2 $end
$var integer 1 1 prefetch $end
$var integer 32 2 prefetch_time $end
$var integer 1 3 config $end
$var integer 1 4 compute $end
$var integer 32 5 compute_time $end
$var integer 1 6 write_back $end
$var integer 32 7 write_back_time $end
$var integer 10 8 TG_id $end
$upscope $end
$scope module slice3 $end
$var integer 1 9 prefetch $end
$var integer 32 : prefetch_time $end
$var integer 1 ; config $end
$var integer 1 < compute $end
$var integer 32 = compute_time $end
$var integer 1 > write_back $end
$var integer 32 ? write_back_time $end
$var integer 10 @ TG_id $end
$upscope $end
$scope module slice4 $end
$var integer 1 A prefetch $end
$var integer 32 B prefetch_time $end
$var integer 1 C config $end
$var integer 1 D compute $end
$var integer 32 E compute_time $end
$var integer 1 F write_back $end
$var integer 32 G write_back_time $end
$var integer 10 H TG_id $end
$upscope $end
$scope module slice5 $end
$var integer 1 I prefetch $end
$var integer 32 J prefetch_time $end
$var integer 1 K config $end
$var integer 1 L compute $end
$var integer 32 M compute_time $end
$var integer 1 N write_back $end
$var integer 32 O write_back_time $end
$var integer 10 P TG_id $end
$upscope $end
$scope module slice6 $end
$var integer 1 Q prefetch $end
$var integer 32 R prefetch_time $end
$var integer 1 S config $end
$var integer 1 T compute $end
$var integer 32 U compute_time $end
$var integer 1 V write_back $end
$var integer 32 W write_back_time $end
$var integer 10 X TG_id $end
$upscope $end
$scope module slice7 $end
$var integer 1 Y prefetch $end
$var integer 32 Z prefetch_time $end
$var integer 1 [ config $end
$var integer 1 \ compute $end
$var integer 32 ] compute_time $end
$var integer 1 ^ write_back $end
$var integer 32 _ write_back_time $end
$var integer 10 ` TG_id $end
$upscope $end
$scope module slice8 $end
$var integer 1 a prefetch $end
$var integer 32 b prefetch_time $end
$var integer 1 c config $end
$var integer 1 d compute $end
$var integer 32 e compute_time $end
$var integer 1 f write_back $end
$var integer 32 g write_back_time $end
$var integer 10 h TG_id $end
$upscope $end
$scope module slice9 $end
$var integer 1 i prefetch $end
$var integer 32 j prefetch_time $end
$var integer 1 k config $end
$var integer 1 l compute $end
$var integer 32 m compute_time $end
$var integer 1 n write_back $end
$var integer 32 o write_back_time $end
$var integer 10 p TG_id $end
$upscope $end
$upscope $end
$enddefinitions $end
#0
$dumpvars
0!
b0 "
0#
0$
b0 %
0&
b0 '
b0 (
0)
b0 *
0+
0,
b0 -
0.
b0 /
b0 0
01
b0 2
03
04
b0 5
06
b0 7
b0 8
09
b0 :
0;
0<
b0 =
0>
b0 ?
b0 @
0A
b0 B
0C
0D
b0 E
0F
b0 G
b0 H
0I
b0 J
0K
0L
b0 M
0N
b0 O
b0 P
0Q
b0 R
0S
0T
b0 U
0V
b0 W
b0 X
0Y
b0 Z
0[
0\
b0 ]
0^
b0 _
b0 `
0a
b0 b
0c
0d
b0 e
0f
b0 g
b0 h
0i
b0 j
0k
0l
b0 m
0n
b0 o
b0 p
0q
b0 r
0s
0t
b0 u
0v
b0 w
b0 x
0y
b0 z
0{
0|
b0 }
0~
b0 !!
b0 "!
1#!
b10111000101001 $!
0%!
0&!
b0 '!
0(!
b0 )!
b0 *!
1+!
b10111000101111 ,!
0-!
0.!
b0 /!
00!
b0 1!
b0 2!
13!
b10111000110101 4!
05!
06!
b0 7!
08!
b0 9!
b0 :!
1;!
b10111001000011 <!
0=!
0>!
b0 ?!
0@!
b0 A!
b0 B!
$end
#2
1a
b10111001110111 b
1i
b10111010001011 j
1q
b10111010010001 r
1y
b10111011000101 z
#4
1A
b10111000100101 B
1I
b10111000101011 J
1Q
b10111000110001 R
1Y
b10111000111111 Z
#6
1!
b10111001110011 "
1)
b10111010000111 *
11
b10111010001101 2
19
b10111011000001 :
#11817
0A
b0 B
0#!
b0 $!
#11823
0I
b0 J
0+!
b0 ,!
#11829
0Q
b0 R
03!
b0 4!
#11843
0Y
b0 Z
0;!
b0 <!
#11897
0!
b0 "
0a
b0 b
#11917
0)
b0 *
0i
b0 j
#11923
01
b0 2
0q
b0 r
#11975
09
b0 :
0y
b0 z
#12616
1&!
b10001010000111 '!
1.!
b10001010000111 /!
16!
b10001010000111 7!
1>!
b10001010000111 ?!
#12618
1d
b10001010000111 e
1l
b10001010000111 m
1t
b10001010000111 u
1|
b10001010000111 }
#12620
1D
b10001010000111 E
1L
b10001010000111 M
1T
b10001010000111 U
1\
b10001010000111 ]
#12622
1$
b10001010000111 %
1,
b10001010000111 -
14
b10001010000111 5
1<
b10001010000111 =
#13416
1#!
b10111001111001 $!
1+!
b10111001111001 ,!
13!
b10111001111001 4!
1;!
b10111001111001 <!
#13418
1a
b10111001110111 b
1i
b10111001110111 j
1q
b10111001110111 r
1y
b10111001110111 z
#13420
1A
b10111001111011 B
1I
b10111001111011 J
1Q
b10111001111011 R
1Y
b10111001111011 Z
#13422
1!
b10111001111001 "
1)
b10111001111001 *
11
b10111001111001 2
19
b10111001111001 :
#21455
0&!
b0 '!
0.!
b0 /!
06!
b0 7!
0>!
b0 ?!
#21456
1(!
b100110101101100 )!
10!
b100110110000000 1!
18!
b100110110000011 9!
1@!
b100110110001010 A!
#21457
0d
b0 e
0l
b0 m
0t
b0 u
0|
b0 }
#21458
1f
b100110101001000 g
1n
b100110101001011 o
1v
b100110101001110 w
1~
b100110101010100 !!
#21459
0D
b0 E
0L
b0 M
0T
b0 U
0\
b0 ]
#21460
1F
b100110110111100 G
1N
b100110111000000 O
1V
b100110111000100 W
1^
b100110111001000 _
#21461
0$
b0 %
0,
b0 -
04
b0 5
0<
b0 =
#21462
1&
b100110110011000 '
1.
b100110110011100 /
16
b100110110100000 7
1>
b100110110100100 ?
#25313
0a
b0 b
0i
b0 j
0q
b0 r
0y
b0 z
0#!
b0 $!
0+!
b0 ,!
03!
b0 4!
0;!
b0 <!
#25319
0!
b0 "
0)
b0 *
01
b0 2
09
b0 :
0A
b0 B
0I
b0 J
0Q
b0 R
0Y
b0 Z
#41242
0f
b0 g
#41244
b1 h
#41245
0n
b0 o
#41247
b1 p
#41248
0v
b0 w
#41250
b1 x
#41254
0~
b0 !!
#41255
1d
b10001001111110 e
#41256
1l
b10001001111110 m
b1 "!
#41257
1t
b10001001111110 u
#41258
1|
b10001001111110 }
#41276
0(!
b0 )!
#41278
b1 *!
#41291
1&!
b10001001111110 '!
#41296
00!
b0 1!
#41298
b1 2!
#41299
08!
b0 9!
#41301
b1 :!
#41306
0@!
b0 A!
#41308
1.!
b10001001111110 /!
b1 B!
#41309
16!
b10001001111110 7!
#41310
1>!
b10001001111110 ?!
#41326
0&
b0 '
#41328
b1 (
#41330
0.
b0 /
#41332
b1 0
#41334
06
b0 7
#41336
b1 8
#41338
0>
b0 ?
#41340
b1 @
#41343
1$
b10001001111110 %
#41344
1,
b10001001111110 -
#41345
14
b10001001111110 5
#41346
1<
b10001001111110 =
#41360
0F
b0 G
#41362
b1 H
#41363
1D
b10001001111110 E
#41364
0N
b0 O
#41366
b1 P
#41368
0V
b0 W
#41370
b1 X
#41372
0^
b0 _
#41374
b1 `
#41380
1L
b10001001111110 M
#41381
1T
b10001001111110 U
#41382
1\
b10001001111110 ]
#41760
1#!
b1000010010001100 $!
1+!
b1000010010100000 ,!
13!
b1000010010110110 4!
1;!
b1000010011001010 <!
#41762
1a
b1000011010000110 b
1i
b1000011111110010 j
1q
b1000011111110100 r
1y
b1000011111110110 z
#41764
1A
b1000010101101000 B
1I
b1000010101101100 J
1Q
b1000010111111000 R
1Y
b1000010111111010 Z
#41766
1!
b1000011111110100 "
1)
b1000100011101110 *
11
b1000100110101010 2
19
b1000100110101100 :
#50085
0d
b0 e
#50086
0l
b0 m
1f
b1010001011000110 g
#50087
0t
b0 u
1n
b1010001111100011 o
#50088
0|
b0 }
1v
b1010001111100101 w
#50089
1~
b1010001111100111 !!
#50121
0&!
b0 '!
#50122
1(!
b1001110100100001 )!
#50138
0.!
b0 /!
#50139
06!
b0 7!
10!
b1001110100010011 1!
#50140
0>!
b0 ?!
18!
b1001110100010101 9!
#50141
1@!
b1001110100010111 A!
#50173
0$
b0 %
#50174
0,
b0 -
1&
b1010001110011000 '
#50175
04
b0 5
1.
b1010001111101111 /
#50176
0<
b0 =
16
b1010010000010011 7
#50177
1>
b1010010000010110 ?
#50193
0D
b0 E
#50194
1F
b1010000011101101 G
#50210
0L
b0 M
#50211
0T
b0 U
1N
b1010000011011111 O
#50212
0\
b0 ]
1V
b1010000110101010 W
#50213
1^
b1010000110101100 _
#75692
0#!
b0 $!
#75712
0+!
b0 ,!
#75734
03!
b0 4!
#75754
0;!
b0 <!
#75916
0A
b0 B
#75920
0I
b0 J
#76060
0Q
b0 R
#76062
0Y
b0 Z
#76200
0a
b0 b
#76564
0i
b0 j
#76566
0q
b0 r
#76568
0y
b0 z
#76570
0!
b0 "
#76820
0)
b0 *
#77008
01
b0 2
#77010
09
b0 :
#90347
0(!
b0 )!
#90349
b10 *!
#90350
00!
b0 1!
#90352
b10 2!
#90353
08!
b0 9!
#90355
b10 :!
#90356
0@!
b0 A!
#90358
b10 B!
#90363
1&!
b10001001111110 '!
#90364
1.!
b10001001111110 /!
#90365
16!
b10001001111110 7!
#90366
1>!
b10001001111110 ?!
#91391
0F
b0 G
#91393
b10 H
#91394
0N
b0 O
#91395
1D
b10001001111110 E
#91396
b10 P
#91412
1L
b10001001111110 M
#91598
0V
b0 W
#91600
b10 X
#91601
0^
b0 _
#91603
b10 `
#91605
1T
b10001001111110 U
#91606
1\
b10001001111110 ]
#91756
0f
b0 g
#91758
b10 h
#91767
1d
b10001001111110 e
#92042
0n
b0 o
#92044
b10 p
#92045
0v
b0 w
#92047
b10 x
#92048
0~
b0 !!
#92050
b10 "!
#92054
0&
b0 '
#92056
1l
b10001001111110 m
b10 (
#92057
1t
b10001001111110 u
#92058
1|
b10001001111110 }
#92063
1$
b10001001111110 %
#92142
0.
b0 /
#92144
b10 0
#92160
1,
b10001001111110 -
#92179
06
b0 7
#92181
b10 8
#92183
0>
b0 ?
#92185
b10 @
#92193
14
b10001001111110 5
#92194
1<
b10001001111110 =
#92596
1#!
b1000001011001010 $!
1+!
b1000001011101010 ,!
13!
b1000001100000000 4!
1;!
b1000001100010100 <!
#92598
1a
b1000010111000000 b
1i
b1000011010110110 j
1q
b1000011010111010 r
1y
b1000011010111100 z
#92600
1A
b1000001111111010 B
1I
b1000010001000010 J
1Q
b1000010001000110 R
1Y
b1000010001001000 Z
#92602
1!
b1000011110110000 "
1)
b1000011110110100 *
11
b1000011111011100 2
19
b1000100001011000 :
#99193
0&!
b0 '!
#99194
0.!
b0 /!
1(!
b1010001011110001 )!
#99195
06!
b0 7!
10!
b1010001011110011 1!
#99196
0>!
b0 ?!
18!
b1010010000101101 9!
#99197
1@!
b1010010000101111 A!
#100225
0D
b0 E
#100226
1F
b1010001011101100 G
#100242
0L
b0 M
#100243
1N
b1010001110101010 O
#100435
0T
b0 U
#100436
0\
b0 ]
1V
b1010001011101100 W
#100437
1^
b1010001011101110 _
#100597
0d
b0 e
#100598
1f
b1010010000010001 g
#100886
0l
b0 m
#100887
0t
b0 u
1n
b1010001101110111 o
#100888
0|
b0 }
1v
b1010001101111001 w
#100889
1~
b1010001101111011 !!
#100893
0$
b0 %
#100894
1&
b1010001111100010 '
#100990
0,
b0 -
#100991
1.
b1010001110000100 /
#101023
04
b0 5
#101024
0<
b0 =
16
b1010001101100110 7
#101025
1>
b1010001101101000 ?
#126078
0#!
b0 $!
#126110
0+!
b0 ,!
#126132
03!
b0 4!
#126152
0;!
b0 <!
#126386
0A
b0 B
#126458
0I
b0 J
#126462
0Q
b0 R
#126464
0Y
b0 Z
#126838
0a
b0 b
#127084
0i
b0 j
#127088
0q
b0 r
#127090
0y
b0 z
#127338
0!
b0 "
#127342
0)
b0 *
#127382
01
b0 2
#127506
09
b0 :
#140907
0(!
b0 )!
#140909
b11 *!
#140910
00!
b0 1!
#140912
b11 2!
#140923
1&!
b10001001111110 '!
#140924
1.!
b10001001111110 /!
#141225
08!
b0 9!
#141227
b11 :!
#141228
0@!
b0 A!
#141229
16!
b10001001111110 7!
#141230
b11 B!
#141246
1>!
b10001001111110 ?!
#141934
0F
b0 G
#141936
b11 H
#141939
1D
b10001001111110 E
#142141
0N
b0 O
#142143
b11 P
#142144
0V
b0 W
#142146
b11 X
#142147
0^
b0 _
#142148
1L
b10001001111110 M
#142149
1T
b10001001111110 U
b11 `
#142150
1\
b10001001111110 ]
#142599
0f
b0 g
#142601
b11 h
#142615
1d
b10001001111110 e
#142734
0n
b0 o
#142736
b11 p
#142737
0v
b0 w
#142739
b11 x
#142740
0~
b0 !!
#142742
b11 "!
#142744
1l
b10001001111110 m
#142745
1t
b10001001111110 u
#142746
1|
b10001001111110 }
#142848
0&
b0 '
#142850
b11 (
#142851
0.
b0 /
#142853
b11 0
#142854
06
b0 7
#142856
b11 8
#142857
0>
b0 ?
#142859
b11 @
#142863
1$
b10001001111110 %
#142864
1,
b10001001111110 -
#142865
14
b10001001111110 5
#142866
1<
b10001001111110 =
#143350
1#!
b111 $!
1+!
b111 ,!
13!
b111 4!
1;!
b1010010111000 <!
#143352
1a
b111 b
1i
b111 j
1q
b111 r
1y
b111 z
#143354
1A
b111 B
1I
b111 J
1Q
b111 R
1Y
b111 Z
#143356
1!
b111 "
1)
b111 *
11
b111 2
19
b111 :
#143357
0#!
b0 $!
0+!
b0 ,!
03!
b0 4!
#143359
0a
b0 b
0i
b0 j
0q
b0 r
0y
b0 z
#143361
0A
b0 B
0I
b0 J
0Q
b0 R
0Y
b0 Z
#143363
0!
b0 "
0)
b0 *
01
b0 2
09
b0 :
#148654
0;!
b0 <!
#149753
0&!
b0 '!
#149754
0.!
b0 /!
1(!
b10001111011011 )!
#149755
10!
b10001111011101 1!
#150059
06!
b0 7!
#150060
18!
b10110101110111 9!
#150076
0>!
b0 ?!
#150077
1@!
b10110101101001 A!
#150769
0D
b0 E
#150770
1F
b11010101000000 G
#150978
0L
b0 M
#150979
0T
b0 U
1N
b11010111001011 O
#150980
0\
b0 ]
1V
b11010111001101 W
#150981
1^
b11010111001111 _
#151445
0d
b0 e
#151446
1f
b11011001111110 g
#151574
0l
b0 m
#151575
0t
b0 u
1n
b11011010010110 o
#151576
0|
b0 }
1v
b11011010011000 w
#151577
1~
b11011010011101 !!
#151693
0$
b0 %
#151694
0,
b0 -
1&
b11011000101001 '
#151695
04
b0 5
1.
b11011000111101 /
#151696
0<
b0 =
16
b11011001010000 7
#151697
1>
b11011001010011 ?
#158933
0(!
b0 )!
#158935
b100 *!
#158936
00!
b0 1!
#158938
b100 2!
#158939
1&!
b10001001111110 '!
#158940
1.!
b10001001111110 /!
#161699
08!
b0 9!
#161701
b100 :!
#161702
0@!
b0 A!
#161704
b100 B!
#161709
16!
b10001001111110 7!
#161710
1>!
b10001001111110 ?!
#164402
0F
b0 G
#164404
b100 H
#164419
1D
b10001001111110 E
#164750
0N
b0 O
#164752
b100 P
#164753
0V
b0 W
#164755
b100 X
#164756
1L
b10001001111110 M
0^
b0 _
#164757
1T
b10001001111110 U
#164758
b100 `
#164774
1\
b10001001111110 ]
#165396
0f
b0 g
#165398
b100 h
#165399
1d
b10001001111110 e
#165549
0n
b0 o
#165551
b100 p
#165552
0v
b0 w
#165554
b100 x
#165558
0~
b0 !!
#165559
0&
b0 '
#165560
1l
b10001001111110 m
b100 "!
#165561
1t
b10001001111110 u
b100 (
#165562
1|
b10001001111110 }
#165567
1$
b10001001111110 %
#165580
0.
b0 /
#165582
b100 0
#165584
1,
b10001001111110 -
#165600
06
b0 7
#165602
b100 8
#165604
0>
b0 ?
#165606
b100 @
#165617
14
b10001001111110 5
#165618
1<
b10001001111110 =
#166004
1#!
b111 $!
1+!
b111 ,!
13!
b111 4!
1;!
b1010011011100 <!
#166006
1a
b111 b
1i
b111 j
1q
b111 r
1y
b111 z
#166008
1A
b111 B
1I
b111 J
1Q
b111 R
1Y
b111 Z
#166010
1!
b111 "
1)
b111 *
11
b111 2
19
b111 :
#166011
0#!
b0 $!
0+!
b0 ,!
03!
b0 4!
#166013
0a
b0 b
0i
b0 j
0q
b0 r
0y
b0 z
#166015
0A
b0 B
0I
b0 J
0Q
b0 R
0Y
b0 Z
#166017
0!
b0 "
0)
b0 *
01
b0 2
09
b0 :
#167769
0&!
b0 '!
#167770
0.!
b0 /!
1(!
b1 )!
#167771
10!
b1 1!
0(!
b0 )!
#167772
00!
b0 1!
#167773
b101 *!
#167774
b101 2!
#170539
06!
b0 7!
#170540
0>!
b0 ?!
18!
b1 9!
#170541
1@!
b11101001100 A!
08!
b0 9!
#170543
b101 :!
#171344
0;!
b0 <!
#172409
0@!
b0 A!
#172411
b101 B!
#172810
1&!
b10001001111110 '!
1.!
b10001001111110 /!
16!
b10001001111110 7!
1>!
b10001001111110 ?!
#173249
0D
b0 E
#173250
1F
b1 G
#173251
0F
b0 G
#173253
b101 H
#173586
0L
b0 M
#173587
0T
b0 U
1N
b1 O
#173588
1V
b1 W
0N
b0 O
#173589
0V
b0 W
#173590
b101 P
#173591
b101 X
#173604
0\
b0 ]
#173605
1^
b1 _
#173606
0^
b0 _
#173608
b101 `
#174200
1D
b10001001111110 E
#174229
0d
b0 e
#174230
1f
b1 g
#174231
0f
b0 g
#174233
b101 h
#174390
0l
b0 m
#174391
0t
b0 u
1n
b1 o
#174392
0|
b0 }
1v
b1 w
0n
b0 o
#174393
1~
b1 !!
0v
b0 w
#174394
0~
b0 !!
b101 p
#174395
b101 x
#174396
b101 "!
#174397
0$
b0 %
#174398
1&
b1 '
#174399
0&
b0 '
#174401
b101 (
#174414
0,
b0 -
#174415
1.
b1 /
#174416
0.
b0 /
#174418
b101 0
#174447
04
b0 5
#174448
0<
b0 =
16
b1 7
#174449
1>
b1 ?
06
b0 7
#174450
0>
b0 ?
#174451
b101 8
#174452
b101 @
#174537
1L
b10001001111110 M
#174538
1T
b10001001111110 U
#174555
1\
b10001001111110 ]
#174822
1#!
b111 $!
1+!
b111 ,!
13!
b111 4!
1;!
b1010000110100 <!
#174826
1A
b111 B
1I
b111 J
1Q
b111 R
1Y
b111 Z
#174829
0#!
b0 $!
0+!
b0 ,!
03!
b0 4!
#174833
0A
b0 B
0I
b0 J
0Q
b0 R
0Y
b0 Z
#175180
1d
b10001001111110 e
#175268
1a
b111 b
#175275
0a
b0 b
#175341
1l
b10001001111110 m
#175342
1t
b10001001111110 u
#175343
1|
b10001001111110 }
#175348
1$
b10001001111110 %
#175365
1,
b10001001111110 -
#175398
14
b10001001111110 5
#175399
1<
b10001001111110 =
#175429
1i
b111 j
#175430
1q
b111 r
#175431
1y
b111 z
#175436
1!
b111 "
0i
b0 j
#175437
0q
b0 r
#175438
0y
b0 z
#175443
0!
b0 "
#175453
1)
b111 *
#175460
0)
b0 *
#175486
11
b111 2
#175487
19
b111 :
#175493
01
b0 2
#175494
09
b0 :
#179994
0;!
b0 <!
#181640
0&!
b0 '!
0.!
b0 /!
06!
b0 7!
0>!
b0 ?!
#181641
1(!
b1 )!
10!
b1 1!
18!
b1 9!
1@!
b10000101001 A!
#181642
0(!
b0 )!
00!
b0 1!
08!
b0 9!
#181644
b110 *!
b110 2!
b110 :!
#182591
1&!
b10001001111110 '!
1.!
b10001001111110 /!
16!
b10001001111110 7!
#182706
0@!
b0 A!
#182708
b110 B!
#182718
1>!
b10001001111110 ?!
#183030
0D
b0 E
#183031
1F
b1 G
#183032
0F
b0 G
#183034
b110 H
#183367
0L
b0 M
#183368
0T
b0 U
1N
b1 O
#183369
1V
b1 W
0N
b0 O
#183370
0V
b0 W
#183371
b110 P
#183372
b110 X
#183385
0\
b0 ]
#183386
1^
b1 _
#183387
0^
b0 _
#183389
b110 `
#183981
1D
b10001001111110 E
#184010
0d
b0 e
#184011
1f
b1 g
#184012
0f
b0 g
#184014
b110 h
#184171
0l
b0 m
#184172
0t
b0 u
1n
b1 o
#184173
0|
b0 }
1v
b1 w
0n
b0 o
#184174
1~
b1 !!
0v
b0 w
#184175
0~
b0 !!
b110 p
#184176
b110 x
#184177
b110 "!
#184178
0$
b0 %
#184179
1&
b1 '
#184180
0&
b0 '
#184182
b110 (
#184195
0,
b0 -
#184196
1.
b1 /
#184197
0.
b0 /
#184199
b110 0
#184228
04
b0 5
#184229
0<
b0 =
16
b1 7
#184230
1>
b1 ?
06
b0 7
#184231
0>
b0 ?
#184232
b110 8
#184233
b110 @
#184318
1L
b10001001111110 M
#184319
1T
b10001001111110 U
#184336
1\
b10001001111110 ]
#184592
1#!
b111 $!
1+!
b111 ,!
13!
b111 4!
1;!
b1001100011110 <!
#184596
1A
b111 B
1I
b111 J
1Q
b111 R
1Y
b111 Z
#184599
0#!
b0 $!
0+!
b0 ,!
03!
b0 4!
#184603
0A
b0 B
0I
b0 J
0Q
b0 R
0Y
b0 Z
#184961
1d
b10001001111110 e
#185049
1a
b111 b
#185056
0a
b0 b
#185122
1l
b10001001111110 m
#185123
1t
b10001001111110 u
#185124
1|
b10001001111110 }
#185129
1$
b10001001111110 %
#185146
1,
b10001001111110 -
#185179
14
b10001001111110 5
#185180
1<
b10001001111110 =
#185210
1i
b111 j
#185211
1q
b111 r
#185212
1y
b111 z
#185217
1!
b111 "
0i
b0 j
#185218
0q
b0 r
#185219
0y
b0 z
#185224
0!
b0 "
#185234
1)
b111 *
#185241
0)
b0 *
#185267
11
b111 2
#185268
19
b111 :
#185274
01
b0 2
#185275
09
b0 :
#189486
0;!
b0 <!
#191421
0&!
b0 '!
0.!
b0 /!
06!
b0 7!
#191422
1(!
b1 )!
10!
b1 1!
18!
b1 9!
#191423
0(!
b0 )!
00!
b0 1!
08!
b0 9!
#191425
b111 *!
b111 2!
b111 :!
#191548
0>!
b0 ?!
#191549
1@!
b10010100001 A!
#192372
1&!
b10001001111110 '!
1.!
b10001001111110 /!
16!
b10001001111110 7!
#192734
0@!
b0 A!
#192736
b111 B!
#192750
1>!
b10001001111110 ?!
#192811
0D
b0 E
#192812
1F
b1 G
#192813
0F
b0 G
#192815
b111 H
#193148
0L
b0 M
#193149
0T
b0 U
1N
b1 O
#193150
1V
b1 W
0N
b0 O
#193151
0V
b0 W
#193152
b111 P
#193153
b111 X
#193166
0\
b0 ]
#193167
1^
b1 _
#193168
0^
b0 _
#193170
b111 `
#193762
1D
b10001001111110 E
#193791
0d
b0 e
#193792
1f
b1 g
#193793
0f
b0 g
#193795
b111 h
#193952
0l
b0 m
#193953
0t
b0 u
1n
b1 o
#193954
0|
b0 }
1v
b1 w
0n
b0 o
#193955
1~
b1 !!
0v
b0 w
#193956
0~
b0 !!
b111 p
#193957
b111 x
#193958
b111 "!
#193959
0$
b0 %
#193960
1&
b1 '
#193961
0&
b0 '
#193963
b111 (
#193976
0,
b0 -
#193977
1.
b1 /
#193978
0.
b0 /
#193980
b111 0
#194009
04
b0 5
#194010
0<
b0 =
16
b1 7
#194011
1>
b1 ?
06
b0 7
#194012
0>
b0 ?
#194013
b111 8
#194014
b111 @
#194099
1L
b10001001111110 M
#194100
1T
b10001001111110 U
#194117
1\
b10001001111110 ]
#194372
1#!
b10111111110001 $!
1+!
b11000000000011 ,!
13!
b11000000100001 4!
1;!
b11000000110011 <!
#194376
1A
b10111111101101 B
1I
b10111111111111 J
1Q
b11000000011101 R
1Y
b11000000101111 Z
#194742
1d
b10001001111110 e
#194830
1a
b11011000001001 b
#194903
1l
b10001001111110 m
#194904
1t
b10001001111110 u
#194905
1|
b10001001111110 }
#194910
1$
b10001001111110 %
#194927
1,
b10001001111110 -
#194960
14
b10001001111110 5
#194961
1<
b10001001111110 =
#194991
1i
b11011101001010 j
#194992
1q
b11011101011001 r
#194993
1y
b11011101101000 z
#194998
1!
b11010101100001 "
#195015
1)
b11011100110010 *
#195048
11
b11011100100001 2
#195049
19
b11011100110000 :
#201202
0&!
b0 '!
0.!
b0 /!
06!
b0 7!
#201203
1(!
b1 )!
10!
b1 1!
18!
b1 9!
#201204
0(!
b0 )!
00!
b0 1!
08!
b0 9!
#201206
b1000 *!
b1000 2!
b1000 :!
#201580
0>!
b0 ?!
#201581
1@!
b1111001100011 A!
#202592
0D
b0 E
#202593
1F
b1 G
#202594
0F
b0 G
#202596
b1000 H
#202929
0L
b0 M
#202930
0T
b0 U
1N
b1 O
#202931
1V
b1 W
0N
b0 O
#202932
0V
b0 W
#202933
b1000 P
#202934
b1000 X
#202947
0\
b0 ]
#202948
1^
b1 _
#202949
0^
b0 _
#202951
b1000 `
#203572
0d
b0 e
#203573
1f
b1 g
#203574
0f
b0 g
#203576
b1000 h
#203733
0l
b0 m
#203734
0t
b0 u
1n
b1 o
#203735
0|
b0 }
1v
b1 w
0n
b0 o
#203736
1~
b1 !!
0v
b0 w
#203737
0~
b0 !!
b1000 p
#203738
b1000 x
#203739
b1000 "!
#203740
0$
b0 %
#203741
1&
b1 '
#203742
0&
b0 '
#203744
b1000 (
#203757
0,
b0 -
#203758
1.
b1 /
#203759
0.
b0 /
#203761
b1000 0
#203790
04
b0 5
#203791
0<
b0 =
16
b1 7
#203792
1>
b1 ?
06
b0 7
#203793
0>
b0 ?
#203794
b1000 8
#203795
b1000 @
#206645
0A
b0 B
0#!
b0 $!
#206663
0I
b0 J
0+!
b0 ,!
#206693
0Q
b0 R
03!
b0 4!
#206711
0Y
b0 Z
0;!
b0 <!
#208663
0!
b0 "
0a
b0 b
#209145
0)
b0 *
0i
b0 j
#209161
01
b0 2
0q
b0 r
#209177
09
b0 :
0y
b0 z
#209360
0@!
b0 A!
#209362
b1000 B!
#210314
1&!
b10001001111110 '!
1.!
b10001001111110 /!
16!
b10001001111110 7!
1>!
b10001001111110 ?!
#210316
1d
b10001001111110 e
1l
b10001001111110 m
1t
b10001001111110 u
1|
b10001001111110 }
#210318
1D
b10001001111110 E
1L
b10001001111110 M
1T
b10001001111110 U
1\
b10001001111110 ]
#210352
1$
b10001001111110 %
1,
b10001001111110 -
14
b10001001111110 5
1<
b10001001111110 =
#210826
1#!
b10001100000001 $!
1+!
b10001100000001 ,!
13!
b10001100000001 4!
1;!
b10001100000001 <!
#210828
1a
b10001011111111 b
1i
b10001011111111 j
1q
b10001011111111 r
1y
b10001011111111 z
#210830
1A
b10001100100001 B
1I
b10001100100001 J
1Q
b10001100100001 R
1Y
b10001100100001 Z
#210832
1!
b10001100011111 "
1)
b10001100011111 *
11
b10001100011111 2
19
b10001100011111 :
#219144
0&!
b0 '!
0.!
b0 /!
06!
b0 7!
0>!
b0 ?!
#219145
1(!
b11110111110000 )!
10!
b11111000000001 1!
18!
b11111000010010 9!
1@!
b11111000100011 A!
#219146
0d
b0 e
0l
b0 m
0t
b0 u
0|
b0 }
#219147
1f
b11110110100100 g
1n
b11110110111000 o
1v
b11110111001100 w
1~
b11110111011101 !!
#219148
0D
b0 E
0L
b0 M
0T
b0 U
0\
b0 ]
#219149
1F
b11111001110100 G
1N
b11111010000110 O
1V
b11111010011010 W
1^
b11111010101110 _
#219182
0$
b0 %
0,
b0 -
04
b0 5
0<
b0 =
#219183
1&
b11111000001110 '
1.
b11111000011111 /
16
b11111000110000 7
1>
b11111001000001 ?
#219787
0a
b0 b
0i
b0 j
0q
b0 r
0y
b0 z
0#!
b0 $!
0+!
b0 ,!
03!
b0 4!
0;!
b0 <!
#219823
0!
b0 "
0)
b0 *
01
b0 2
09
b0 :
0A
b0 B
0I
b0 J
0Q
b0 R
0Y
b0 Z
#234927
0f
b0 g
#234929
b1001 h
#234935
1d
b10001001111110 e
#234947
0n
b0 o
