conv3x3_6layers/conv3x3_3.vcd
$date today $end
$timescale 1 ns $end
$scope module top $end
$scope module slice0 $end
$var integer 1 ! prefetch $end
$var integer 32 " prefetch_time $end
$var integer 1 # config $end
$var integer 1 $ compute $end
$var integer 32 % compute_time $end
$var integer 1 & write_back $end
$var integer 32 ' write_back_time $end
$var integer 10 ( TG_id $end
$upscope $end
$scope module slice1 $end
$var integer 1 ) prefetch $end
$var integer 32 * prefetch_time $end
$var integer 1 + config $end
$var integer 1 , compute $end
$var integer 32 - compute_time $end
$var integer 1 . write_back $end
$var integer 32 / write_back_time $end
$var integer 10 0 TG_id $end
$upscope $end
$scope module slice10 $end
$var integer 1 q prefetch $end
$var integer 32 r prefetch_time $end
$var integer 1 s config $end
$var integer 1 t compute $end
$var integer 32 u compute_time $end
$var integer 1 v write_back $end
$var integer 32 w write_back_time $end
$var integer 10 x TG_id $end
$upscope $end
$scope module slice11 $end
$var integer 1 y prefetch $end
$var integer 32 z prefetch_time $end
$var integer 1 { config $end
$var integer 1 | compute $end
$var integer 32 } compute_time $end
$var integer 1 ~ write_back $end
$var integer 32 !! write_back_time $end
$var integer 10 "! TG_id $end
$upscope $end
$scope module slice12 $end
$var integer 1 #! prefetch $end
$var integer 32 $! prefetch_time $end
$var integer 1 %! config $end
$var integer 1 &! compute $end
$var integer 32 '! compute_time $end
$var integer 1 (! write_back $end
$var integer 32 )! write_back_time $end
$var integer 10 *! TG_id $end
$upscope $end
$scope module slice13 $end
$var integer 1 +! prefetch $end
$var integer 32 ,! prefetch_time $end
$var integer 1 -! config $end
$var integer 1 .! compute $end
$var integer 32 /! compute_time $end
$var integer 1 0! write_back $end
$var integer 32 1! write_back_time $end
$var integer 10 2! TG_id $end
$upscope $end
$scope module slice14 $end
$var integer 1 3! prefetch $end
$var integer 32 4! prefetch_time $end
$var integer 1 5! config $end
$var integer 1 6! compute $end
$var integer 32 7! compute_time $end
$var integer 1 8! write_back $end
$var integer 32 9! write_back_time $end
$var integer 10 :! TG_id $end
$upscope $end
$scope module slice15 $end
$var integer 1 ;! prefetch $end
$var integer 32 <! prefetch_time $end
$var integer 1 =! config $end
$var integer 1 >! compute $end
$var integer 32 ?! compute_time $end
$var integer 1 @! write_back $end
$var integer 32 A! write_back_time $end
$var integer 10 B! TG_id $end
$upscope $end
$scope module slice2 $end
$var integer 1 1 prefetch $end
$var integer 32 2 prefetch_time $end
$var integer 1 3 config $end
$var integer 1 4 compute $end
$var integer 32 5 compute_time $end
$var integer 1 6 write_back $end
$var integer 32 7 write_back_time $end
$var integer 10 8 TG_id $end
$upscope $end
$scope module slice3 $end
$var integer 1 9 prefetch $end
$var integer 32 : prefetch_time $end
$var integer 1 ; config $end
$var integer 1 < compute $end
$var integer 32 = compute_time $end
$var integer 1 > write_back $end
$var integer 32 ? write_back_time $end
$var integer 10 @ TG_id $end
$upscope $end
$scope module slice4 $end
$var integer 1 A prefetch $end
$var integer 32 B prefetch_time $end
$var integer 1 C config $end
$var integer 1 D compute $end
$var integer 32 E compute_time $end
$var integer 1 F write_back $end
$var integer 32 G write_back_time $end
$var integer 10 H TG_id $end
$upscope $end
$scope module slice5 $end
$var integer 1 I prefetch $end
$var integer 32 J prefetch_time $end
$var integer 1 K config $end
$var integer 1 L compute $end
$var integer 32 M compute_time $end
$var integer 1 N write_back $end
$var integer 32 O write_back_time $end
$var integer 10 P TG_id $end
$upscope $end
$scope module slice6 $end
$var integer 1 Q prefetch $end
$var integer 32 R prefetch_time $end
$var integer 1 S config $end
$var integer 1 T compute $end
$var integer 32 U compute_time $end
$var integer 1 V write_back $end
$var integer 32 W write_back_time $end
$var integer 10 X TG_id $end
$upscope $end
$scope module slice7 $end
$var integer 1 Y prefetch $end
$var integer 32 Z prefetch_time $end
$var integer 1 [ config $end
$var integer 1 \ compute $end
$var integer 32 ] compute_time $end
$var integer 1 ^ write_back $end
$var integer 32 _ write_back_time $end
$var integer 10 ` TG_id $end
$upscope $end
$scope module slice8 $end
$var integer 1 a prefetch $end
$var integer 32 b prefetch_time $end
$var integer 1 c config $end
$var integer 1 d compute $end
$var integer 32 e compute_time $end
$var integer 1 f write_back $end
$var integer 32 g write_back_time $end
$var integer 10 h TG_id $end
$upscope $end
$scope module slice9 $end
$var integer 1 i prefetch $end
$var integer 32 j prefetch_time $end
$var integer 1 k config $end
$var integer 1 l compute $end
$var integer 32 m compute_time $end
$var integer 1 n write_back $end
$var integer 32 o write_back_time $end
$var integer 10 p TG_id $end
$upscope $end
$upscope $end
$enddefinitions $end
#0
$dumpvars
0!
b0 "
0#
0$
b0 %
0&
b0 '
b0 (
0)
b0 *
0+
0,
b0 -
0.
b0 /
b0 0
01
b0 2
03
04
b0 5
06
b0 7
b0 8
09
b0 :
0;
0<
b0 =
0>
b0 ?
b0 @
0A
b0 B
0C
0D
b0 E
0F
b0 G
b0 H
0I
b0 J
0K
0L
b0 M
0N
b0 O
b0 P
0Q
b0 R
0S
0T
b0 U
0V
b0 W
b0 X
0Y
b0 Z
0[
0\
b0 ]
0^
b0 _
b0 `
0a
b0 b
0c
0d
b0 e
0f
b0 g
b0 h
0i
b0 j
0k
0l
b0 m
0n
b0 o
b0 p
0q
b0 r
0s
0t
b0 u
0v
b0 w
b0 x
0y
b0 z
0{
0|
b0 }
0~
b0 !!
b0 "!
1#!
b110000110111001 $!
0%!
0&!
b0 '!
0(!
b0 )!
b0 *!
1+!
b110000111001001 ,!
0-!
0.!
b0 /!
00!
b0 1!
b0 2!
13!
b110000111011001 4!
05!
06!
b0 7!
08!
b0 9!
b0 :!
1;!
b110000111101001 <!
0=!
0>!
b0 ?!
0@!
b0 A!
b0 B!
$end
#2
1a
b110001010011111 b
1i
b110001010101111 j
1q
b110001010111111 r
1y
b110001011001111 z
#4
1A
b110001001001111 B
1I
b110001001011111 J
1Q
b110001001101111 R
1Y
b110001001111111 Z
#6
1!
b110001011101001 "
1)
b110001011111001 *
11
b110001100001001 2
19
b110001100011001 :
#25017
0#!
b0 $!
#25033
0+!
b0 ,!
#25049
03!
b0 4!
#25065
0;!
b0 <!
#25171
0A
b0 B
#25187
0I
b0 J
#25203
0Q
b0 R
#25219
0Y
b0 Z
#25249
0a
b0 b
#25265
0i
b0 j
#25281
0q
b0 r
#25297
0y
b0 z
#25327
0!
b0 "
#25343
0)
b0 *
#25359
01
b0 2
#25375
09
b0 :
#26132
1&!
b10001111011101 '!
1.!
b10001111011101 /!
16!
b10001111011101 7!
1>!
b10001111011101 ?!
#26134
1d
b10001111011101 e
1l
b10001111011101 m
1t
b10001111011101 u
1|
b10001111011101 }
#26136
1D
b10001111011101 E
1L
b10001111011101 M
1T
b10001111011101 U
1\
b10001111011101 ]
#26138
1$
b10001111011101 %
1,
b10001111011101 -
14
b10001111011101 5
1<
b10001111011101 =
#26612
1#!
b110000111111101 $!
1+!
b110001000001101 ,!
13!
b110001000011101 4!
1;!
b110001000101101 <!
#26614
1a
b110010000011001 b
1i
b110010000011111 j
1q
b110010000100101 r
1y
b110010001011111 z
#26616
1A
b110001111001001 B
1I
b110001111001111 J
1Q
b110001111010101 R
1Y
b110010000001111 Z
#26618
1!
b110010001100011 "
1)
b110010001101001 *
11
b110010001101111 2
19
b110010010101001 :
#35313
0&!
b0 '!
0.!
b0 /!
06!
b0 7!
0>!
b0 ?!
#35314
1(!
b1 )!
10!
b1 1!
18!
b1 9!
1@!
b1 A!
#35315
0d
b0 e
0l
b0 m
0t
b0 u
0|
b0 }
0(!
b0 )!
00!
b0 1!
08!
b0 9!
0@!
b0 A!
#35316
1f
b1 g
1n
b1 o
1v
b1 w
1~
b1 !!
#35317
0D
b0 E
0L
b0 M
0T
b0 U
0\
b0 ]
0f
b0 g
0n
b0 o
0v
b0 w
0~
b0 !!
b1 *!
b1 2!
b1 :!
b1 B!
#35318
1F
b1 G
1N
b1 O
1V
b1 W
1^
b1 _
#35319
0$
b0 %
0,
b0 -
04
b0 5
0<
b0 =
0F
b0 G
0N
b0 O
0V
b0 W
0^
b0 _
b1 h
b1 p
b1 x
b1 "!
#35320
1&
b1 '
1.
b1 /
16
b1 7
1>
b1 ?
#35321
0&
b0 '
0.
b0 /
06
b0 7
0>
b0 ?
b1 H
b1 P
b1 X
b1 `
#35323
b1 (
b1 0
b1 8
b1 @
#51697
0#!
b0 $!
#51713
0+!
b0 ,!
#51729
03!
b0 4!
#51745
0;!
b0 <!
#52161
0A
b0 B
#52167
0I
b0 J
#52173
0Q
b0 R
#52231
0Y
b0 Z
#52239
0a
b0 b
#52245
0i
b0 j
#52251
0q
b0 r
#52309
0y
b0 z
#52317
0!
b0 "
#52323
0)
b0 *
#52329
01
b0 2
#52387
09
b0 :
#53014
1&!
b10001111011101 '!
1.!
b10001111011101 /!
16!
b10001111011101 7!
1>!
b10001111011101 ?!
#53016
1d
b10001111011101 e
1l
b10001111011101 m
1t
b10001111011101 u
1|
b10001111011101 }
#53018
1D
b10001111011101 E
1L
b10001111011101 M
1T
b10001111011101 U
1\
b10001111011101 ]
#53020
1$
b10001111011101 %
1,
b10001111011101 -
14
b10001111011101 5
1<
b10001111011101 =
#53494
1#!
b110001000010111 $!
1+!
b110001000100111 ,!
13!
b110001000110111 4!
1;!
b110001001000111 <!
#53496
1a
b110001011111101 b
1i
b110001100001101 j
1q
b110001100011101 r
1y
b110001100101101 z
#53498
1A
b110001010101101 B
1I
b110001010111101 J
1Q
b110001011001101 R
1Y
b110001011011101 Z
#53500
1!
b110001101000111 "
1)
b110001101010111 *
11
b110001101100111 2
19
b110001101110111 :
#62195
0&!
b0 '!
0.!
b0 /!
06!
b0 7!
0>!
b0 ?!
#62196
1(!
b1 )!
10!
b1 1!
18!
b1 9!
1@!
b1 A!
#62197
0d
b0 e
0l
b0 m
0t
b0 u
0|
b0 }
0(!
b0 )!
00!
b0 1!
08!
b0 9!
0@!
b0 A!
#62198
1f
b1 g
1n
b1 o
1v
b1 w
1~
b1 !!
#62199
0D
b0 E
0L
b0 M
0T
b0 U
0\
b0 ]
0f
b0 g
0n
b0 o
0v
b0 w
0~
b0 !!
b10 *!
b10 2!
b10 :!
b10 B!
#62200
1F
b1 G
1N
b1 O
1V
b1 W
1^
b1 _
#62201
0$
b0 %
0,
b0 -
04
b0 5
0<
b0 =
0F
b0 G
0N
b0 O
0V
b0 W
0^
b0 _
b10 h
b10 p
b10 x
b10 "!
#62202
1&
b1 '
1.
b1 /
16
b1 7
1>
b1 ?
#62203
0&
b0 '
0.
b0 /
06
b0 7
0>
b0 ?
b10 H
b10 P
b10 X
b10 `
#62205
b10 (
b10 0
b10 8
b10 @
#78605
0#!
b0 $!
#78621
0+!
b0 ,!
#78637
03!
b0 4!
#78653
0;!
b0 <!
#78759
0A
b0 B
#78775
0I
b0 J
#78791
0Q
b0 R
#78807
0Y
b0 Z
#78837
0a
b0 b
#78853
0i
b0 j
#78869
0q
b0 r
#78885
0y
b0 z
#78915
0!
b0 "
#78931
0)
b0 *
#78947
01
b0 2
#78963
09
b0 :
#79612
1&!
b10001111011101 '!
1.!
b10001111011101 /!
16!
b10001111011101 7!
1>!
b10001111011101 ?!
#79614
1d
b10001111011101 e
1l
b10001111011101 m
1t
b10001111011101 u
1|
b10001111011101 }
#79616
1D
b10001111011101 E
1L
b10001111011101 M
1T
b10001111011101 U
1\
b10001111011101 ]
#79618
1$
b10001111011101 %
1,
b10001111011101 -
14
b10001111011101 5
1<
b10001111011101 =
#80092
1#!
b110001001001101 $!
1+!
b110001001011101 ,!
13!
b110001001101101 4!
1;!
b110001001111101 <!
#80094
1a
b110001100110011 b
1i
b110001101000011 j
1q
b110001101010011 r
1y
b110001101100011 z
#80096
1A
b110001011100011 B
1I
b110001011110011 J
1Q
b110001100000011 R
1Y
b110001100010011 Z
#80098
1!
b110001101111101 "
1)
b110001110001101 *
11
b110001110011101 2
19
b110001110101101 :
#88793
0&!
b0 '!
0.!
b0 /!
06!
b0 7!
0>!
b0 ?!
#88794
1(!
b1 )!
10!
b1 1!
18!
b1 9!
1@!
b1 A!
#88795
0d
b0 e
0l
b0 m
0t
b0 u
0|
b0 }
0(!
b0 )!
00!
b0 1!
08!
b0 9!
0@!
b0 A!
#88796
1f
b1 g
1n
b1 o
1v
b1 w
1~
b1 !!
#88797
0D
b0 E
0L
b0 M
0T
b0 U
0\
b0 ]
0f
b0 g
0n
b0 o
0v
b0 w
0~
b0 !!
b11 *!
b11 2!
b11 :!
b11 B!
#88798
1F
b1 G
1N
b1 O
1V
b1 W
1^
b1 _
#88799
0$
b0 %
0,
b0 -
04
b0 5
0<
b0 =
0F
b0 G
0N
b0 O
0V
b0 W
0^
b0 _
b11 h
b11 p
b11 x
b11 "!
#88800
1&
b1 '
1.
b1 /
16
b1 7
1>
b1 ?
#88801
0&
b0 '
0.
b0 /
06
b0 7
0>
b0 ?
b11 H
b11 P
b11 X
b11 `
#88803
b11 (
b11 0
b11 8
b11 @
#105257
0#!
b0 $!
#105273
0+!
b0 ,!
#105289
03!
b0 4!
#105305
0;!
b0 <!
#105411
0A
b0 B
#105427
0I
b0 J
#105443
0Q
b0 R
#105459
0Y
b0 Z
#105489
0a
b0 b
#105505
0i
b0 j
#105521
0q
b0 r
#105537
0y
b0 z
#105567
0!
b0 "
#105583
0)
b0 *
#105599
01
b0 2
#105615
09
b0 :
#106534
1&!
b10001111011101 '!
1.!
b10001111011101 /!
16!
b10001111011101 7!
1>!
b10001111011101 ?!
#106536
1d
b10001111011101 e
1l
b10001111011101 m
1t
b10001111011101 u
1|
b10001111011101 }
#106538
1D
b10001111011101 E
1L
b10001111011101 M
1T
b10001111011101 U
1\
b10001111011101 ]
#106540
1$
b10001111011101 %
1,
b10001111011101 -
14
b10001111011101 5
1<
b10001111011101 =
#107014
1#!
b110000111000111 $!
1+!
b110000111010111 ,!
13!
b110000111100111 4!
1;!
b110000111110111 <!
#107016
1a
b110001010101101 b
1i
b110001010111101 j
1q
b110001011001101 r
1y
b110001011011101 z
#107018
1A
b110001001011101 B
1I
b110001001101101 J
1Q
b110001001111101 R
1Y
b110001010001101 Z
#107020
1!
b110001011110111 "
1)
b110001100000111 *
11
b110001100010111 2
19
b110001100100111 :
#115715
0&!
b0 '!
0.!
b0 /!
06!
b0 7!
0>!
b0 ?!
#115716
1(!
b1 )!
10!
b1 1!
18!
b1 9!
1@!
b1 A!
#115717
0d
b0 e
0l
b0 m
0t
b0 u
0|
b0 }
0(!
b0 )!
00!
b0 1!
08!
b0 9!
0@!
b0 A!
#115718
1f
b1 g
1n
b1 o
1v
b1 w
1~
b1 !!
#115719
0D
b0 E
0L
b0 M
0T
b0 U
0\
b0 ]
0f
b0 g
0n
b0 o
0v
b0 w
0~
b0 !!
b100 *!
b100 2!
b100 :!
b100 B!
#115720
1F
b1 G
1N
b1 O
1V
b1 W
1^
b1 _
#115721
0$
b0 %
0,
b0 -
04
b0 5
0<
b0 =
0F
b0 G
0N
b0 O
0V
b0 W
0^
b0 _
b100 h
b100 p
b100 x
b100 "!
#115722
1&
b1 '
1.
b1 /
16
b1 7
1>
b1 ?
#115723
0&
b0 '
0.
b0 /
06
b0 7
0>
b0 ?
b100 H
b100 P
b100 X
b100 `
#115725
b100 (
b100 0
b100 8
b100 @
#132045
0#!
b0 $!
#132061
0+!
b0 ,!
#132077
03!
b0 4!
#132093
0;!
b0 <!
#132199
0A
b0 B
#132215
0I
b0 J
#132231
0Q
b0 R
#132247
0Y
b0 Z
#132277
0a
b0 b
#132293
0i
b0 j
#132309
0q
b0 r
#132325
0y
b0 z
#132355
0!
b0 "
#132371
0)
b0 *
#132387
01
b0 2
#132403
09
b0 :
#133052
1&!
b10001111011101 '!
1.!
b10001111011101 /!
16!
b10001111011101 7!
1>!
b10001111011101 ?!
#133054
1d
b10001111011101 e
1l
b10001111011101 m
1t
b10001111011101 u
1|
b10001111011101 }
#133056
1D
b10001111011101 E
1L
b10001111011101 M
1T
b10001111011101 U
1\
b10001111011101 ]
#133058
1$
b10001111011101 %
1,
b10001111011101 -
14
b10001111011101 5
1<
b10001111011101 =
#133532
1#!
b110000111001011 $!
1+!
b110000111011011 ,!
13!
b110000111101011 4!
1;!
b110000111111011 <!
#133534
1a
b110001010110001 b
1i
b110001011000001 j
1q
b110001011010001 r
1y
b110001011100001 z
#133536
1A
b110001001100001 B
1I
b110001001110001 J
1Q
b110001010000001 R
1Y
b110001010010001 Z
#133538
1!
b110001011111011 "
1)
b110001100001011 *
11
b110001100011011 2
19
b110001100101011 :
#142233
0&!
b0 '!
0.!
b0 /!
06!
b0 7!
0>!
b0 ?!
#142234
1(!
b1 )!
10!
b1 1!
18!
b1 9!
1@!
b1 A!
#142235
0d
b0 e
0l
b0 m
0t
b0 u
0|
b0 }
0(!
b0 )!
00!
b0 1!
08!
b0 9!
0@!
b0 A!
#142236
1f
b1 g
1n
b1 o
1v
b1 w
1~
b1 !!
#142237
0D
b0 E
0L
b0 M
0T
b0 U
0\
b0 ]
0f
b0 g
0n
b0 o
0v
b0 w
0~
b0 !!
b101 *!
b101 2!
b101 :!
b101 B!
#142238
1F
b1 G
1N
b1 O
1V
b1 W
1^
b1 _
#142239
0$
b0 %
0,
b0 -
04
b0 5
0<
b0 =
0F
b0 G
0N
b0 O
0V
b0 W
0^
b0 _
b101 h
b101 p
b101 x
b101 "!
#142240
1&
b1 '
1.
b1 /
16
b1 7
1>
b1 ?
#142241
0&
b0 '
0.
b0 /
06
b0 7
0>
b0 ?
b101 H
b101 P
b101 X
b101 `
#142243
b101 (
b101 0
b101 8
b101 @
#158567
0#!
b0 $!
#158583
0+!
b0 ,!
#158599
03!
b0 4!
#158615
0;!
b0 <!
#158721
0A
b0 B
#158737
0I
b0 J
#158753
0Q
b0 R
#158769
0Y
b0 Z
#158799
0a
b0 b
#158815
0i
b0 j
#158831
0q
b0 r
#158847
0y
b0 z
#158877
0!
b0 "
#158893
0)
b0 *
#158909
01
b0 2
#158925
09
b0 :
#159590
1&!
b10001111011101 '!
1.!
b10001111011101 /!
16!
b10001111011101 7!
1>!
b10001111011101 ?!
#159592
1d
b10001111011101 e
1l
b10001111011101 m
1t
b10001111011101 u
1|
b10001111011101 }
#159594
1D
b10001111011101 E
1L
b10001111011101 M
1T
b10001111011101 U
1\
b10001111011101 ]
#159596
1$
b10001111011101 %
1,
b10001111011101 -
14
b10001111011101 5
1<
b10001111011101 =
#160070
1#!
b110001101101011 $!
1+!
b110001110000001 ,!
13!
b110001110010111 4!
1;!
b110001110101101 <!
#160072
1a
b110010001010001 b
1i
b110010001100111 j
1q
b110010001111101 r
1y
b110010010010011 z
#160074
1A
b110010000000001 B
1I
b110010000010111 J
1Q
b110010000101101 R
1Y
b110010001000011 Z
#160076
1!
b110010010011011 "
1)
b110010010110001 *
11
b110010011000111 2
19
b110010011011101 :
#168771
0&!
b0 '!
0.!
b0 /!
06!
b0 7!
0>!
b0 ?!
#168772
1(!
b1 )!
10!
b1 1!
18!
b1 9!
1@!
b1 A!
#168773
0d
b0 e
0l
b0 m
0t
b0 u
0|
b0 }
0(!
b0 )!
00!
b0 1!
08!
b0 9!
0@!
b0 A!
#168774
1f
b1 g
1n
b1 o
1v
b1 w
1~
b1 !!
#168775
0D
b0 E
0L
b0 M
0T
b0 U
0\
b0 ]
0f
b0 g
0n
b0 o
0v
b0 w
0~
b0 !!
b110 *!
b110 2!
b110 :!
b110 B!
#168776
1F
b1 G
1N
b1 O
1V
b1 W
1^
b1 _
#168777
0$
b0 %
0,
b0 -
04
b0 5
0<
b0 =
0F
b0 G
0N
b0 O
0V
b0 W
0^
b0 _
b110 h
b110 p
b110 x
b110 "!
#168778
1&
b1 '
1.
b1 /
16
b1 7
1>
b1 ?
#168779
0&
b0 '
0.
b0 /
06
b0 7
0>
b0 ?
b110 H
b110 P
b110 X
b110 `
#168781
b110 (
b110 0
b110 8
b110 @
#185521
0#!
b0 $!
#185543
0+!
b0 ,!
#185565
03!
b0 4!
#185587
0;!
b0 <!
#185675
0A
b0 B
#185697
0I
b0 J
#185719
0Q
b0 R
#185741
0Y
b0 Z
#185753
0a
b0 b
#185775
0i
b0 j
#185797
0q
b0 r
#185819
0y
b0 z
#185831
0!
b0 "
#185853
0)
b0 *
#185875
01
b0 2
#185897
09
b0 :
#186472
1&!
b10001111011101 '!
1.!
b10001111011101 /!
16!
b10001111011101 7!
1>!
b10001111011101 ?!
#186474
1d
b10001111011101 e
1l
b10001111011101 m
1t
b10001111011101 u
1|
b10001111011101 }
#186476
1D
b10001111011101 E
1L
b10001111011101 M
1T
b10001111011101 U
1\
b10001111011101 ]
#186510
1$
b10001111011101 %
1,
b10001111011101 -
14
b10001111011101 5
1<
b10001111011101 =
#186984
1#!
b110001000011011 $!
1+!
b110001000101011 ,!
13!
b110001000111011 4!
1;!
b110001001001011 <!
#186986
1a
b110001100000001 b
1i
b110001100010001 j
1q
b110001100100001 r
1y
b110001100110001 z
#186988
1A
b110001010110001 B
1I
b110001011000001 J
1Q
b110001011010001 R
1Y
b110001011100001 Z
#186990
1!
b110001101001011 "
1)
b110001101011011 *
11
b110001101101011 2
19
b110001101111011 :
#195653
0&!
b0 '!
0.!
b0 /!
06!
b0 7!
0>!
b0 ?!
#195654
1(!
b1 )!
10!
b1 1!
18!
b1 9!
1@!
b1 A!
#195655
0d
b0 e
0l
b0 m
0t
b0 u
0|
b0 }
0(!
b0 )!
00!
b0 1!
08!
b0 9!
0@!
b0 A!
#195656
1f
b1 g
1n
b1 o
1v
b1 w
1~
b1 !!
#195657
0D
b0 E
0L
b0 M
0T
b0 U
0\
b0 ]
0f
b0 g
0n
b0 o
0v
b0 w
0~
b0 !!
b111 *!
b111 2!
b111 :!
b111 B!
#195658
1F
b1 G
1N
b1 O
1V
b1 W
1^
b1 _
#195659
0F
b0 G
0N
b0 O
0V
b0 W
0^
b0 _
b111 h
b111 p
b111 x
b111 "!
#195661
b111 H
b111 P
b111 X
b111 `
#195691
0$
b0 %
0,
b0 -
04
b0 5
0<
b0 =
#195692
1&
b1 '
1.
b1 /
16
b1 7
1>
b1 ?
#195693
0&
b0 '
0.
b0 /
06
b0 7
0>
b0 ?
#195695
b111 (
b111 0
b111 8
b111 @
#212099
0#!
b0 $!
#212115
0+!
b0 ,!
#212131
03!
b0 4!
#212147
0;!
b0 <!
#212253
0A
b0 B
#212269
0I
b0 J
#212285
0Q
b0 R
#212301
0Y
b0 Z
#212331
0a
b0 b
#212347
0i
b0 j
#212363
0q
b0 r
#212379
0y
b0 z
#212409
0!
b0 "
#212425
0)
b0 *
#212441
01
b0 2
#212457
09
b0 :
#213106
1&!
b10001111011101 '!
1.!
b10001111011101 /!
16!
b10001111011101 7!
1>!
b10001111011101 ?!
#213108
1d
b10001111011101 e
1l
b10001111011101 m
1t
b10001111011101 u
1|
b10001111011101 }
#213110
1D
b10001111011101 E
1L
b10001111011101 M
1T
b10001111011101 U
1\
b10001111011101 ]
#213112
1$
b10001111011101 %
1,
b10001111011101 -
14
b10001111011101 5
1<
b10001111011101 =
#213580
1#!
b110001101001101 $!
1+!
b110001101010011 ,!
13!
b110001101011001 4!
1;!
b110001110010011 <!
#213582
1a
b110010000110011 b
1i
b110010000111001 j
1q
b110010000111111 r
1y
b110010001111001 z
#213584
1A
b110001111100011 B
1I
b110001111101001 J
1Q
b110001111101111 R
1Y
b110010000101001 Z
#213586
1!
b110010001111101 "
1)
b110010010000011 *
11
b110010010001001 2
19
b110010011000011 :
#222287
0&!
b0 '!
0.!
b0 /!
06!
b0 7!
0>!
b0 ?!
#222288
1(!
b1 )!
10!
b1 1!
18!
b1 9!
1@!
b1 A!
#222289
0d
b0 e
0l
b0 m
0t
b0 u
0|
b0 }
0(!
b0 )!
00!
b0 1!
08!
b0 9!
0@!
b0 A!
#222290
1f
b1 g
1n
b1 o
1v
b1 w
1~
b1 !!
#222291
0D
b0 E
0L
b0 M
0T
b0 U
0\
b0 ]
0f
b0 g
0n
b0 o
0v
b0 w
0~
b0 !!
b1000 *!
b1000 2!
b1000 :!
b1000 B!
#222292
1F
b1 G
1N
b1 O
1V
b1 W
1^
b1 _
#222293
0$
b0 %
0,
b0 -
04
b0 5
0<
b0 =
0F
b0 G
0N
b0 O
0V
b0 W
0^
b0 _
b1000 h
b1000 p
b1000 x
b1000 "!
#222294
1&
b1 '
1.
b1 /
16
b1 7
1>
b1 ?
#222295
0&
b0 '
0.
b0 /
06
b0 7
0>
b0 ?
b1000 H
b1000 P
b1000 X
b1000 `
#222297
b1000 (
b1000 0
b1000 8
b1000 @
#239001
0#!
b0 $!
#239007
0+!
b0 ,!
#239013
03!
b0 4!
#239071
0;!
b0 <!
#239155
0A
b0 B
#239161
0I
b0 J
#239167
0Q
b0 R
#239225
0Y
b0 Z
#239233
0a
b0 b
#239239
0i
b0 j
#239245
0q
b0 r
#239303
0y
b0 z
#239311
0!
b0 "
#239317
0)
b0 *
#239323
01
b0 2
#239381
09
b0 :
#239904
1&!
b10001111011101 '!
1.!
b10001111011101 /!
16!
b10001111011101 7!
1>!
b10001111011101 ?!
#239906
1d
b10001111011101 e
1l
b10001111011101 m
1t
b10001111011101 u
1|
b10001111011101 }
#239908
1D
b10001111011101 E
1L
b10001111011101 M
1T
b10001111011101 U
1\
b10001111011101 ]
#239910
1$
b10001111011101 %
1,
b10001111011101 -
14
b10001111011101 5
1<
b10001111011101 =
#240384
1#!
b110001000100001 $!
1+!
b110001000110001 ,!
13!
b110001001000001 4!
1;!
b110001001010001 <!
#240386
1a
b110001100000111 b
1i
b110001100010111 j
1q
b110001100100111 r
1y
b110001100110111 z
#240388
1A
b110001010110111 B
1I
b110001011000111 J
1Q
b110001011010111 R
1Y
b110001011100111 Z
#240390
1!
b110001101010001 "
1)
b110001101100001 *
11
b110001101110001 2
19
b110001110000001 :
#249085
0&!
b0 '!
0.!
b0 /!
06!
b0 7!
0>!
b0 ?!
#249086
1(!
b1 )!
10!
b1 1!
18!
b1 9!
1@!
b1 A!
#249087
0d
b0 e
0l
b0 m
0t
b0 u
0|
b0 }
0(!
b0 )!
00!
b0 1!
08!
b0 9!
0@!
b0 A!
#249088
1f
b1 g
1n
b1 o
1v
b1 w
1~
b1 !!
#249089
0D
b0 E
0L
b0 M
0T
b0 U
0\
b0 ]
0f
b0 g
0n
b0 o
0v
b0 w
0~
b0 !!
b1001 *!
b1001 2!
b1001 :!
b1001 B!
#249090
1F
b1 G
1N
b1 O
1V
b1 W
1^
b1 _
#249091
0$
b0 %
0,
b0 -
04
b0 5
0<
b0 =
0F
b0 G
0N
b0 O
0V
b0 W
0^
b0 _
b1001 h
b1001 p
b1001 x
b1001 "!
#249092
1&
b1 '
1.
b1 /
16
b1 7
1>
b1 ?
#249093
0&
b0 '
0.
b0 /
06
b0 7
0>
b0 ?
b1001 H
b1001 P
b1001 X
b1001 `
#249095
b1001 (
b1001 0
b1001 8
b1001 @
#265505
0#!
b0 $!
#265521
0+!
b0 ,!
#265537
03!
b0 4!
#265553
0;!
b0 <!
#265659
0A
b0 B
#265675
0I
b0 J
#265691
0Q
b0 R
#265707
0Y
b0 Z
#265737
0a
b0 b
#265753
0i
b0 j
#265769
0q
b0 r
#265785
0y
b0 z
#265815
0!
b0 "
#265831
0)
b0 *
#265847
01
b0 2
#265863
09
b0 :
#266430
1&!
b10001111011101 '!
1.!
b10001111011101 /!
16!
b10001111011101 7!
1>!
b10001111011101 ?!
#266432
1d
b10001111011101 e
1l
b10001111011101 m
1t
b10001111011101 u
1|
b10001111011101 }
#266434
1D
b10001111011101 E
1L
b10001111011101 M
1T
b10001111011101 U
1\
b10001111011101 ]
#266436
1$
b10001111011101 %
1,
b10001111011101 -
14
b10001111011101 5
1<
b10001111011101 =
#266910
1#!
b110001001100011 $!
1+!
b110001001110011 ,!
13!
b110001010000011 4!
1;!
b110001010010011 <!
#266912
1a
b110001101001001 b
1i
b110001101011001 j
1q
b110001101101001 r
1y
b110001101111001 z
#266914
1A
b110001011111001 B
1I
b110001100001001 J
1Q
b110001100011001 R
1Y
b110001100101001 Z
#266916
1!
b110001110010011 "
1)
b110001110100011 *
11
b110001110110011 2
19
b110001111000011 :
#275611
0&!
b0 '!
0.!
b0 /!
06!
b0 7!
0>!
b0 ?!
#275612
1(!
b1 )!
10!
b1 1!
18!
b1 9!
1@!
b1 A!
#275613
0d
b0 e
0l
b0 m
0t
b0 u
0|
b0 }
0(!
b0 )!
00!
b0 1!
08!
b0 9!
0@!
b0 A!
#275614
1f
b1 g
1n
b1 o
1v
b1 w
1~
b1 !!
#275615
0D
b0 E
0L
b0 M
0T
b0 U
0\
b0 ]
0f
b0 g
0n
b0 o
0v
b0 w
0~
b0 !!
b1010 *!
b1010 2!
b1010 :!
b1010 B!
#275616
1F
b1 G
1N
b1 O
1V
b1 W
1^
b1 _
#275617
0$
b0 %
0,
b0 -
04
b0 5
0<
b0 =
0F
b0 G
0N
b0 O
0V
b0 W
0^
b0 _
b1010 h
b1010 p
b1010 x
b1010 "!
#275618
1&
b1 '
1.
b1 /
16
b1 7
1>
b1 ?
#275619
0&
b0 '
0.
b0 /
06
b0 7
0>
b0 ?
b1010 H
b1010 P
b1010 X
b1010 `
#275621
b1010 (
b1010 0
b1010 8
b1010 @
#292097
0#!
b0 $!
#292113
0+!
b0 ,!
#292129
03!
b0 4!
#292145
0;!
b0 <!
#292251
0A
b0 B
#292267
0I
b0 J
#292283
0Q
b0 R
#292299
0Y
b0 Z
#292329
0a
b0 b
#292345
0i
b0 j
#292361
0q
b0 r
#292377
0y
b0 z
#292407
0!
b0 "
#292423
0)
b0 *
#292439
01
b0 2
#292455
09
b0 :
#293372
1&!
b10001111011101 '!
1.!
b10001111011101 /!
16!
b10001111011101 7!
1>!
b10001111011101 ?!
