conv3x3_6layers/conv3x3_4.vcd
$date today $end
$timescale 1 ns $end
$scope module top $end
$scope module slice0 $end
$var integer 1 ! prefetch $end
$var integer 32 " prefetch_time $end
$var integer 1 # config $end
$var integer 1 $ compute $end
$var integer 32 % compute_time $end
$var integer 1 & write_back $end
$var integer 32 ' write_back_time $end
$var integer 10 ( TG_id $end
$upscope $end
$scope module slice1 $end
$var integer 1 ) prefetch $end
$var integer 32 * prefetch_time $end
$var integer 1 + config $end
$var integer 1 , compute $end
$var integer 32 - compute_time $end
$var integer 1 . write_back $end
$var integer 32 / write_back_time $end
$var integer 10 0 TG_id $end
$upscope $end
$scope module slice10 $end
$var integer 1 q prefetch $end
$var integer 32 r prefetch_time $end
$var integer 1 s config $end
$var integer 1 t compute $end
$var integer 32 u compute_time $end
$var integer 1 v write_back $end
$var integer 32 w write_back_time $end
$var integer 10 x TG_id $end
$upscope $end
$scope module slice11 $end
$var integer 1 y prefetch $end
$var integer 32 z prefetch_time $end
$var integer 1 { config $end
$var integer 1 | compute $end
$var integer 32 } compute_time $end
$var integer 1 ~ write_back $end
$var integer 32 !! write_back_time $end
$var integer 10 "! TG_id $end
$upscope $end
$scope module slice12 $end
$var integer 1 #! prefetch $end
$var integer 32 $! prefetch_time $end
$var integer 1 %! config $end
$var integer 1 &! compute $end
$var integer 32 '! compute_time $end
$var integer 1 (! write_back $end
$var integer 32 )! write_back_time $end
$var integer 10 *! TG_id $end
$upscope $end
$scope module slice13 $end
$var integer 1 +! prefetch $end
$var integer 32 ,! prefetch_time $end
$var integer 1 -! config $end
$var integer 1 .! compute $end
$var integer 32 /! compute_time $end
$var integer 1 0! write_back $end
$var integer 32 1! write_back_time $end
$var integer 10 2! TG_id $end
$upscope $end
$scope module slice14 $end
$var integer 1 3! prefetch $end
$var integer 32 4! prefetch_time $end
$var integer 1 5! config $end
$var integer 1 6! compute $end
$var integer 32 7! compute_time $end
$var integer 1 8! write_back $end
$var integer 32 9! write_back_time $end
$var integer 10 :! TG_id $end
$upscope $end
$scope module slice15 $end
$var integer 1 ;! prefetch $end
$var integer 32 <! prefetch_time $end
$var integer 1 =! config $end
$var integer 1 >! compute $end
$var integer 32 ?! compute_time $end
$var integer 1 @! write_back $end
$var integer 32 A! write_back_time $end
$var integer 10 B! TG_id $end
$upscope $end
$scope module slice2 $end
$var integer 1 1 prefetch $end
$var integer 32 2 prefetch_time $end
$var integer 1 3 config $end
$var integer 1 4 compute $end
$var integer 32 5 compute_time $end
$var integer 1 6 write_back $end
$var integer 32 7 write_back_time $end
$var integer 10 8 TG_id $end
$upscope $end
$scope module slice3 $end
$var integer 1 9 prefetch $end
$var integer 32 : prefetch_time $end
$var integer 1 ; config $end
$var integer 1 < compute $end
$var integer 32 = compute_time $end
$var integer 1 > write_back $end
$var integer 32 ? write_back_time $end
$var integer 10 @ TG_id $end
$upscope $end
$scope module slice4 $end
$var integer 1 A prefetch $end
$var integer 32 B prefetch_time $end
$var integer 1 C config $end
$var integer 1 D compute $end
$var integer 32 E compute_time $end
$var integer 1 F write_back $end
$var integer 32 G write_back_time $end
$var integer 10 H TG_id $end
$upscope $end
$scope module slice5 $end
$var integer 1 I prefetch $end
$var integer 32 J prefetch_time $end
$var integer 1 K config $end
$var integer 1 L compute $end
$var integer 32 M compute_time $end
$var integer 1 N write_back $end
$var integer 32 O write_back_time $end
$var integer 10 P TG_id $end
$upscope $end
$scope module slice6 $end
$var integer 1 Q prefetch $end
$var integer 32 R prefetch_time $end
$var integer 1 S config $end
$var integer 1 T compute $end
$var integer 32 U compute_time $end
$var integer 1 V write_back $end
$var integer 32 W write_back_time $end
$var integer 10 X TG_id $end
$upscope $end
$scope module slice7 $end
$var integer 1 Y prefetch $end
$var integer 32 Z prefetch_time $end
$var integer 1 [ config $end
$var integer 1 \ compute $end
$var integer 32 ] compute_time $end
$var integer 1 ^ write_back $end
$var integer 32 _ write_back_time $end
$var integer 10 ` TG_id $end
$upscope $end
$scope module slice8 $end
$var integer 1 a prefetch $end
$var integer 32 b prefetch_time $end
$var integer 1 c config $end
$var integer 1 d compute $end
$var integer 32 e compute_time $end
$var integer 1 f write_back $end
$var integer 32 g write_back_time $end
$var integer 10 h TG_id $end
$upscope $end
$scope module slice9 $end
$var integer 1 i prefetch $end
$var integer 32 j prefetch_time $end
$var integer 1 k config $end
$var integer 1 l compute $end
$var integer 32 m compute_time $end
$var integer 1 n write_back $end
$var integer 32 o write_back_time $end
$var integer 10 p TG_id $end
$upscope $end
$upscope $end
$enddefinitions $end
#0
$dumpvars
0!
b0 "
0#
0$
b0 %
0&
b0 '
b0 (
0)
b0 *
0+
0,
b0 -
0.
b0 /
b0 0
01
b0 2
03
04
b0 5
06
b0 7
b0 8
09
b0 :
0;
0<
b0 =
0>
b0 ?
b0 @
0A
b0 B
0C
0D
b0 E
0F
b0 G
b0 H
0I
b0 J
0K
0L
b0 M
0N
b0 O
b0 P
0Q
b0 R
0S
0T
b0 U
0V
b0 W
b0 X
0Y
b0 Z
0[
0\
b0 ]
0^
b0 _
b0 `
0a
b0 b
0c
0d
b0 e
0f
b0 g
b0 h
0i
b0 j
0k
0l
b0 m
0n
b0 o
b0 p
0q
b0 r
0s
0t
b0 u
0v
b0 w
b0 x
0y
b0 z
0{
0|
b0 }
0~
b0 !!
b0 "!
1#!
b1010110011010101 $!
0%!
0&!
b0 '!
0(!
b0 )!
b0 *!
1+!
b1010110011011011 ,!
0-!
0.!
b0 /!
00!
b0 1!
b0 2!
13!
b1010110011100001 4!
05!
06!
b0 7!
08!
b0 9!
b0 :!
1;!
b1010110011100111 <!
0=!
0>!
b0 ?!
0@!
b0 A!
b0 B!
$end
#4
1a
b1010110100011001 b
1i
b1010110100011111 j
1q
b1010110100100101 r
1y
b1010110100101011 z
#8
1A
b1010110101000101 B
1I
b1010110101001011 J
1Q
b1010110101010001 R
1Y
b1010110101010111 Z
#14
1!
b1010110101010111 "
1)
b1010110101011101 *
11
b1010110101100011 2
19
b1010110101101001 :
#44245
0#!
b0 $!
#44251
0+!
b0 ,!
#44257
03!
b0 4!
#44263
0;!
b0 <!
#44317
0a
b0 b
#44323
0i
b0 j
#44329
0q
b0 r
#44335
0y
b0 z
#44365
0A
b0 B
#44371
0I
b0 J
#44377
0Q
b0 R
#44383
0Y
b0 Z
#44389
0!
b0 "
#44395
0)
b0 *
#44401
01
b0 2
#44407
09
b0 :
#45492
1&!
b100011110100011 '!
1.!
b100011110100011 /!
16!
b100011110100011 7!
1>!
b100011110100011 ?!
#45496
1d
b100011110100011 e
1l
b100011110100011 m
1t
b100011110100011 u
1|
b100011110100011 }
#45500
1D
b100011110100011 E
1L
b100011110100011 M
1T
b100011110100011 U
1\
b100011110100011 ]
#45506
1$
b100011110100011 %
1,
b100011110100011 -
14
b100011110100011 5
1<
b100011110100011 =
#45848
1#!
b1010110011111011 $!
1+!
b1010110100000001 ,!
13!
b1010110100000111 4!
1;!
b1010110100001101 <!
#45852
1a
b1010110100111111 b
1i
b1010110101000101 j
1q
b1010110101001011 r
1y
b1010110101010001 z
#45856
1A
b1010110101101011 B
1I
b1010110101110001 J
1Q
b1010110101110111 R
1Y
b1010110101111101 Z
#45862
1!
b1010110101111101 "
1)
b1010110110000011 *
11
b1010110110001001 2
19
b1010110110001111 :
#63831
0&!
b0 '!
0.!
b0 /!
06!
b0 7!
0>!
b0 ?!
#63832
1(!
b1 )!
10!
b1 1!
18!
b1 9!
1@!
b1 A!
#63833
0(!
b0 )!
00!
b0 1!
08!
b0 9!
0@!
b0 A!
#63835
0d
b0 e
0l
b0 m
0t
b0 u
0|
b0 }
b1 *!
b1 2!
b1 :!
b1 B!
#63836
1f
b1 g
1n
b1 o
1v
b1 w
1~
b1 !!
#63837
0f
b0 g
0n
b0 o
0v
b0 w
0~
b0 !!
#63839
0D
b0 E
0L
b0 M
0T
b0 U
0\
b0 ]
b1 h
b1 p
b1 x
b1 "!
#63840
1F
b1 G
1N
b1 O
1V
b1 W
1^
b1 _
#63841
0F
b0 G
0N
b0 O
0V
b0 W
0^
b0 _
#63843
b1 H
b1 P
b1 X
b1 `
#63845
0$
b0 %
0,
b0 -
04
b0 5
0<
b0 =
#63846
1&
b1 '
1.
b1 /
16
b1 7
1>
b1 ?
#63847
0&
b0 '
0.
b0 /
06
b0 7
0>
b0 ?
#63849
b1 (
b1 0
b1 8
b1 @
#90131
0#!
b0 $!
#90137
0+!
b0 ,!
#90143
03!
b0 4!
#90149
0;!
b0 <!
#90203
0a
b0 b
#90209
0i
b0 j
#90215
0q
b0 r
#90221
0y
b0 z
#90251
0A
b0 B
#90257
0I
b0 J
#90263
0Q
b0 R
#90269
0Y
b0 Z
#90275
0!
b0 "
#90281
0)
b0 *
#90287
01
b0 2
#90293
09
b0 :
#91242
1&!
b100011110100011 '!
1.!
b100011110100011 /!
16!
b100011110100011 7!
1>!
b100011110100011 ?!
#91246
1d
b100011110100011 e
1l
b100011110100011 m
1t
b100011110100011 u
1|
b100011110100011 }
#91250
1D
b100011110100011 E
1L
b100011110100011 M
1T
b100011110100011 U
1\
b100011110100011 ]
#91256
1$
b100011110100011 %
1,
b100011110100011 -
14
b100011110100011 5
1<
b100011110100011 =
#91598
1#!
b1010110011111011 $!
1+!
b1010110100000001 ,!
13!
b1010110100000111 4!
1;!
b1010110100001101 <!
#91602
1a
b1010110100111111 b
1i
b1010110101000101 j
1q
b1010110101001011 r
1y
b1010110101010001 z
#91606
1A
b1010110101101011 B
1I
b1010110101110001 J
1Q
b1010110101110111 R
1Y
b1010110101111101 Z
#91612
1!
b1010110101111101 "
1)
b1010110110000011 *
11
b1010110110001001 2
19
b1010110110001111 :
#109581
0&!
b0 '!
0.!
b0 /!
06!
b0 7!
0>!
b0 ?!
#109582
1(!
b1 )!
10!
b1 1!
18!
b1 9!
1@!
b1 A!
#109583
0(!
b0 )!
00!
b0 1!
08!
b0 9!
0@!
b0 A!
#109585
0d
b0 e
0l
b0 m
0t
b0 u
0|
b0 }
b10 *!
b10 2!
b10 :!
b10 B!
#109586
1f
b1 g
1n
b1 o
1v
b1 w
1~
b1 !!
#109587
0f
b0 g
0n
b0 o
0v
b0 w
0~
b0 !!
#109589
0D
b0 E
0L
b0 M
0T
b0 U
0\
b0 ]
b10 h
b10 p
b10 x
b10 "!
#109590
1F
b1 G
1N
b1 O
1V
b1 W
1^
b1 _
#109591
0F
b0 G
0N
b0 O
0V
b0 W
0^
b0 _
#109593
b10 H
b10 P
b10 X
b10 `
#109595
0$
b0 %
0,
b0 -
04
b0 5
0<
b0 =
#109596
1&
b1 '
1.
b1 /
16
b1 7
1>
b1 ?
#109597
0&
b0 '
0.
b0 /
06
b0 7
0>
b0 ?
#109599
b10 (
b10 0
b10 8
b10 @
#135881
0#!
b0 $!
#135887
0+!
b0 ,!
#135893
03!
b0 4!
#135899
0;!
b0 <!
#135953
0a
b0 b
#135959
0i
b0 j
#135965
0q
b0 r
#135971
0y
b0 z
#136001
0A
b0 B
#136007
0I
b0 J
#136013
0Q
b0 R
#136019
0Y
b0 Z
#136025
0!
b0 "
#136031
0)
b0 *
#136037
01
b0 2
#136043
09
b0 :
#136992
1&!
b100011110100011 '!
1.!
b100011110100011 /!
16!
b100011110100011 7!
1>!
b100011110100011 ?!
#136996
1d
b100011110100011 e
1l
b100011110100011 m
1t
b100011110100011 u
1|
b100011110100011 }
#137000
1D
b100011110100011 E
1L
b100011110100011 M
1T
b100011110100011 U
1\
b100011110100011 ]
#137006
1$
b100011110100011 %
1,
b100011110100011 -
14
b100011110100011 5
1<
b100011110100011 =
#137348
1#!
b1010110011111011 $!
1+!
b1010110100000001 ,!
13!
b1010110100000111 4!
1;!
b1010110100001101 <!
#137352
1a
b1010110100111111 b
1i
b1010110101000101 j
1q
b1010110101001011 r
1y
b1010110101010001 z
#137356
1A
b1010110101101011 B
1I
b1010110101110001 J
1Q
b1010110101110111 R
1Y
b1010110101111101 Z
#137362
1!
b1010110101111101 "
1)
b1010110110000011 *
11
b1010110110001001 2
19
b1010110110001111 :
#155331
0&!
b0 '!
0.!
b0 /!
06!
b0 7!
0>!
b0 ?!
#155332
1(!
b1 )!
10!
b1 1!
18!
b1 9!
1@!
b1 A!
#155333
0(!
b0 )!
00!
b0 1!
08!
b0 9!
0@!
b0 A!
#155335
0d
b0 e
0l
b0 m
0t
b0 u
0|
b0 }
b11 *!
b11 2!
b11 :!
b11 B!
#155336
1f
b1 g
1n
b1 o
1v
b1 w
1~
b1 !!
#155337
0f
b0 g
0n
b0 o
0v
b0 w
0~
b0 !!
#155339
0D
b0 E
0L
b0 M
0T
b0 U
0\
b0 ]
b11 h
b11 p
b11 x
b11 "!
#155340
1F
b1 G
1N
b1 O
1V
b1 W
1^
b1 _
#155341
0F
b0 G
0N
b0 O
0V
b0 W
0^
b0 _
#155343
b11 H
b11 P
b11 X
b11 `
#155345
0$
b0 %
0,
b0 -
04
b0 5
0<
b0 =
#155346
1&
b1 '
1.
b1 /
16
b1 7
1>
b1 ?
#155347
0&
b0 '
0.
b0 /
06
b0 7
0>
b0 ?
#155349
b11 (
b11 0
b11 8
b11 @
#181631
0#!
b0 $!
#181637
0+!
b0 ,!
#181643
03!
b0 4!
#181649
0;!
b0 <!
#181703
0a
b0 b
#181709
0i
b0 j
#181715
0q
b0 r
#181721
0y
b0 z
#181751
0A
b0 B
#181757
0I
b0 J
#181763
0Q
b0 R
#181769
0Y
b0 Z
#181775
0!
b0 "
#181781
0)
b0 *
#181787
01
b0 2
#181793
09
b0 :
#182742
1&!
b100011110100011 '!
1.!
b100011110100011 /!
16!
b100011110100011 7!
1>!
b100011110100011 ?!
#182746
1d
b100011110100011 e
1l
b100011110100011 m
1t
b100011110100011 u
1|
b100011110100011 }
#182750
1D
b100011110100011 E
1L
b100011110100011 M
1T
b100011110100011 U
1\
b100011110100011 ]
#182756
1$
b100011110100011 %
1,
b100011110100011 -
14
b100011110100011 5
1<
b100011110100011 =
#183098
1#!
b1010110011111011 $!
1+!
b1010110100000001 ,!
13!
b1010110100000111 4!
1;!
b1010110100001101 <!
#183102
1a
b1010110100111111 b
1i
b1010110101000101 j
1q
b1010110101001011 r
1y
b1010110101010001 z
#183106
1A
b1010110101101011 B
1I
b1010110101110001 J
1Q
b1010110101110111 R
1Y
b1010110101111101 Z
#183112
1!
b1010110101111101 "
1)
b1010110110000011 *
11
b1010110110001001 2
19
b1010110110001111 :
#201081
0&!
b0 '!
0.!
b0 /!
06!
b0 7!
0>!
b0 ?!
#201082
1(!
b1 )!
10!
b1 1!
18!
b1 9!
1@!
b1 A!
#201083
0(!
b0 )!
00!
b0 1!
08!
b0 9!
0@!
b0 A!
#201085
0d
b0 e
0l
b0 m
0t
b0 u
0|
b0 }
b100 *!
b100 2!
b100 :!
b100 B!
#201086
1f
b1 g
1n
b1 o
1v
b1 w
1~
b1 !!
#201087
0f
b0 g
0n
b0 o
0v
b0 w
0~
b0 !!
#201089
0D
b0 E
0L
b0 M
0T
b0 U
0\
b0 ]
b100 h
b100 p
b100 x
b100 "!
#201090
1F
b1 G
1N
b1 O
1V
b1 W
1^
b1 _
#201091
0F
b0 G
0N
b0 O
0V
b0 W
0^
b0 _
#201093
b100 H
b100 P
b100 X
b100 `
#201095
0$
b0 %
0,
b0 -
04
b0 5
0<
b0 =
#201096
1&
b1 '
1.
b1 /
16
b1 7
1>
b1 ?
#201097
0&
b0 '
0.
b0 /
06
b0 7
0>
b0 ?
#201099
b100 (
b100 0
b100 8
b100 @
#227381
0#!
b0 $!
#227387
0+!
b0 ,!
#227393
03!
b0 4!
#227399
0;!
b0 <!
#227453
0a
b0 b
#227459
0i
b0 j
#227465
0q
b0 r
#227471
0y
b0 z
#227501
0A
b0 B
#227507
0I
b0 J
#227513
0Q
b0 R
#227519
0Y
b0 Z
#227525
0!
b0 "
#227531
0)
b0 *
#227537
01
b0 2
#227543
09
b0 :
#228492
1&!
b100011110100011 '!
1.!
b100011110100011 /!
16!
b100011110100011 7!
1>!
b100011110100011 ?!
#228496
1d
b100011110100011 e
1l
b100011110100011 m
1t
b100011110100011 u
1|
b100011110100011 }
#228500
1D
b100011110100011 E
1L
b100011110100011 M
1T
b100011110100011 U
1\
b100011110100011 ]
#228506
1$
b100011110100011 %
1,
b100011110100011 -
14
b100011110100011 5
1<
b100011110100011 =
#228848
1#!
b1010110011111011 $!
1+!
b1010110100000001 ,!
13!
b1010110100000111 4!
1;!
b1010110100001101 <!
#228852
1a
b1010110100111111 b
1i
b1010110101000101 j
1q
b1010110101001011 r
1y
b1010110101010001 z
#228856
1A
b1010110101101011 B
1I
b1010110101110001 J
1Q
b1010110101110111 R
1Y
b1010110101111101 Z
#228862
1!
b1010110101111101 "
1)
b1010110110000011 *
11
b1010110110001001 2
19
b1010110110001111 :
#246831
0&!
b0 '!
0.!
b0 /!
06!
b0 7!
0>!
b0 ?!
#246832
1(!
b1 )!
10!
b1 1!
18!
b1 9!
1@!
b1 A!
#246833
0(!
b0 )!
00!
b0 1!
08!
b0 9!
0@!
b0 A!
#246835
0d
b0 e
0l
b0 m
0t
b0 u
0|
b0 }
b101 *!
b101 2!
b101 :!
b101 B!
#246836
1f
b1 g
1n
b1 o
1v
b1 w
1~
b1 !!
#246837
0f
b0 g
0n
b0 o
0v
b0 w
0~
b0 !!
#246839
0D
b0 E
0L
b0 M
0T
b0 U
0\
b0 ]
b101 h
b101 p
b101 x
b101 "!
#246840
1F
b1 G
1N
b1 O
1V
b1 W
1^
b1 _
#246841
0F
b0 G
0N
b0 O
0V
b0 W
0^
b0 _
#246843
b101 H
b101 P
b101 X
b101 `
#246845
0$
b0 %
0,
b0 -
04
b0 5
0<
b0 =
#246846
1&
b1 '
1.
b1 /
16
b1 7
1>
b1 ?
#246847
0&
b0 '
0.
b0 /
06
b0 7
0>
b0 ?
#246849
b101 (
b101 0
b101 8
b101 @
#273131
0#!
b0 $!
#273137
0+!
b0 ,!
#273143
03!
b0 4!
#273149
0;!
b0 <!
#273203
0a
b0 b
#273209
0i
b0 j
#273215
0q
b0 r
#273221
0y
b0 z
#273251
0A
b0 B
#273257
0I
b0 J
#273263
0Q
b0 R
#273269
0Y
b0 Z
#273275
0!
b0 "
#273281
0)
b0 *
#273287
01
b0 2
#273293
09
b0 :
#274242
1&!
b100011110100011 '!
1.!
b100011110100011 /!
16!
b100011110100011 7!
1>!
b100011110100011 ?!
#274246
1d
b100011110100011 e
1l
b100011110100011 m
1t
b100011110100011 u
1|
b100011110100011 }
#274250
1D
b100011110100011 E
1L
b100011110100011 M
1T
b100011110100011 U
1\
b100011110100011 ]
#274256
1$
b100011110100011 %
1,
b100011110100011 -
14
b100011110100011 5
1<
b100011110100011 =
#274598
1#!
b1010110011111011 $!
1+!
b1010110100000001 ,!
13!
b1010110100000111 4!
1;!
b1010110100001101 <!
#274602
1a
b1010110100111111 b
1i
b1010110101000101 j
1q
b1010110101001011 r
1y
b1010110101010001 z
#274606
1A
b1010110101101011 B
1I
b1010110101110001 J
1Q
b1010110101110111 R
1Y
b1010110101111101 Z
#274612
1!
b1010110101111101 "
1)
b1010110110000011 *
11
b1010110110001001 2
19
b1010110110001111 :
#292581
0&!
b0 '!
0.!
b0 /!
06!
b0 7!
0>!
b0 ?!
#292582
1(!
b1 )!
10!
b1 1!
18!
b1 9!
1@!
b1 A!
#292583
0(!
b0 )!
00!
b0 1!
08!
b0 9!
0@!
b0 A!
#292585
0d
b0 e
0l
b0 m
0t
b0 u
0|
b0 }
b110 *!
b110 2!
b110 :!
b110 B!
#292586
1f
b1 g
1n
b1 o
1v
b1 w
1~
b1 !!
#292587
0f
b0 g
0n
b0 o
0v
b0 w
0~
b0 !!
#292589
0D
b0 E
0L
b0 M
0T
b0 U
0\
b0 ]
b110 h
b110 p
b110 x
b110 "!
#292590
1F
b1 G
1N
b1 O
1V
b1 W
1^
b1 _
#292591
0F
b0 G
0N
b0 O
0V
b0 W
0^
b0 _
#292593
b110 H
b110 P
b110 X
b110 `
#292595
0$
b0 %
0,
b0 -
04
b0 5
0<
b0 =
#292596
1&
b1 '
1.
b1 /
16
b1 7
1>
b1 ?
#292597
0&
b0 '
0.
b0 /
06
b0 7
0>
b0 ?
#292599
b110 (
b110 0
b110 8
b110 @
#318881
0#!
b0 $!
#318887
0+!
b0 ,!
#318893
03!
b0 4!
#318899
0;!
b0 <!
#318953
0a
b0 b
#318959
0i
b0 j
#318965
0q
b0 r
#318971
0y
b0 z
#319001
0A
b0 B
#319007
0I
b0 J
#319013
0Q
b0 R
#319019
0Y
b0 Z
#319025
0!
b0 "
#319031
0)
b0 *
#319037
01
b0 2
#319043
09
b0 :
#319992
1&!
b100011110100011 '!
1.!
b100011110100011 /!
16!
b100011110100011 7!
1>!
b100011110100011 ?!
#319996
1d
b100011110100011 e
1l
b100011110100011 m
1t
b100011110100011 u
1|
b100011110100011 }
#320000
1D
b100011110100011 E
1L
b100011110100011 M
1T
b100011110100011 U
1\
b100011110100011 ]
#320006
1$
b100011110100011 %
1,
b100011110100011 -
14
b100011110100011 5
1<
b100011110100011 =
#320348
1#!
b1010110011111011 $!
1+!
b1010110100000001 ,!
13!
b1010110100000111 4!
1;!
b1010110100001101 <!
#320352
1a
b1010110100111111 b
1i
b1010110101000101 j
1q
b1010110101001011 r
1y
b1010110101010001 z
#320356
1A
b1010110101101011 B
1I
b1010110101110001 J
1Q
b1010110101110111 R
1Y
b1010110101111101 Z
#320362
1!
b1010110101111101 "
1)
b1010110110000011 *
11
b1010110110001001 2
19
b1010110110001111 :
#338331
0&!
b0 '!
0.!
b0 /!
06!
b0 7!
0>!
b0 ?!
#338332
1(!
b1 )!
10!
b1 1!
18!
b1 9!
1@!
b1 A!
#338333
0(!
b0 )!
00!
b0 1!
08!
b0 9!
0@!
b0 A!
#338335
0d
b0 e
0l
b0 m
0t
b0 u
0|
b0 }
b111 *!
b111 2!
b111 :!
b111 B!
#338336
1f
b1 g
1n
b1 o
1v
b1 w
1~
b1 !!
#338337
0f
b0 g
0n
b0 o
0v
b0 w
0~
b0 !!
#338339
0D
b0 E
0L
b0 M
0T
b0 U
0\
b0 ]
b111 h
b111 p
b111 x
b111 "!
#338340
1F
b1 G
1N
b1 O
1V
b1 W
1^
b1 _
#338341
0F
b0 G
0N
b0 O
0V
b0 W
0^
b0 _
#338343
b111 H
b111 P
b111 X
b111 `
#338345
0$
b0 %
0,
b0 -
04
b0 5
0<
b0 =
#338346
1&
b1 '
1.
b1 /
16
b1 7
1>
b1 ?
#338347
0&
b0 '
0.
b0 /
06
b0 7
0>
b0 ?
#338349
b111 (
b111 0
b111 8
b111 @
#364631
0#!
b0 $!
#364637
0+!
b0 ,!
#364643
03!
b0 4!
#364649
0;!
b0 <!
#364703
0a
b0 b
#364709
0i
b0 j
#364715
0q
b0 r
#364721
0y
b0 z
#364751
0A
b0 B
#364757
0I
b0 J
#364763
0Q
b0 R
#364769
0Y
b0 Z
#364775
0!
b0 "
#364781
0)
b0 *
#364787
01
b0 2
#364793
09
b0 :
#365742
1&!
b100011110100011 '!
1.!
b100011110100011 /!
16!
b100011110100011 7!
1>!
b100011110100011 ?!
#365746
1d
b100011110100011 e
1l
b100011110100011 m
1t
b100011110100011 u
1|
b100011110100011 }
#365750
1D
b100011110100011 E
1L
b100011110100011 M
1T
b100011110100011 U
1\
b100011110100011 ]
#365756
1$
b100011110100011 %
1,
b100011110100011 -
14
b100011110100011 5
1<
b100011110100011 =
#366098
1#!
b1010110011111011 $!
1+!
b1010110100000001 ,!
13!
b1010110100000111 4!
1;!
b1010110100001101 <!
#366102
1a
b1010110100111111 b
1i
b1010110101000101 j
1q
b1010110101001011 r
1y
b1010110101010001 z
#366106
1A
b1010110101101011 B
1I
b1010110101110001 J
1Q
b1010110101110111 R
1Y
b1010110101111101 Z
#366112
1!
b1010110101111101 "
1)
b1010110110000011 *
11
b1010110110001001 2
19
b1010110110001111 :
#384081
0&!
b0 '!
0.!
b0 /!
06!
b0 7!
0>!
b0 ?!
#384082
1(!
b1 )!
10!
b1 1!
18!
b1 9!
1@!
b1 A!
#384083
0(!
b0 )!
00!
b0 1!
08!
b0 9!
0@!
b0 A!
#384085
0d
b0 e
0l
b0 m
0t
b0 u
0|
b0 }
b1000 *!
b1000 2!
b1000 :!
b1000 B!
#384086
1f
b1 g
1n
b1 o
1v
b1 w
1~
b1 !!
#384087
0f
b0 g
0n
b0 o
0v
b0 w
0~
b0 !!
#384089
0D
b0 E
0L
b0 M
0T
b0 U
0\
b0 ]
b1000 h
b1000 p
b1000 x
b1000 "!
#384090
1F
b1 G
1N
b1 O
1V
b1 W
1^
b1 _
#384091
0F
b0 G
0N
b0 O
0V
b0 W
0^
b0 _
#384093
b1000 H
b1000 P
b1000 X
b1000 `
#384095
0$
b0 %
0,
b0 -
04
b0 5
0<
b0 =
#384096
1&
b1 '
1.
b1 /
16
b1 7
1>
b1 ?
#384097
0&
b0 '
0.
b0 /
06
b0 7
0>
b0 ?
#384099
b1000 (
b1000 0
b1000 8
b1000 @
#410381
0#!
b0 $!
#410387
0+!
b0 ,!
#410393
03!
b0 4!
#410399
0;!
b0 <!
#410453
0a
b0 b
#410459
0i
b0 j
#410465
0q
b0 r
#410471
0y
b0 z
#410501
0A
b0 B
#410507
0I
b0 J
#410513
0Q
b0 R
#410519
0Y
b0 Z
#410525
0!
b0 "
#410531
0)
b0 *
#410537
01
b0 2
#410543
09
b0 :
#411492
1&!
b100011110100011 '!
1.!
b100011110100011 /!
16!
b100011110100011 7!
1>!
b100011110100011 ?!
#411496
1d
b100011110100011 e
1l
b100011110100011 m
1t
b100011110100011 u
1|
b100011110100011 }
#411500
1D
b100011110100011 E
1L
b100011110100011 M
1T
b100011110100011 U
1\
b100011110100011 ]
#411506
1$
b100011110100011 %
1,
b100011110100011 -
14
b100011110100011 5
1<
b100011110100011 =
#411848
1#!
b1010110011111011 $!
1+!
b1010110100000001 ,!
13!
b1010110100000111 4!
1;!
b1010110100001101 <!
#411852
1a
b1010110100111111 b
1i
b1010110101000101 j
1q
b1010110101001011 r
1y
b1010110101010001 z
#411856
1A
b1010110101101011 B
1I
b1010110101110001 J
1Q
b1010110101110111 R
1Y
b1010110101111101 Z
#411862
1!
b1010110101111101 "
1)
b1010110110000011 *
11
b1010110110001001 2
19
b1010110110001111 :
#429831
0&!
b0 '!
0.!
b0 /!
06!
b0 7!
0>!
b0 ?!
#429832
1(!
b1 )!
10!
b1 1!
18!
b1 9!
1@!
b1 A!
#429833
0(!
b0 )!
00!
b0 1!
08!
b0 9!
0@!
b0 A!
#429835
0d
b0 e
0l
b0 m
0t
b0 u
0|
b0 }
b1001 *!
b1001 2!
b1001 :!
b1001 B!
#429836
1f
b1 g
1n
b1 o
1v
b1 w
1~
b1 !!
#429837
0f
b0 g
0n
b0 o
0v
b0 w
0~
b0 !!
#429839
0D
b0 E
0L
b0 M
0T
b0 U
0\
b0 ]
b1001 h
b1001 p
b1001 x
b1001 "!
#429840
1F
b1 G
1N
b1 O
1V
b1 W
1^
b1 _
#429841
0F
b0 G
0N
b0 O
0V
b0 W
0^
b0 _
#429843
b1001 H
b1001 P
b1001 X
b1001 `
#429845
0$
b0 %
0,
b0 -
04
b0 5
0<
b0 =
#429846
1&
b1 '
1.
b1 /
16
b1 7
1>
b1 ?
#429847
0&
b0 '
0.
b0 /
06
b0 7
0>
b0 ?
#429849
b1001 (
b1001 0
b1001 8
b1001 @
#456131
0#!
b0 $!
#456137
0+!
b0 ,!
#456143
03!
b0 4!
#456149
0;!
b0 <!
#456203
0a
b0 b
#456209
0i
b0 j
#456215
0q
b0 r
#456221
0y
b0 z
#456251
0A
b0 B
#456257
0I
b0 J
#456263
0Q
b0 R
#456269
0Y
b0 Z
#456275
0!
b0 "
#456281
0)
b0 *
#456287
01
b0 2
#456293
09
b0 :
#457242
1&!
b100011110100011 '!
1.!
b100011110100011 /!
16!
b100011110100011 7!
1>!
b100011110100011 ?!
#457246
1d
b100011110100011 e
1l
b100011110100011 m
1t
b100011110100011 u
1|
b100011110100011 }
#457250
1D
b100011110100011 E
1L
b100011110100011 M
1T
b100011110100011 U
1\
b100011110100011 ]
#457256
1$
b100011110100011 %
1,
b100011110100011 -
14
b100011110100011 5
1<
b100011110100011 =
#457598
1#!
b1010110011111011 $!
1+!
b1010110100000001 ,!
13!
b1010110100000111 4!
1;!
b1010110100001101 <!
#457602
1a
b1010110100111111 b
1i
b1010110101000101 j
1q
b1010110101001011 r
1y
b1010110101010001 z
#457606
1A
b1010110101101011 B
1I
b1010110101110001 J
1Q
b1010110101110111 R
1Y
b1010110101111101 Z
#457612
1!
b1010110101111101 "
1)
b1010110110000011 *
11
b1010110110001001 2
19
b1010110110001111 :
#475581
0&!
b0 '!
0.!
b0 /!
06!
b0 7!
0>!
b0 ?!
#475582
1(!
b1 )!
10!
b1 1!
18!
b1 9!
1@!
b1 A!
#475583
0(!
b0 )!
00!
b0 1!
08!
b0 9!
0@!
b0 A!
#475585
0d
b0 e
0l
b0 m
0t
b0 u
0|
b0 }
b1010 *!
b1010 2!
b1010 :!
b1010 B!
#475586
1f
b1 g
1n
b1 o
1v
b1 w
1~
b1 !!
#475587
0f
b0 g
0n
b0 o
0v
b0 w
0~
b0 !!
#475589
0D
b0 E
0L
b0 M
0T
b0 U
0\
b0 ]
b1010 h
b1010 p
b1010 x
b1010 "!
#475590
1F
b1 G
1N
b1 O
1V
b1 W
1^
b1 _
#475591
0F
b0 G
0N
b0 O
0V
b0 W
0^
b0 _
#475593
b1010 H
b1010 P
b1010 X
b1010 `
#475595
0$
b0 %
0,
b0 -
04
b0 5
0<
b0 =
#475596
1&
b1 '
1.
b1 /
16
b1 7
1>
b1 ?
