conv3x3_6layers/conv3x3_1.vcd
$date today $end
$timescale 1 ns $end
$scope module top $end
$scope module slice0 $end
$var integer 1 ! prefetch $end
$var integer 32 " prefetch_time $end
$var integer 1 # config $end
$var integer 1 $ compute $end
$var integer 32 % compute_time $end
$var integer 1 & write_back $end
$var integer 32 ' write_back_time $end
$var integer 10 ( TG_id $end
$upscope $end
$scope module slice1 $end
$var integer 1 ) prefetch $end
$var integer 32 * prefetch_time $end
$var integer 1 + config $end
$var integer 1 , compute $end
$var integer 32 - compute_time $end
$var integer 1 . write_back $end
$var integer 32 / write_back_time $end
$var integer 10 0 TG_id $end
$upscope $end
$scope module slice10 $end
$var integer 1 q prefetch $end
$var integer 32 r prefetch_time $end
$var integer 1 s config $end
$var integer 1 t compute $end
$var integer 32 u compute_time $end
$var integer 1 v write_back $end
$var integer 32 w write_back_time $end
$var integer 10 x TG_id $end
$upscope $end
$scope module slice11 $end
$var integer 1 y prefetch $end
$var integer 32 z prefetch_time $end
$var integer 1 { config $end
$var integer 1 | compute $end
$var integer 32 } compute_time $end
$var integer 1 ~ write_back $end
$var integer 32 !! write_back_time $end
$var integer 10 "! TG_id $end
$upscope $end
$scope module slice12 $end
$var integer 1 #! prefetch $end
$var integer 32 $! prefetch_time $end
$var integer 1 %! config $end
$var integer 1 &! compute $end
$var integer 32 '! compute_time $end
$var integer 1 (! write_back $end
$var integer 32 )! write_back_time $end
$var integer 10 *! TG_id $end
$upscope $end
$scope module slice13 $end
$var integer 1 +! prefetch $end
$var integer 32 ,! prefetch_time $end
$var integer 1 -! config $end
$var integer 1 .! compute $end
$var integer 32 /! compute_time $end
$var integer 1 0! write_back $end
$var integer 32 1! write_back_time $end
$var integer 10 2! TG_id $end
$upscope $end
$scope module slice14 $end
$var integer 1 3! prefetch $end
$var integer 32 4! prefetch_time $end
$var integer 1 5! config $end
$var integer 1 6! compute $end
$var integer 32 7! compute_time $end
$var integer 1 8! write_back $end
$var integer 32 9! write_back_time $end
$var integer 10 :! TG_id $end
$upscope $end
$scope module slice15 $end
$var integer 1 ;! prefetch $end
$var integer 32 <! prefetch_time $end
$var integer 1 =! config $end
$var integer 1 >! compute $end
$var integer 32 ?! compute_time $end
$var integer 1 @! write_back $end
$var integer 32 A! write_back_time $end
$var integer 10 B! TG_id $end
$upscope $end
$scope module slice2 $end
$var integer 1 1 prefetch $end
$var integer 32 2 prefetch_time $end
$var integer 1 3 config $end
$var integer 1 4 compute $end
$var integer 32 5 compute_time $end
$var integer 1 6 write_back $end
$var integer 32 7 write_back_time $end
$var integer 10 8 TG_id $end
$upscope $end
$scope module slice3 $end
$var integer 1 9 prefetch $end
$var integer 32 : prefetch_time $end
$var integer 1 ; config $end
$var integer 1 < compute $end
$var integer 32 = compute_time $end
$var integer 1 > write_back $end
$var integer 32 ? write_back_time $end
$var integer 10 @ TG_id $end
$upscope $end
$scope module slice4 $end
$var integer 1 A prefetch $end
$var integer 32 B prefetch_time $end
$var integer 1 C config $end
$var integer 1 D compute $end
$var integer 32 E compute_time $end
$var integer 1 F write_back $end
$var integer 32 G write_back_time $end
$var integer 10 H TG_id $end
$upscope $end
$scope module slice5 $end
$var integer 1 I prefetch $end
$var integer 32 J prefetch_time $end
$var integer 1 K config $end
$var integer 1 L compute $end
$var integer 32 M compute_time $end
$var integer 1 N write_back $end
$var integer 32 O write_back_time $end
$var integer 10 P TG_id $end
$upscope $end
$scope module slice6 $end
$var integer 1 Q prefetch $end
$var integer 32 R prefetch_time $end
$var integer 1 S config $end
$var integer 1 T compute $end
$var integer 32 U compute_time $end
$var integer 1 V write_back $end
$var integer 32 W write_back_time $end
$var integer 10 X TG_id $end
$upscope $end
$scope module slice7 $end
$var integer 1 Y prefetch $end
$var integer 32 Z prefetch_time $end
$var integer 1 [ config $end
$var integer 1 \ compute $end
$var integer 32 ] compute_time $end
$var integer 1 ^ write_back $end
$var integer 32 _ write_back_time $end
$var integer 10 ` TG_id $end
$upscope $end
$scope module slice8 $end
$var integer 1 a prefetch $end
$var integer 32 b prefetch_time $end
$var integer 1 c config $end
$var integer 1 d compute $end
$var integer 32 e compute_time $end
$var integer 1 f write_back $end
$var integer 32 g write_back_time $end
$var integer 10 h TG_id $end
$upscope $end
$scope module slice9 $end
$var integer 1 i prefetch $end
$var integer 32 j prefetch_time $end
$var integer 1 k config $end
$var integer 1 l compute $end
$var integer 32 m compute_time $end
$var integer 1 n write_back $end
$var integer 32 o write_back_time $end
$var integer 10 p TG_id $end
$upscope $end
$upscope $end
$enddefinitions $end
#0
$dumpvars
0!
b0 "
0#
0$
b0 %
0&
b0 '
b0 (
0)
b0 *
0+
0,
b0 -
0.
b0 /
b0 0
01
b0 2
03
04
b0 5
06
b0 7
b0 8
09
b0 :
0;
0<
b0 =
0>
b0 ?
b0 @
0A
b0 B
0C
0D
b0 E
0F
b0 G
b0 H
0I
b0 J
0K
0L
b0 M
0N
b0 O
b0 P
0Q
b0 R
0S
0T
b0 U
0V
b0 W
b0 X
0Y
b0 Z
0[
0\
b0 ]
0^
b0 _
b0 `
0a
b0 b
0c
0d
b0 e
0f
b0 g
b0 h
0i
b0 j
0k
0l
b0 m
0n
b0 o
b0 p
0q
b0 r
0s
0t
b0 u
0v
b0 w
b0 x
0y
b0 z
0{
0|
b0 }
0~
b0 !!
b0 "!
1#!
b11011010100101 $!
0%!
0&!
b0 '!
0(!
b0 )!
b0 *!
1+!
b11011010110101 ,!
0-!
0.!
b0 /!
00!
b0 1!
b0 2!
13!
b11011011000101 4!
05!
06!
b0 7!
08!
b0 9!
b0 :!
1;!
b11011011010101 <!
0=!
0>!
b0 ?!
0@!
b0 A!
b0 B!
$end
#2
1a
b11011110001011 b
1i
b11011110011011 j
1q
b11011110101011 r
1y
b11011110111011 z
#4
1A
b11011100111011 B
1I
b11011101001011 J
1Q
b11011101011011 R
1Y
b11011101101011 Z
#6
1!
b11011111010101 "
1)
b11011111100101 *
11
b11011111110101 2
19
b11100000000101 :
#13989
0#!
b0 $!
#14005
0+!
b0 ,!
#14021
03!
b0 4!
#14037
0;!
b0 <!
#14143
0A
b0 B
#14159
0I
b0 J
#14175
0Q
b0 R
#14191
0Y
b0 Z
#14221
0a
b0 b
#14237
0i
b0 j
#14253
0q
b0 r
#14269
0y
b0 z
#14299
0!
b0 "
#14315
0)
b0 *
#14331
01
b0 2
#14347
09
b0 :
#15140
1&!
b10001010000111 '!
1.!
b10001010000111 /!
16!
b10001010000111 7!
1>!
b10001010000111 ?!
#15142
1d
b10001010000111 e
1l
b10001010000111 m
1t
b10001010000111 u
1|
b10001010000111 }
#15144
1D
b10001010000111 E
1L
b10001010000111 M
1T
b10001010000111 U
1\
b10001010000111 ]
#15178
1$
b10001010000111 %
1,
b10001010000111 -
14
b10001010000111 5
1<
b10001010000111 =
#15652
1#!
b100000101111011 $!
1+!
b100000110010101 ,!
13!
b100000110100101 4!
1;!
b100000110110101 <!
#15654
1a
b100001001101001 b
1i
b100001001111011 j
1q
b100001010001011 r
1y
b100001010011011 z
#15656
1A
b100001000011001 B
1I
b100001000101011 J
1Q
b100001000111011 R
1Y
b100001001001011 Z
#15658
1!
b100001010110011 "
1)
b100001011000101 *
11
b100001011010101 2
19
b100001011100101 :
#23979
0&!
b0 '!
0.!
b0 /!
06!
b0 7!
0>!
b0 ?!
#23980
1(!
b1 )!
10!
b1 1!
18!
b1 9!
1@!
b1 A!
#23981
0d
b0 e
0l
b0 m
0t
b0 u
0|
b0 }
0(!
b0 )!
00!
b0 1!
08!
b0 9!
0@!
b0 A!
#23982
1f
b1 g
1n
b1 o
1v
b1 w
1~
b1 !!
#23983
0D
b0 E
0L
b0 M
0T
b0 U
0\
b0 ]
0f
b0 g
0n
b0 o
0v
b0 w
0~
b0 !!
b1 *!
b1 2!
b1 :!
b1 B!
#23984
1F
b1 G
1N
b1 O
1V
b1 W
1^
b1 _
#23985
0F
b0 G
0N
b0 O
0V
b0 W
0^
b0 _
b1 h
b1 p
b1 x
b1 "!
#23987
b1 H
b1 P
b1 X
b1 `
#24017
0$
b0 %
0,
b0 -
04
b0 5
0<
b0 =
#24018
1&
b1 '
1.
b1 /
16
b1 7
1>
b1 ?
#24019
0&
b0 '
0.
b0 /
06
b0 7
0>
b0 ?
#24021
b1 (
b1 0
b1 8
b1 @
#32415
0#!
b0 $!
#32441
0+!
b0 ,!
#32457
03!
b0 4!
#32473
0;!
b0 <!
#32577
0A
b0 B
#32595
0I
b0 J
#32611
0Q
b0 R
#32627
0Y
b0 Z
#32655
0a
b0 b
#32673
0i
b0 j
#32689
0q
b0 r
#32705
0y
b0 z
#32733
0!
b0 "
#32751
0)
b0 *
#32767
01
b0 2
#32783
09
b0 :
#33038
1&!
b10001010000111 '!
1.!
b10001010000111 /!
16!
b10001010000111 7!
1>!
b10001010000111 ?!
#33040
1d
b10001010000111 e
1l
b10001010000111 m
1t
b10001010000111 u
1|
b10001010000111 }
#33042
1D
b10001010000111 E
1L
b10001010000111 M
1T
b10001010000111 U
1\
b10001010000111 ]
#33044
1$
b10001010000111 %
1,
b10001010000111 -
14
b10001010000111 5
1<
b10001010000111 =
#33518
1#!
b11011100111101 $!
1+!
b11011101010111 ,!
13!
b11011101100111 4!
1;!
b11011101110111 <!
#33520
1a
b11100000100011 b
1i
b11100000111101 j
1q
b11100001001101 r
1y
b11100001011101 z
#33522
1A
b11011111010011 B
1I
b11011111101101 J
1Q
b11011111111101 R
1Y
b11100000001101 Z
#33524
1!
b11100001101101 "
1)
b11100010000111 *
11
b11100010010111 2
19
b11100010100111 :
#41877
0&!
b0 '!
0.!
b0 /!
06!
b0 7!
0>!
b0 ?!
#41878
1(!
b1 )!
10!
b1 1!
18!
b1 9!
1@!
b1 A!
#41879
0d
b0 e
0l
b0 m
0t
b0 u
0|
b0 }
0(!
b0 )!
00!
b0 1!
08!
b0 9!
0@!
b0 A!
#41880
1f
b1 g
1n
b1 o
1v
b1 w
1~
b1 !!
#41881
0D
b0 E
0L
b0 M
0T
b0 U
0\
b0 ]
0f
b0 g
0n
b0 o
0v
b0 w
0~
b0 !!
b10 *!
b10 2!
b10 :!
b10 B!
#41882
1F
b1 G
1N
b1 O
1V
b1 W
1^
b1 _
#41883
0$
b0 %
0,
b0 -
04
b0 5
0<
b0 =
0F
b0 G
0N
b0 O
0V
b0 W
0^
b0 _
b10 h
b10 p
b10 x
b10 "!
#41884
1&
b1 '
1.
b1 /
16
b1 7
1>
b1 ?
#41885
0&
b0 '
0.
b0 /
06
b0 7
0>
b0 ?
b10 H
b10 P
b10 X
b10 `
#41887
b10 (
b10 0
b10 8
b10 @
#47659
0#!
b0 $!
#47685
0+!
b0 ,!
#47701
03!
b0 4!
#47717
0;!
b0 <!
#47813
0A
b0 B
#47839
0I
b0 J
#47855
0Q
b0 R
#47871
0Y
b0 Z
#47891
0a
b0 b
#47917
0i
b0 j
#47933
0q
b0 r
#47949
0y
b0 z
#47969
0!
b0 "
#47995
0)
b0 *
#48011
01
b0 2
#48027
09
b0 :
#48576
1&!
b10001010000111 '!
1.!
b10001010000111 /!
16!
b10001010000111 7!
1>!
b10001010000111 ?!
#48578
1d
b10001010000111 e
1l
b10001010000111 m
1t
b10001010000111 u
1|
b10001010000111 }
#48580
1D
b10001010000111 E
1L
b10001010000111 M
1T
b10001010000111 U
1\
b10001010000111 ]
#48582
1$
b10001010000111 %
1,
b10001010000111 -
14
b10001010000111 5
1<
b10001010000111 =
#49056
1#!
b100000100011001 $!
1+!
b100000100101011 ,!
13!
b100000100111011 4!
1;!
b100000101001011 <!
#49058
1a
b100000111111111 b
1i
b100001000010001 j
1q
b100001000100001 r
1y
b100001000110001 z
#49060
1A
b100000110101111 B
1I
b100000111000001 J
1Q
b100000111010001 R
1Y
b100000111100001 Z
#49062
1!
b100001001001001 "
1)
b100001001011011 *
11
b100001001101011 2
19
b100001001111011 :
#57415
0&!
b0 '!
0.!
b0 /!
06!
b0 7!
0>!
b0 ?!
#57416
1(!
b1 )!
10!
b1 1!
18!
b1 9!
1@!
b1 A!
#57417
0d
b0 e
0l
b0 m
0t
b0 u
0|
b0 }
0(!
b0 )!
00!
b0 1!
08!
b0 9!
0@!
b0 A!
#57418
1f
b1 g
1n
b1 o
1v
b1 w
1~
b1 !!
#57419
0D
b0 E
0L
b0 M
0T
b0 U
0\
b0 ]
0f
b0 g
0n
b0 o
0v
b0 w
0~
b0 !!
b11 *!
b11 2!
b11 :!
b11 B!
#57420
1F
b1 G
1N
b1 O
1V
b1 W
1^
b1 _
#57421
0$
b0 %
0,
b0 -
04
b0 5
0<
b0 =
0F
b0 G
0N
b0 O
0V
b0 W
0^
b0 _
b11 h
b11 p
b11 x
b11 "!
#57422
1&
b1 '
1.
b1 /
16
b1 7
1>
b1 ?
#57423
0&
b0 '
0.
b0 /
06
b0 7
0>
b0 ?
b11 H
b11 P
b11 X
b11 `
#57425
b11 (
b11 0
b11 8
b11 @
#65721
0#!
b0 $!
#65739
0+!
b0 ,!
#65755
03!
b0 4!
#65771
0;!
b0 <!
#65875
0A
b0 B
#65893
0I
b0 J
#65909
0Q
b0 R
#65925
0Y
b0 Z
#65953
0a
b0 b
#65971
0i
b0 j
#65987
0q
b0 r
#66003
0y
b0 z
#66031
0!
b0 "
#66049
0)
b0 *
#66065
01
b0 2
#66081
09
b0 :
#66352
1&!
b10001010000111 '!
1.!
b10001010000111 /!
16!
b10001010000111 7!
1>!
b10001010000111 ?!
#66354
1d
b10001010000111 e
1l
b10001010000111 m
1t
b10001010000111 u
1|
b10001010000111 }
#66356
1D
b10001010000111 E
1L
b10001010000111 M
1T
b10001010000111 U
1\
b10001010000111 ]
#66358
1$
b10001010000111 %
1,
b10001010000111 -
14
b10001010000111 5
1<
b10001010000111 =
#66832
1#!
b11011011001101 $!
1+!
b11011011011101 ,!
13!
b11011011101101 4!
1;!
b11011011111101 <!
#66834
1a
b11011110110011 b
1i
b11011111000011 j
1q
b11011111010011 r
1y
b11011111100011 z
#66836
1A
b11011101100011 B
1I
b11011101110011 J
1Q
b11011110000011 R
1Y
b11011110010011 Z
#66838
1!
b11011111111101 "
1)
b11100000001101 *
11
b11100000011101 2
19
b11100000101101 :
#75191
0&!
b0 '!
0.!
b0 /!
06!
b0 7!
0>!
b0 ?!
#75192
1(!
b1 )!
10!
b1 1!
18!
b1 9!
1@!
b1 A!
#75193
0d
b0 e
0l
b0 m
0t
b0 u
0|
b0 }
0(!
b0 )!
00!
b0 1!
08!
b0 9!
0@!
b0 A!
#75194
1f
b1 g
1n
b1 o
1v
b1 w
1~
b1 !!
#75195
0D
b0 E
0L
b0 M
0T
b0 U
0\
b0 ]
0f
b0 g
0n
b0 o
0v
b0 w
0~
b0 !!
b100 *!
b100 2!
b100 :!
b100 B!
#75196
1F
b1 G
1N
b1 O
1V
b1 W
1^
b1 _
#75197
0$
b0 %
0,
b0 -
04
b0 5
0<
b0 =
0F
b0 G
0N
b0 O
0V
b0 W
0^
b0 _
b100 h
b100 p
b100 x
b100 "!
#75198
1&
b1 '
1.
b1 /
16
b1 7
1>
b1 ?
#75199
0&
b0 '
0.
b0 /
06
b0 7
0>
b0 ?
b100 H
b100 P
b100 X
b100 `
#75201
b100 (
b100 0
b100 8
b100 @
#80861
0#!
b0 $!
#80877
0+!
b0 ,!
#80893
03!
b0 4!
#80909
0;!
b0 <!
#81015
0A
b0 B
#81031
0I
b0 J
#81047
0Q
b0 R
#81063
0Y
b0 Z
#81093
0a
b0 b
#81109
0i
b0 j
#81125
0q
b0 r
#81141
0y
b0 z
#81171
0!
b0 "
#81187
0)
b0 *
#81203
01
b0 2
#81219
09
b0 :
#81868
1&!
b10001010000111 '!
1.!
b10001010000111 /!
16!
b10001010000111 7!
1>!
b10001010000111 ?!
#81870
1d
b10001010000111 e
1l
b10001010000111 m
1t
b10001010000111 u
1|
b10001010000111 }
#81872
1D
b10001010000111 E
1L
b10001010000111 M
1T
b10001010000111 U
1\
b10001010000111 ]
#81874
1$
b10001010000111 %
1,
b10001010000111 -
14
b10001010000111 5
1<
b10001010000111 =
#82348
1#!
b100001001101111 $!
1+!
b100001001111111 ,!
13!
b100001010001111 4!
1;!
b100001010011111 <!
#82350
1a
b100001101010101 b
1i
b100001101100101 j
1q
b100001101110101 r
1y
b100001110000101 z
#82352
1A
b100001100000101 B
1I
b100001100010101 J
1Q
b100001100100101 R
1Y
b100001100110101 Z
#82354
1!
b100001110011111 "
1)
b100001110101111 *
11
b100001110111111 2
19
b100001111001111 :
#90707
0&!
b0 '!
0.!
b0 /!
06!
b0 7!
0>!
b0 ?!
#90708
1(!
b1 )!
10!
b1 1!
18!
b1 9!
1@!
b1 A!
#90709
0d
b0 e
0l
b0 m
0t
b0 u
0|
b0 }
0(!
b0 )!
00!
b0 1!
08!
b0 9!
0@!
b0 A!
#90710
1f
b1 g
1n
b1 o
1v
b1 w
1~
b1 !!
#90711
0D
b0 E
0L
b0 M
0T
b0 U
0\
b0 ]
0f
b0 g
0n
b0 o
0v
b0 w
0~
b0 !!
b101 *!
b101 2!
b101 :!
b101 B!
#90712
1F
b1 G
1N
b1 O
1V
b1 W
1^
b1 _
#90713
0$
b0 %
0,
b0 -
04
b0 5
0<
b0 =
0F
b0 G
0N
b0 O
0V
b0 W
0^
b0 _
b101 h
b101 p
b101 x
b101 "!
#90714
1&
b1 '
1.
b1 /
16
b1 7
1>
b1 ?
#90715
0&
b0 '
0.
b0 /
06
b0 7
0>
b0 ?
b101 H
b101 P
b101 X
b101 `
#90717
b101 (
b101 0
b101 8
b101 @
#99355
0#!
b0 $!
#99371
0+!
b0 ,!
#99387
03!
b0 4!
#99403
0;!
b0 <!
#99509
0A
b0 B
#99525
0I
b0 J
#99541
0Q
b0 R
#99557
0Y
b0 Z
#99587
0a
b0 b
#99603
0i
b0 j
#99619
0q
b0 r
#99635
0y
b0 z
#99665
0!
b0 "
#99681
0)
b0 *
#99697
01
b0 2
#99713
09
b0 :
#100002
1&!
b10001010000111 '!
1.!
b10001010000111 /!
16!
b10001010000111 7!
1>!
b10001010000111 ?!
#100004
1d
b10001010000111 e
1l
b10001010000111 m
1t
b10001010000111 u
1|
b10001010000111 }
#100006
1D
b10001010000111 E
1L
b10001010000111 M
1T
b10001010000111 U
1\
b10001010000111 ]
#100040
1$
b10001010000111 %
1,
b10001010000111 -
14
b10001010000111 5
1<
b10001010000111 =
#100514
1#!
b11011011001111 $!
1+!
b11011011110101 ,!
13!
b11011100000101 4!
1;!
b11011100010101 <!
#100516
1a
b11011110110101 b
1i
b11011111011011 j
1q
b11011111101011 r
1y
b11011111111011 z
#100518
1A
b11011101100101 B
1I
b11011110001011 J
1Q
b11011110011011 R
1Y
b11011110101011 Z
#100520
1!
b11011111111111 "
1)
b11100000100101 *
11
b11100000110101 2
19
b11100001000101 :
#108841
0&!
b0 '!
0.!
b0 /!
06!
b0 7!
0>!
b0 ?!
#108842
1(!
b1 )!
10!
b1 1!
18!
b1 9!
1@!
b1 A!
#108843
0d
b0 e
0l
b0 m
0t
b0 u
0|
b0 }
0(!
b0 )!
00!
b0 1!
08!
b0 9!
0@!
b0 A!
#108844
1f
b1 g
1n
b1 o
1v
b1 w
1~
b1 !!
#108845
0D
b0 E
0L
b0 M
0T
b0 U
0\
b0 ]
0f
b0 g
0n
b0 o
0v
b0 w
0~
b0 !!
b110 *!
b110 2!
b110 :!
b110 B!
#108846
1F
b1 G
1N
b1 O
1V
b1 W
1^
b1 _
#108847
0F
b0 G
0N
b0 O
0V
b0 W
0^
b0 _
b110 h
b110 p
b110 x
b110 "!
#108849
b110 H
b110 P
b110 X
b110 `
#108879
0$
b0 %
0,
b0 -
04
b0 5
0<
b0 =
#108880
1&
b1 '
1.
b1 /
16
b1 7
1>
b1 ?
#108881
0&
b0 '
0.
b0 /
06
b0 7
0>
b0 ?
#108883
b110 (
b110 0
b110 8
b110 @
#114545
0#!
b0 $!
#114583
0+!
b0 ,!
#114599
03!
b0 4!
#114615
0;!
b0 <!
#114699
0A
b0 B
#114737
0I
b0 J
#114753
0Q
b0 R
#114769
0Y
b0 Z
#114777
0a
b0 b
#114815
0i
b0 j
#114831
0q
b0 r
#114847
0y
b0 z
#114855
0!
b0 "
#114893
0)
b0 *
#114909
01
b0 2
#114925
09
b0 :
#115604
1&!
b10001010000111 '!
1.!
b10001010000111 /!
16!
b10001010000111 7!
1>!
b10001010000111 ?!
#115606
1d
b10001010000111 e
1l
b10001010000111 m
1t
b10001010000111 u
1|
b10001010000111 }
#115608
1D
b10001010000111 E
1L
b10001010000111 M
1T
b10001010000111 U
1\
b10001010000111 ]
#115610
1$
b10001010000111 %
1,
b10001010000111 -
14
b10001010000111 5
1<
b10001010000111 =
#116084
1#!
b100000101110101 $!
1+!
b100000110000101 ,!
13!
b100000110010101 4!
1;!
b100000110100101 <!
#116086
1a
b100001011100111 b
1i
b100001011101001 j
1q
b100001011110001 r
1y
b100001111101011 z
#116088
1A
b100001000001011 B
1I
b100001001100011 J
1Q
b100001001100111 R
1Y
b100001011100011 Z
#116090
1!
b100001111101011 "
1)
b100001111101111 *
11
b100001111110011 2
19
b100010011000001 :
#124443
0&!
b0 '!
0.!
b0 /!
06!
b0 7!
0>!
b0 ?!
#124444
1(!
b101010101011000 )!
10!
b101010101011011 1!
18!
b101011001001000 9!
1@!
b101011001001011 A!
#124445
0d
b0 e
0l
b0 m
0t
b0 u
0|
b0 }
#124446
1f
b101100010111100 g
1n
b101100010111111 o
1v
b101100011000010 w
1~
b101100101000101 !!
#124447
0D
b0 E
0L
b0 M
0T
b0 U
0\
b0 ]
#124448
1F
b101011101011010 G
1N
b101100000011000 O
1V
b101100000011011 W
1^
b101100010110111 _
#124449
0$
b0 %
0,
b0 -
04
b0 5
0<
b0 =
#124450
1&
b101100100100111 '
1.
b101100100101010 /
16
b101100100101101 7
1>
b101100101000101 ?
#132841
0#!
b0 $!
#132857
0+!
b0 ,!
#132873
03!
b0 4!
#132889
0;!
b0 <!
#132995
0A
b0 B
#133083
0I
b0 J
#133087
0Q
b0 R
#133211
0Y
b0 Z
#133213
0a
b0 b
#133215
0i
b0 j
#133223
0q
b0 r
#133473
0y
b0 z
#133477
0!
b0 "
#133481
0)
b0 *
#133485
01
b0 2
#133691
09
b0 :
#146292
0(!
b0 )!
#146294
b111 *!
#146295
00!
b0 1!
#146297
b111 2!
#146299
1&!
b10001010000111 '!
#146300
1.!
b10001010000111 /!
#146532
08!
b0 9!
#146534
b111 :!
#146535
0@!
b0 A!
#146537
b111 B!
#146541
16!
b10001010000111 7!
#146542
1>!
b10001010000111 ?!
#146810
0F
b0 G
#146812
b111 H
#146819
1D
b10001010000111 E
#147000
0N
b0 O
#147002
b111 P
#147003
0V
b0 W
#147005
b111 X
#147012
1L
b10001010000111 M
#147013
1T
b10001010000111 U
#147159
0^
b0 _
#147161
b111 `
#147162
0f
b0 g
#147164
b111 h
#147165
0n
b0 o
#147167
b111 p
#147168
0v
b0 w
#147170
b111 x
#147174
1\
b10001010000111 ]
#147175
1d
b10001010000111 e
#147176
1l
b10001010000111 m
#147177
1t
b10001010000111 u
#147273
0&
b0 '
#147275
b111 (
#147276
0.
b0 /
#147278
b111 0
#147279
1$
b10001010000111 %
06
b0 7
#147280
1,
b10001010000111 -
#147281
b111 8
#147297
14
b10001010000111 5
#147299
0~
b0 !!
#147301
b111 "!
#147303
0>
b0 ?
#147305
b111 @
#147306
1|
b10001010000111 }
#147314
1<
b10001010000111 =
#147724
1#!
b11111101010011 $!
1+!
b11111101100011 ,!
13!
b11111101110011 4!
1;!
b11111110000011 <!
#147726
1a
b100000011100011 b
1i
b100000111111111 j
1q
b100001000000011 r
1y
b100001000000111 z
#147728
1A
b11111111101001 B
1I
b100000011011011 J
1Q
b100000011011101 R
1Y
b100000011011111 Z
#147730
1!
b100001000000111 "
1)
b100001100100011 *
11
b100001100110111 2
19
b100010000001111 :
#155138
0&!
b0 '!
#155139
0.!
b0 /!
1(!
b110000110101011 )!
#155140
10!
b110001011011110 1!
#155380
06!
b0 7!
#155381
0>!
b0 ?!
18!
b110000111110000 9!
#155382
1@!
b110000111110010 A!
#155658
0D
b0 E
#155659
1F
b110001011110101 G
#155851
0L
b0 M
#155852
0T
b0 U
1N
b110001111110010 O
#155853
1V
b110001111110100 W
#156013
0\
b0 ]
#156014
0d
b0 e
1^
b110001101010110 _
#156015
0l
b0 m
1f
b110001101011001 g
#156016
0t
b0 u
1n
b110001111111010 o
#156017
1v
b110001111111100 w
#156118
0$
b0 %
#156119
0,
b0 -
1&
b110001110011101 '
#156120
1.
b110001111110110 /
#156136
04
b0 5
#156137
16
b110001111101000 7
#156145
0|
b0 }
#156146
1~
b110001101111110 !!
#156153
0<
b0 =
#156154
1>
b110001111101111 ?
#163935
0#!
b0 $!
#163951
0+!
b0 ,!
#163967
03!
b0 4!
#163983
0;!
b0 <!
#164089
0A
b0 B
#164331
0I
b0 J
#164333
0Q
b0 R
#164335
0Y
b0 Z
#164337
0a
b0 b
#164621
0i
b0 j
#164625
0q
b0 r
#164629
0y
b0 z
#164633
0!
b0 "
#164917
0)
b0 *
#164937
01
b0 2
#165153
09
b0 :
#180142
0(!
b0 )!
#180144
b1000 *!
#180155
1&!
b10001010000111 '!
#180450
00!
b0 1!
#180452
b1000 2!
#180453
08!
b0 9!
#180455
b1000 :!
#180456
0@!
b0 A!
#180458
b1000 B!
#180460
1.!
b10001010000111 /!
#180461
16!
b10001010000111 7!
#180462
1>!
b10001010000111 ?!
#180992
0F
b0 G
#180994
b1000 H
#180995
1D
b10001010000111 E
#181438
0N
b0 O
#181440
b1000 P
#181441
0V
b0 W
#181443
b1000 X
#181444
1L
b10001010000111 M
0^
b0 _
#181445
1T
b10001010000111 U
#181446
b1000 `
#181448
0f
b0 g
#181450
b1000 h
#181462
1\
b10001010000111 ]
#181463
1d
b10001010000111 e
#181610
0n
b0 o
#181612
b1000 p
#181613
0v
b0 w
#181615
b1000 x
#181616
0~
b0 !!
#181618
b1000 "!
#181620
0&
b0 '
#181622
b1000 (
#181624
1l
b10001010000111 m
#181625
1t
b10001010000111 u
#181626
1|
b10001010000111 }
#181631
1$
b10001010000111 %
#181710
0.
b0 /
#181712
b1000 0
#181713
06
b0 7
#181715
b1000 8
#181728
1,
b10001010000111 -
#181729
14
b10001010000111 5
#181737
0>
b0 ?
#181739
b1000 @
#181746
1<
b10001010000111 =
#182146
1#!
b100000101011011 $!
1+!
b100000101101011 ,!
13!
b100000101111011 4!
1;!
b100000110001011 <!
#182148
1a
b100001001000001 b
1i
b100001001010001 j
1q
b100001001100001 r
1y
b100001001110001 z
#182150
1A
b100000111110001 B
1I
b100001000000001 J
1Q
b100001000010001 R
1Y
b100001000100001 Z
#182152
1!
b100001010001011 "
1)
b100001010011011 *
11
b100001010101011 2
19
b100001010111011 :
#188994
0&!
b0 '!
#188995
1(!
b1 )!
#188996
0(!
b0 )!
#188998
b1001 *!
#189299
0.!
b0 /!
#189300
06!
b0 7!
10!
b1 1!
#189301
0>!
b0 ?!
18!
b1 9!
00!
b0 1!
#189302
1@!
b1 A!
08!
b0 9!
#189303
0@!
b0 A!
b1001 2!
#189304
b1001 :!
#189305
b1001 B!
#189834
0D
b0 E
#189835
1F
b1 G
#189836
0F
b0 G
#189838
b1001 H
#190283
0L
b0 M
#190284
0T
b0 U
1N
b1 O
#190285
1V
b1 W
0N
b0 O
#190286
0V
b0 W
#190287
b1001 P
#190288
b1001 X
#190301
0\
b0 ]
#190302
0d
b0 e
1^
b1 _
#190303
1f
b1 g
0^
b0 _
#190304
0f
b0 g
#190305
b1001 `
#190306
b1001 h
#190463
0l
b0 m
#190464
0t
b0 u
1n
b1 o
#190465
0|
b0 }
1v
b1 w
0n
b0 o
#190466
1~
b1 !!
0v
b0 w
#190467
0~
b0 !!
b1001 p
#190468
b1001 x
#190469
b1001 "!
#190470
0$
b0 %
#190471
1&
b1 '
#190472
0&
b0 '
#190474
b1001 (
#190567
0,
b0 -
#190568
04
b0 5
1.
b1 /
#190569
16
b1 7
0.
b0 /
#190570
06
b0 7
#190571
b1001 0
#190572
b1001 8
#190585
0<
b0 =
#190586
1>
b1 ?
#190587
0>
b0 ?
#190589
b1001 @
#198877
0#!
b0 $!
#198893
0+!
b0 ,!
#198909
03!
b0 4!
#198925
0;!
b0 <!
#199031
0A
b0 B
#199047
0I
b0 J
#199063
0Q
b0 R
#199079
0Y
b0 Z
#199109
0a
b0 b
#199125
0i
b0 j
#199141
0q
b0 r
#199157
0y
b0 z
#199187
0!
b0 "
#199203
0)
b0 *
#199219
01
b0 2
#199235
09
b0 :
#199844
1&!
b10001010000111 '!
1.!
b10001010000111 /!
16!
b10001010000111 7!
1>!
b10001010000111 ?!
#199846
1d
b10001010000111 e
1l
b10001010000111 m
1t
b10001010000111 u
1|
b10001010000111 }
#199848
1D
b10001010000111 E
1L
b10001010000111 M
1T
b10001010000111 U
1\
b10001010000111 ]
#199850
1$
b10001010000111 %
1,
b10001010000111 -
14
b10001010000111 5
1<
b10001010000111 =
#200324
1#!
b11111101100011 $!
1+!
b11111101111111 ,!
13!
b11111110001111 4!
1;!
b11111110011111 <!
#200326
1a
b100000001001001 b
1i
b100000001100101 j
1q
b100000001110101 r
1y
b100000010000101 z
#200328
1A
b11111111111001 B
1I
b100000000010101 J
1Q
b100000000100101 R
1Y
b100000000110101 Z
#200330
1!
b100000010010011 "
1)
b100000010101111 *
11
b100000010111111 2
19
b100000011001111 :
#208683
0&!
b0 '!
0.!
b0 /!
06!
b0 7!
0>!
b0 ?!
#208684
1(!
b1 )!
10!
b1 1!
18!
b1 9!
1@!
b1 A!
