XuLei_conv1x1/bias_0.vcd
$date today $end
$timescale 1 ns $end
$scope module top $end
$scope module slice0 $end
$var integer 1 ! prefetch $end
$var integer 32 " prefetch_time $end
$var integer 1 # config $end
$var integer 1 $ compute $end
$var integer 32 % compute_time $end
$var integer 1 & write_back $end
$var integer 32 ' write_back_time $end
$var integer 10 ( TG_id $end
$upscope $end
$scope module slice1 $end
$var integer 1 ) prefetch $end
$var integer 32 * prefetch_time $end
$var integer 1 + config $end
$var integer 1 , compute $end
$var integer 32 - compute_time $end
$var integer 1 . write_back $end
$var integer 32 / write_back_time $end
$var integer 10 0 TG_id $end
$upscope $end
$scope module slice10 $end
$var integer 1 q prefetch $end
$var integer 32 r prefetch_time $end
$var integer 1 s config $end
$var integer 1 t compute $end
$var integer 32 u compute_time $end
$var integer 1 v write_back $end
$var integer 32 w write_back_time $end
$var integer 10 x TG_id $end
$upscope $end
$scope module slice11 $end
$var integer 1 y prefetch $end
$var integer 32 z prefetch_time $end
$var integer 1 { config $end
$var integer 1 | compute $end
$var integer 32 } compute_time $end
$var integer 1 ~ write_back $end
$var integer 32 !! write_back_time $end
$var integer 10 "! TG_id $end
$upscope $end
$scope module slice12 $end
$var integer 1 #! prefetch $end
$var integer 32 $! prefetch_time $end
$var integer 1 %! config $end
$var integer 1 &! compute $end
$var integer 32 '! compute_time $end
$var integer 1 (! write_back $end
$var integer 32 )! write_back_time $end
$var integer 10 *! TG_id $end
$upscope $end
$scope module slice13 $end
$var integer 1 +! prefetch $end
$var integer 32 ,! prefetch_time $end
$var integer 1 -! config $end
$var integer 1 .! compute $end
$var integer 32 /! compute_time $end
$var integer 1 0! write_back $end
$var integer 32 1! write_back_time $end
$var integer 10 2! TG_id $end
$upscope $end
$scope module slice14 $end
$var integer 1 3! prefetch $end
$var integer 32 4! prefetch_time $end
$var integer 1 5! config $end
$var integer 1 6! compute $end
$var integer 32 7! compute_time $end
$var integer 1 8! write_back $end
$var integer 32 9! write_back_time $end
$var integer 10 :! TG_id $end
$upscope $end
$scope module slice15 $end
$var integer 1 ;! prefetch $end
$var integer 32 <! prefetch_time $end
$var integer 1 =! config $end
$var integer 1 >! compute $end
$var integer 32 ?! compute_time $end
$var integer 1 @! write_back $end
$var integer 32 A! write_back_time $end
$var integer 10 B! TG_id $end
$upscope $end
$scope module slice2 $end
$var integer 1 1 prefetch $end
$var integer 32 2 prefetch_time $end
$var integer 1 3 config $end
$var integer 1 4 compute $end
$var integer 32 5 compute_time $end
$var integer 1 6 write_back $end
$var integer 32 7 write_back_time $end
$var integer 10 8 TG_id $end
$upscope $end
$scope module slice3 $end
$var integer 1 9 prefetch $end
$var integer 32 : prefetch_time $end
$var integer 1 ; config $end
$var integer 1 < compute $end
$var integer 32 = compute_time $end
$var integer 1 > write_back $end
$var integer 32 ? write_back_time $end
$var integer 10 @ TG_id $end
$upscope $end
$scope module slice4 $end
$var integer 1 A prefetch $end
$var integer 32 B prefetch_time $end
$var integer 1 C config $end
$var integer 1 D compute $end
$var integer 32 E compute_time $end
$var integer 1 F write_back $end
$var integer 32 G write_back_time $end
$var integer 10 H TG_id $end
$upscope $end
$scope module slice5 $end
$var integer 1 I prefetch $end
$var integer 32 J prefetch_time $end
$var integer 1 K config $end
$var integer 1 L compute $end
$var integer 32 M compute_time $end
$var integer 1 N write_back $end
$var integer 32 O write_back_time $end
$var integer 10 P TG_id $end
$upscope $end
$scope module slice6 $end
$var integer 1 Q prefetch $end
$var integer 32 R prefetch_time $end
$var integer 1 S config $end
$var integer 1 T compute $end
$var integer 32 U compute_time $end
$var integer 1 V write_back $end
$var integer 32 W write_back_time $end
$var integer 10 X TG_id $end
$upscope $end
$scope module slice7 $end
$var integer 1 Y prefetch $end
$var integer 32 Z prefetch_time $end
$var integer 1 [ config $end
$var integer 1 \ compute $end
$var integer 32 ] compute_time $end
$var integer 1 ^ write_back $end
$var integer 32 _ write_back_time $end
$var integer 10 ` TG_id $end
$upscope $end
$scope module slice8 $end
$var integer 1 a prefetch $end
$var integer 32 b prefetch_time $end
$var integer 1 c config $end
$var integer 1 d compute $end
$var integer 32 e compute_time $end
$var integer 1 f write_back $end
$var integer 32 g write_back_time $end
$var integer 10 h TG_id $end
$upscope $end
$scope module slice9 $end
$var integer 1 i prefetch $end
$var integer 32 j prefetch_time $end
$var integer 1 k config $end
$var integer 1 l compute $end
$var integer 32 m compute_time $end
$var integer 1 n write_back $end
$var integer 32 o write_back_time $end
$var integer 10 p TG_id $end
$upscope $end
$upscope $end
$enddefinitions $end
#0
$dumpvars
0!
b0 "
0#
0$
b0 %
0&
b0 '
b0 (
0)
b0 *
0+
0,
b0 -
0.
b0 /
b0 0
01
b0 2
03
04
b0 5
06
b0 7
b0 8
09
b0 :
0;
0<
b0 =
0>
b0 ?
b0 @
0A
b0 B
0C
0D
b0 E
0F
b0 G
b0 H
0I
b0 J
0K
0L
b0 M
0N
b0 O
b0 P
0Q
b0 R
0S
0T
b0 U
0V
b0 W
b0 X
0Y
b0 Z
0[
0\
b0 ]
0^
b0 _
b0 `
0a
b0 b
0c
0d
b0 e
0f
b0 g
b0 h
0i
b0 j
0k
0l
b0 m
0n
b0 o
b0 p
0q
b0 r
0s
0t
b0 u
0v
b0 w
b0 x
0y
b0 z
0{
0|
b0 }
0~
b0 !!
b0 "!
1#!
b11100000010110010 $!
0%!
0&!
b0 '!
0(!
b0 )!
b0 *!
1+!
b11100000010111000 ,!
0-!
0.!
b0 /!
00!
b0 1!
b0 2!
13!
b11100000010111110 4!
05!
06!
b0 7!
08!
b0 9!
b0 :!
1;!
b11100000011011000 <!
0=!
0>!
b0 ?!
0@!
b0 A!
b0 B!
$end
#2
1a
b11100000100110100 b
1i
b11100000100111010 j
1q
b11100000101000000 r
1y
b11100000101011010 z
#4
1A
b11100000100000110 B
1I
b11100000100001100 J
1Q
b11100000100010010 R
1Y
b11100000100101100 Z
#6
1!
b11100000101011100 "
1)
b11100000101100010 *
11
b11100000101101000 2
19
b11100000110000010 :
#114866
0#!
b0 $!
#114867
1&!
b1000111100011 '!
#114872
0+!
b0 ,!
#114873
1.!
b1000111100011 /!
#114878
03!
b0 4!
#114879
16!
b1000111100011 7!
#114904
0;!
b0 <!
#114905
1>!
b1000111100011 ?!
#114937
1#!
b11000110111011101 $!
#114943
1+!
b11001000110000001 ,!
#114949
13!
b11001000101111101 4!
#114954
0A
b0 B
#114955
1D
b1000111100011 E
#114960
0I
b0 J
#114961
1L
b1000111100011 M
#114966
0Q
b0 R
#114967
1T
b1000111100011 U
#114975
1;!
b11001001000100101 <!
#114992
0Y
b0 Z
#114993
1\
b1000111100011 ]
#114998
0a
b0 b
#114999
1d
b1000111100011 e
#115004
0i
b0 j
#115005
1l
b1000111100011 m
#115010
0q
b0 r
#115011
1t
b1000111100011 u
#115025
1A
b11001010000110011 B
#115031
1I
b11001010010001001 J
#115036
0y
b0 z
#115037
1Q
b11001010011101111 R
1|
b1000111100011 }
#115042
0!
b0 "
#115043
1$
b1000111100011 %
#115048
0)
b0 *
#115049
1,
b1000111100011 -
#115054
01
b0 2
#115055
14
b1000111100011 5
#115063
1Y
b11001011001001001 Z
#115069
1a
b11001011010011011 b
#115075
1i
b11001011010010111 j
#115080
09
b0 :
#115081
1q
b11001011010010011 r
1<
b1000111100011 =
#115107
1y
b11001011001111101 z
#115113
1!
b111 "
#115119
1)
b111 *
#115120
0!
b0 "
#115125
11
b111 2
#115126
0)
b0 *
#115132
01
b0 2
#115151
19
b111 :
#115158
09
b0 :
#119446
0&!
b0 '!
#119447
1(!
b100011000000010111 )!
#119452
0.!
b0 /!
#119453
10!
b100011000111101101 1!
#119458
06!
b0 7!
#119459
18!
b100011000111111101 9!
#119484
0>!
b0 ?!
#119485
1@!
b100011001010001011 A!
#119534
0D
b0 E
#119535
1F
b100011001110010011 G
#119540
0L
b0 M
#119541
1N
b100011001110010001 O
#119546
0T
b0 U
#119547
1V
b100011010000000111 W
#119572
0\
b0 ]
#119573
1^
b100011010010011011 _
#119578
0d
b0 e
#119579
1f
b100011010010111001 g
#119584
0l
b0 m
#119585
1n
b100011010010110111 o
#119590
0t
b0 u
#119591
1v
b100011010010110101 w
#119616
0|
b0 }
#119617
1~
b100011010010110001 !!
#119622
0$
b0 %
#119623
1&
b10100101111001001 '
#119628
0,
b0 -
#119629
1.
b10100101111000110 /
#119634
04
b0 5
#119635
16
b10100101111000011 7
#119660
0<
b0 =
#119661
1>
b10100101110101100 ?
#204560
0&
b0 '
#204562
b1 (
#204563
0.
b0 /
#204565
b1 0
#204566
06
b0 7
#204568
b1 8
#204569
0>
b0 ?
#204571
b1 @
#204577
1$
b1001 %
#204578
1,
b1001 -
#204579
14
b1001 5
#204580
1<
b1001 =
#204586
0$
b0 %
#204587
0,
b0 -
1&
b1 '
#204588
04
b0 5
1.
b1 /
0&
b0 '
#204589
0<
b0 =
16
b1 7
0.
b0 /
#204590
1>
b1 ?
06
b0 7
b10 (
#204591
0>
b0 ?
b10 0
#204592
b10 8
#204593
b10 @
#216790
0#!
b0 $!
#217728
0+!
b0 ,!
#217730
03!
b0 4!
#217924
0;!
b0 <!
#218500
0A
b0 B
#218592
0I
b0 J
#218700
0Q
b0 R
#219072
0Y
b0 Z
#219160
0a
b0 b
#219162
0i
b0 j
#219164
0q
b0 r
#219168
0y
b0 z
#262830
0(!
b0 )!
#262832
b1 *!
#262845
1&!
b1000111100110 '!
#263306
00!
b0 1!
#263308
b1 2!
#263310
1.!
b1000111100110 /!
#263328
08!
b0 9!
#263330
b1 :!
#263343
16!
b1000111100110 7!
#263496
0@!
b0 A!
#263498
b1 B!
#263504
1>!
b1000111100110 ?!
#263810
0F
b0 G
#263812
b1 H
#263813
1D
b1000111100110 E
#263814
0N
b0 O
#263816
b1 P
#263830
1L
b1000111100110 M
#263938
0V
b0 W
#263940
b1 X
#263943
1T
b1000111100110 U
#264112
0^
b0 _
#264114
b1 `
#264120
1\
b1000111100110 ]
#264148
0f
b0 g
#264150
b1 h
#264152
0n
b0 o
#264153
1d
b1000111100110 e
#264154
b1 p
#264156
0v
b0 w
#264158
b1 x
#264170
1l
b1000111100110 m
#264171
1t
b1000111100110 u
#264178
0~
b0 !!
#264180
b1 "!
#264188
1|
b1000111100110 }
#264504
1#!
b1111010110111010 $!
1+!
b1111010111001110 ,!
13!
b1111010111010100 4!
1;!
b1111010111100000 <!
#264506
1a
b1111011000010000 b
1i
b1111011000100100 j
1q
b1111011000101010 r
1y
b1111011000110110 z
#264508
1A
b1111010111100010 B
1I
b1111010111110110 J
1Q
b1111010111111100 R
1Y
b1111011000001000 Z
#264510
1!
b100111010101000000011 "
1)
b100111010101000000011 *
11
b100111010101000000011 2
19
b100111010101000000011 :
#267427
0&!
b0 '!
#267428
1(!
b11001011011011100 )!
#267892
0.!
b0 /!
#267893
10!
b11001010111111001 1!
#267925
06!
b0 7!
#267926
18!
b11001011000000010 9!
#268086
0>!
b0 ?!
#268087
1@!
b11001010111100011 A!
#268395
0D
b0 E
#268396
1F
b11001010011110100 G
#268412
0L
b0 M
#268413
1N
b11001010011100111 O
#268525
0T
b0 U
#268526
1V
b11001010010010110 W
#268702
0\
b0 ]
#268703
1^
b11001001111101001 _
#268735
0d
b0 e
#268736
1f
b11001001111100011 g
#268752
0l
b0 m
#268753
0t
b0 u
1n
b11001001111010111 o
#268754
1v
b11001001111011010 w
#268770
0|
b0 }
#268771
1~
b11001001111011111 !!
#327410
0#!
b0 $!
#327430
0+!
b0 ,!
#327436
03!
b0 4!
#327448
0;!
b0 <!
#327454
0A
b0 B
#327474
0I
b0 J
#327480
0Q
b0 R
#327492
0Y
b0 Z
#327498
0a
b0 b
#327518
0i
b0 j
#327524
0q
b0 r
#327536
0y
b0 z
#371584
0(!
b0 )!
#371586
b10 *!
#371597
1&!
b1000111100110 '!
#371822
00!
b0 1!
#371824
b10 2!
#371838
1.!
b1000111100110 /!
#371864
08!
b0 9!
#371866
b10 :!
#371871
16!
b1000111100110 7!
#371994
0@!
b0 A!
#371996
b10 B!
#372000
1>!
b1000111100110 ?!
#372064
0F
b0 G
#372066
b10 H
#372068
0N
b0 O
#372069
1D
b1000111100110 E
#372070
b10 P
#372086
1L
b1000111100110 M
#372100
0V
b0 W
#372102
b10 X
#372103
1T
b1000111100110 U
#372104
0^
b0 _
#372106
b10 `
#372120
1\
b1000111100110 ]
#372131
0f
b0 g
#372133
b10 h
#372136
0n
b0 o
#372137
1d
b1000111100110 e
#372138
b10 p
#372140
0v
b0 w
#372142
b10 x
#372154
1l
b1000111100110 m
#372155
1t
b1000111100110 u
#372162
0~
b0 !!
#372164
b10 "!
#372172
1|
b1000111100110 }
#372542
1#!
b1111010011101100 $!
1+!
b1111010011110010 ,!
13!
b1111010011111000 4!
1;!
b1111010011111110 <!
#372544
1a
b1111010101000010 b
1i
b1111010101001000 j
1q
b1111010101001110 r
1y
b1111010101010100 z
#372546
1A
b1111010100010100 B
1I
b1111010100011010 J
1Q
b1111010100100000 R
1Y
b1111010100100110 Z
#376179
0&!
b0 '!
#376180
1(!
b11001011110011000 )!
#376420
0.!
b0 /!
#376421
10!
b11001011010101011 1!
#376453
06!
b0 7!
#376454
18!
b11001011011101100 9!
#376582
0>!
b0 ?!
#376583
1@!
b11001011011001000 A!
#376651
0D
b0 E
#376652
1F
b11001011011001110 G
#376668
0L
b0 M
#376669
1N
b11001011011000001 O
#376685
0T
b0 U
#376686
1V
b11001011011101101 W
#376702
0\
b0 ]
#376703
1^
b11001011011100001 _
#376719
0d
b0 e
#376720
1f
b11001011011010100 g
#376736
0l
b0 m
#376737
0t
b0 u
1n
b11001011011011001 o
#376738
1v
b11001011011011100 w
#376754
0|
b0 }
#376755
1~
b11001011011001111 !!
#435242
0#!
b0 $!
#435248
0+!
b0 ,!
#435254
03!
b0 4!
#435260
0;!
b0 <!
#435286
0A
b0 B
#435292
0I
b0 J
#435298
0Q
b0 R
#435304
0Y
b0 Z
#435330
0a
b0 b
#435336
0i
b0 j
#435342
0q
b0 r
#435348
0y
b0 z
#480524
0(!
b0 )!
#480526
b11 *!
#480528
00!
b0 1!
#480530
b11 2!
#480541
1&!
b1000111100110 '!
#480542
1.!
b1000111100110 /!
#480626
08!
b0 9!
#480628
b11 :!
#480639
16!
b1000111100110 7!
#480719
0@!
b0 A!
#480721
b11 B!
#480736
1>!
b1000111100110 ?!
#480794
0F
b0 G
#480796
b11 H
#480798
0N
b0 O
#480800
b11 P
#480805
1D
b1000111100110 E
#480806
1L
b1000111100110 M
#480859
0V
b0 W
#480861
b11 X
#480864
0^
b0 _
#480866
b11 `
#480868
0f
b0 g
#480870
b11 h
#480871
1T
b1000111100110 U
#480872
1\
b1000111100110 ]
#480873
1d
b1000111100110 e
#480890
0n
b0 o
#480892
b11 p
#480894
0v
b0 w
#480896
b11 x
#480898
0~
b0 !!
#480900
b11 "!
#480906
1l
b1000111100110 m
#480907
1t
b1000111100110 u
#480908
1|
b1000111100110 }
#485123
0&!
b0 '!
#485124
0.!
b0 /!
1(!
b1010110101001100 )!
#485125
10!
b1010110110110001 1!
#485221
06!
b0 7!
#485222
18!
b1010111111011010 9!
#485318
0>!
b0 ?!
#485319
1@!
b1011000010000111 A!
#485387
0D
b0 E
#485388
0L
b0 M
1F
b1011000011001110 G
#485389
1N
b1011000011100011 O
#485453
0T
b0 U
#485454
0\
b0 ]
1V
b1011000011101101 W
#485455
0d
b0 e
1^
b1011000011110001 _
#485456
1f
b1011000011110100 g
#485488
0l
b0 m
#485489
0t
b0 u
1n
b1011000011101011 o
#485490
0|
b0 }
1v
b1011000011101110 w
#485491
1~
b1011000011110001 !!
#529488
0(!
b0 )!
#529490
b100 *!
#529590
00!
b0 1!
#529592
b100 2!
#530240
08!
b0 9!
#530242
b100 :!
#530510
0@!
b0 A!
#530512
b100 B!
#530650
0F
b0 G
#530652
b100 H
#530672
0N
b0 O
#530674
b100 P
#530747
0V
b0 W
#530749
b100 X
#530752
0^
b0 _
#530754
b100 `
#530756
0f
b0 g
#530758
b100 h
#530780
0n
b0 o
#530782
b100 p
#530784
0v
b0 w
#530786
b100 x
#530788
0~
b0 !!
#530790
b100 "!
#530896
1#!
b1111011001111100 $!
1+!
b1111011010000010 ,!
13!
b1111011010001000 4!
1;!
b1111011010001110 <!
#530898
1a
b1111011011010010 b
1i
b1111011011011000 j
1q
b1111011011011110 r
1y
b1111011011100100 z
#530900
1A
b1111011010100100 B
1I
b1111011010101010 J
1Q
b1111011010110000 R
1Y
b1111011010110110 Z
#593996
0#!
b0 $!
#593997
1&!
b1000111100110 '!
#594002
0+!
b0 ,!
#594003
1.!
b1000111100110 /!
#594008
03!
b0 4!
#594009
16!
b1000111100110 7!
#594014
0;!
b0 <!
#594015
1>!
b1000111100110 ?!
#594040
0A
b0 B
#594041
1D
b1000111100110 E
#594046
0I
b0 J
#594047
1L
b1000111100110 M
#594052
0Q
b0 R
#594053
1T
b1000111100110 U
#594058
0Y
b0 Z
#594059
1\
b1000111100110 ]
#594084
0a
b0 b
#594085
1d
b1000111100110 e
#594090
0i
b0 j
#594091
1l
b1000111100110 m
#594096
0q
b0 r
#594097
1t
b1000111100110 u
#594102
0y
b0 z
#594103
1|
b1000111100110 }
#598579
0&!
b0 '!
#598580
1(!
b1011000011100010 )!
#598585
0.!
b0 /!
#598586
10!
b1011000011100000 1!
#598591
06!
b0 7!
#598592
18!
b1011000100111100 9!
#598597
0>!
b0 ?!
#598598
1@!
b1011000110010110 A!
#598623
0D
b0 E
#598624
1F
b1011000111000100 G
#598629
0L
b0 M
#598630
1N
b1011001000000010 O
#598635
0T
b0 U
#598636
1V
b1011001000000000 W
#598641
0\
b0 ]
#598642
1^
b1011000111111011 _
#598667
0d
b0 e
#598668
1f
b1011000111100110 g
#598673
0l
b0 m
#598674
1n
b1011000111110110 o
#598679
0t
b0 u
#598680
1v
b1011000111110100 w
#598685
0|
b0 }
#598686
1~
b1011000111110010 !!
#643862
0(!
b0 )!
#643864
b101 *!
#643866
00!
b0 1!
#643868
b101 2!
#643964
08!
b0 9!
#643966
b101 :!
#644060
0@!
b0 A!
#644062
b101 B!
#644132
0F
b0 G
#644134
b101 H
#644200
0N
b0 O
#644202
b101 P
#644204
0V
b0 W
#644205
0^
b0 _
#644206
b101 X
#644207
b101 `
#644210
0f
b0 g
#644212
b101 h
#644232
0n
b0 o
#644234
b101 p
#644236
0v
b0 w
#644238
b101 x
#644240
0~
b0 !!
#644242
b101 "!
#644596
1#!
b1111011011111110 $!
1+!
b1111011100010010 ,!
13!
b1111011100011000 4!
1;!
b1111011100100100 <!
#644598
1a
b1111011101010100 b
1i
b1111011101101000 j
1q
b1111011101101110 r
1y
b1111011101111010 z
#644600
1A
b1111011100100110 B
1I
b1111011100111010 J
1Q
b1111011101000000 R
1Y
b1111011101001100 Z
#707826
0#!
b0 $!
#707827
1&!
b1000111100110 '!
#707846
0+!
b0 ,!
#707847
1.!
b1000111100110 /!
#707852
03!
b0 4!
#707853
16!
b1000111100110 7!
#707864
0;!
b0 <!
#707865
1>!
b1000111100110 ?!
#707870
0A
b0 B
#707871
1D
b1000111100110 E
#707890
0I
b0 J
#707891
1L
b1000111100110 M
#707896
0Q
b0 R
#707897
1T
b1000111100110 U
#707908
0Y
b0 Z
#707909
1\
b1000111100110 ]
#707914
0a
b0 b
#707915
1d
b1000111100110 e
#707934
0i
b0 j
#707935
1l
b1000111100110 m
#707940
0q
b0 r
#707941
1t
b1000111100110 u
#707952
0y
b0 z
#707953
1|
b1000111100110 }
#712409
0&!
b0 '!
#712410
1(!
b1010100111010110 )!
#712429
0.!
b0 /!
#712430
10!
b1010101010110000 1!
#712435
06!
b0 7!
#712436
18!
b1010101011010100 9!
#712447
0>!
b0 ?!
#712448
1@!
b1010101101001010 A!
#712453
0D
b0 E
#712454
1F
b1010101110001010 G
#712473
0L
b0 M
#712474
1N
b1010101101111010 O
#712479
0T
b0 U
#712480
1V
b1010101110010100 W
#712491
0\
b0 ]
#712492
1^
b1010101110001100 _
#712497
0d
b0 e
#712498
1f
b1010101110011100 g
#712517
0l
b0 m
#712518
1n
b1010101110001101 o
#712523
0t
b0 u
#712524
1v
b1010101110001100 w
#712535
0|
b0 }
#712536
1~
b1010101110000100 !!
#755888
0(!
b0 )!
#755890
b110 *!
#756126
00!
b0 1!
#756128
b110 2!
#756168
08!
b0 9!
#756170
b110 :!
#756298
0@!
b0 A!
#756300
b110 B!
#756368
0F
b0 G
#756370
b110 H
#756372
0N
b0 O
#756374
b110 P
#756404
0V
b0 W
#756406
b110 X
#756408
0^
b0 _
#756410
b110 `
#756430
0f
b0 g
#756432
b110 h
#756435
0n
b0 o
#756437
b110 p
#756440
0v
b0 w
#756442
b110 x
#756444
0~
b0 !!
#756446
b110 "!
