XuLei_conv1x1/bias_3.vcd
$date today $end
$timescale 1 ns $end
$scope module top $end
$scope module slice0 $end
$var integer 1 ! prefetch $end
$var integer 32 " prefetch_time $end
$var integer 1 # config $end
$var integer 1 $ compute $end
$var integer 32 % compute_time $end
$var integer 1 & write_back $end
$var integer 32 ' write_back_time $end
$var integer 10 ( TG_id $end
$upscope $end
$scope module slice1 $end
$var integer 1 ) prefetch $end
$var integer 32 * prefetch_time $end
$var integer 1 + config $end
$var integer 1 , compute $end
$var integer 32 - compute_time $end
$var integer 1 . write_back $end
$var integer 32 / write_back_time $end
$var integer 10 0 TG_id $end
$upscope $end
$scope module slice10 $end
$var integer 1 q prefetch $end
$var integer 32 r prefetch_time $end
$var integer 1 s config $end
$var integer 1 t compute $end
$var integer 32 u compute_time $end
$var integer 1 v write_back $end
$var integer 32 w write_back_time $end
$var integer 10 x TG_id $end
$upscope $end
$scope module slice11 $end
$var integer 1 y prefetch $end
$var integer 32 z prefetch_time $end
$var integer 1 { config $end
$var integer 1 | compute $end
$var integer 32 } compute_time $end
$var integer 1 ~ write_back $end
$var integer 32 !! write_back_time $end
$var integer 10 "! TG_id $end
$upscope $end
$scope module slice12 $end
$var integer 1 #! prefetch $end
$var integer 32 $! prefetch_time $end
$var integer 1 %! config $end
$var integer 1 &! compute $end
$var integer 32 '! compute_time $end
$var integer 1 (! write_back $end
$var integer 32 )! write_back_time $end
$var integer 10 *! TG_id $end
$upscope $end
$scope module slice13 $end
$var integer 1 +! prefetch $end
$var integer 32 ,! prefetch_time $end
$var integer 1 -! config $end
$var integer 1 .! compute $end
$var integer 32 /! compute_time $end
$var integer 1 0! write_back $end
$var integer 32 1! write_back_time $end
$var integer 10 2! TG_id $end
$upscope $end
$scope module slice14 $end
$var integer 1 3! prefetch $end
$var integer 32 4! prefetch_time $end
$var integer 1 5! config $end
$var integer 1 6! compute $end
$var integer 32 7! compute_time $end
$var integer 1 8! write_back $end
$var integer 32 9! write_back_time $end
$var integer 10 :! TG_id $end
$upscope $end
$scope module slice15 $end
$var integer 1 ;! prefetch $end
$var integer 32 <! prefetch_time $end
$var integer 1 =! config $end
$var integer 1 >! compute $end
$var integer 32 ?! compute_time $end
$var integer 1 @! write_back $end
$var integer 32 A! write_back_time $end
$var integer 10 B! TG_id $end
$upscope $end
$scope module slice2 $end
$var integer 1 1 prefetch $end
$var integer 32 2 prefetch_time $end
$var integer 1 3 config $end
$var integer 1 4 compute $end
$var integer 32 5 compute_time $end
$var integer 1 6 write_back $end
$var integer 32 7 write_back_time $end
$var integer 10 8 TG_id $end
$upscope $end
$scope module slice3 $end
$var integer 1 9 prefetch $end
$var integer 32 : prefetch_time $end
$var integer 1 ; config $end
$var integer 1 < compute $end
$var integer 32 = compute_time $end
$var integer 1 > write_back $end
$var integer 32 ? write_back_time $end
$var integer 10 @ TG_id $end
$upscope $end
$scope module slice4 $end
$var integer 1 A prefetch $end
$var integer 32 B prefetch_time $end
$var integer 1 C config $end
$var integer 1 D compute $end
$var integer 32 E compute_time $end
$var integer 1 F write_back $end
$var integer 32 G write_back_time $end
$var integer 10 H TG_id $end
$upscope $end
$scope module slice5 $end
$var integer 1 I prefetch $end
$var integer 32 J prefetch_time $end
$var integer 1 K config $end
$var integer 1 L compute $end
$var integer 32 M compute_time $end
$var integer 1 N write_back $end
$var integer 32 O write_back_time $end
$var integer 10 P TG_id $end
$upscope $end
$scope module slice6 $end
$var integer 1 Q prefetch $end
$var integer 32 R prefetch_time $end
$var integer 1 S config $end
$var integer 1 T compute $end
$var integer 32 U compute_time $end
$var integer 1 V write_back $end
$var integer 32 W write_back_time $end
$var integer 10 X TG_id $end
$upscope $end
$scope module slice7 $end
$var integer 1 Y prefetch $end
$var integer 32 Z prefetch_time $end
$var integer 1 [ config $end
$var integer 1 \ compute $end
$var integer 32 ] compute_time $end
$var integer 1 ^ write_back $end
$var integer 32 _ write_back_time $end
$var integer 10 ` TG_id $end
$upscope $end
$scope module slice8 $end
$var integer 1 a prefetch $end
$var integer 32 b prefetch_time $end
$var integer 1 c config $end
$var integer 1 d compute $end
$var integer 32 e compute_time $end
$var integer 1 f write_back $end
$var integer 32 g write_back_time $end
$var integer 10 h TG_id $end
$upscope $end
$scope module slice9 $end
$var integer 1 i prefetch $end
$var integer 32 j prefetch_time $end
$var integer 1 k config $end
$var integer 1 l compute $end
$var integer 32 m compute_time $end
$var integer 1 n write_back $end
$var integer 32 o write_back_time $end
$var integer 10 p TG_id $end
$upscope $end
$upscope $end
$enddefinitions $end
#0
$dumpvars
0!
b0 "
0#
0$
b0 %
0&
b0 '
b0 (
0)
b0 *
0+
0,
b0 -
0.
b0 /
b0 0
01
b0 2
03
04
b0 5
06
b0 7
b0 8
09
b0 :
0;
0<
b0 =
0>
b0 ?
b0 @
0A
b0 B
0C
0D
b0 E
0F
b0 G
b0 H
0I
b0 J
0K
0L
b0 M
0N
b0 O
b0 P
0Q
b0 R
0S
0T
b0 U
0V
b0 W
b0 X
0Y
b0 Z
0[
0\
b0 ]
0^
b0 _
b0 `
0a
b0 b
0c
0d
b0 e
0f
b0 g
b0 h
0i
b0 j
0k
0l
b0 m
0n
b0 o
b0 p
0q
b0 r
0s
0t
b0 u
0v
b0 w
b0 x
0y
b0 z
0{
0|
b0 }
0~
b0 !!
b0 "!
1#!
b110001100000110010 $!
0%!
0&!
b0 '!
0(!
b0 )!
b0 *!
1+!
b110001100001000010 ,!
0-!
0.!
b0 /!
00!
b0 1!
b0 2!
13!
b110001100001010010 4!
05!
06!
b0 7!
08!
b0 9!
b0 :!
1;!
b110001100001100010 <!
0=!
0>!
b0 ?!
0@!
b0 A!
b0 B!
$end
#2
1a
b110001100011110000 b
1i
b110001100100000000 j
1q
b110001100100010000 r
1y
b110001100100100000 z
#4
1A
b110001100010101110 B
1I
b110001100010111110 J
1Q
b110001100011001110 R
1Y
b110001100011011110 Z
#6
1!
b110001100100101100 "
1)
b110001100100111100 *
11
b110001100101001100 2
19
b110001100101011100 :
#202802
0#!
b0 $!
#202803
1&!
b1011100010111 '!
#202818
0+!
b0 ,!
#202819
1.!
b1011100010111 /!
#202834
03!
b0 4!
#202835
16!
b1011100010111 7!
#202850
0;!
b0 <!
#202851
1>!
b1011100010111 ?!
#202873
1#!
b100110001101111011 $!
#202889
1+!
b100110011001111001 ,!
#202905
13!
b100110011001111001 4!
#202921
1;!
b100110011001111001 <!
#202930
0A
b0 B
#202931
1D
b1011100010111 E
#202946
0I
b0 J
#202947
1L
b1011100010111 M
#202962
0Q
b0 R
#202963
1T
b1011100010111 U
#202978
0Y
b0 Z
#202979
1\
b1011100010111 ]
#202994
0a
b0 b
#202995
1d
b1011100010111 e
#203001
1A
b100110101010011111 B
#203010
0i
b0 j
#203011
1l
b1011100010111 m
#203017
1I
b100110101110010011 J
#203026
0q
b0 r
#203027
1t
b1011100010111 u
#203033
1Q
b100110110001011111 R
#203042
0y
b0 z
#203043
1|
b1011100010111 }
#203049
1Y
b100110110011111101 Z
#203058
0!
b0 "
#203059
1$
b1011100010111 %
#203065
1a
b100110110111011111 b
#203074
0)
b0 *
#203075
1,
b1011100010111 -
#203081
1i
b100110111001101111 j
#203090
01
b0 2
#203091
14
b1011100010111 5
#203097
1q
b100111000001011111 r
#203106
09
b0 :
#203107
1<
b1011100010111 =
#203113
1y
b100111000011000101 z
#203129
1!
b100111000011100111 "
#203145
1)
b100111000011100111 *
#203161
11
b100111000101001001 2
#203177
19
b100111000101001001 :
#208714
0&!
b0 '!
#208715
1(!
b1 )!
#208716
0(!
b0 )!
#208718
b1 *!
#208730
0.!
b0 /!
#208731
10!
b1 1!
#208732
00!
b0 1!
#208734
b1 2!
#208746
06!
b0 7!
#208747
18!
b1 9!
#208748
08!
b0 9!
#208750
b1 :!
#208762
0>!
b0 ?!
#208763
1@!
b1 A!
#208764
0@!
b0 A!
#208766
b1 B!
#208842
0D
b0 E
#208843
1F
b1 G
#208844
0F
b0 G
#208846
b1 H
#208858
0L
b0 M
#208859
1N
b1 O
#208860
0N
b0 O
#208862
b1 P
#208874
0T
b0 U
#208875
1V
b1 W
#208876
0V
b0 W
#208878
b1 X
#208890
0\
b0 ]
#208891
1^
b1 _
#208892
0^
b0 _
#208894
b1 `
#208906
0d
b0 e
#208907
1f
b1 g
#208908
0f
b0 g
#208910
b1 h
#208922
0l
b0 m
#208923
1n
b1 o
#208924
0n
b0 o
#208926
b1 p
#208938
0t
b0 u
#208939
1v
b1 w
#208940
0v
b0 w
#208942
b1 x
#208954
0|
b0 }
#208955
1~
b1 !!
#208956
0~
b0 !!
#208958
b1 "!
#208970
0$
b0 %
#208971
1&
b1 '
#208972
0&
b0 '
#208974
b1 (
#208986
0,
b0 -
#208987
1.
b1 /
#208988
0.
b0 /
#208990
b1 0
#209002
04
b0 5
#209003
16
b1 7
#209004
06
b0 7
#209006
b1 8
#209018
0<
b0 =
#209019
1>
b1 ?
#209020
0>
b0 ?
#209022
b1 @
#359412
0#!
b0 $!
#359413
1&!
b1011100011010 '!
#359483
1#!
b100011101001101110 $!
#360194
0+!
b0 ,!
#360195
1.!
b1011100011010 /!
#360210
03!
b0 4!
#360211
16!
b1011100011010 7!
#360226
0;!
b0 <!
#360227
1>!
b1011100011010 ?!
#360265
1+!
b100011110100000110 ,!
#360281
13!
b100011110100100010 4!
#360297
1;!
b100011110100111110 <!
#361368
0A
b0 B
#361369
1D
b1011100011010 E
#361439
1A
b100100001101100010 B
#361628
0I
b0 J
#361629
1L
b1011100011010 M
#361699
1I
b100100010111001010 J
#361848
0Q
b0 R
#361849
1T
b1011100011010 U
#361919
1Q
b100100011011100010 R
#362022
0Y
b0 Z
#362023
1\
b1011100011010 ]
#362093
1Y
b100100100000000100 Z
#362264
0a
b0 b
#362265
1d
b1011100011010 e
#362335
1a
b100100100010101110 b
#362424
0i
b0 j
#362425
1l
b1011100011010 m
#362495
1i
b100100100101111110 j
#362936
0q
b0 r
#362937
1t
b1011100011010 u
#363007
1q
b100100100111011010 r
#363054
0y
b0 z
#363055
1|
b1011100011010 }
#363104
0!
b0 "
#363105
1$
b1011100011010 %
#363120
0)
b0 *
#363121
1,
b1011100011010 -
#363125
1y
b100100101001111110 z
#363175
1!
b100100101100110100 "
#363191
1)
b100100101101000100 *
#363234
01
b0 2
#363235
14
b1011100011010 5
#363250
09
b0 :
#363251
1<
b1011100011010 =
#363305
11
b100100101101100000 2
#363321
19
b100100101101110110 :
#365327
0&!
b0 '!
#365328
1(!
b1 )!
#365329
0(!
b0 )!
#365331
b10 *!
#366109
0.!
b0 /!
#366110
10!
b1 1!
#366111
00!
b0 1!
#366113
b10 2!
#366125
06!
b0 7!
#366126
18!
b1 9!
#366127
08!
b0 9!
#366129
b10 :!
#366141
0>!
b0 ?!
#366142
1@!
b1 A!
#366143
0@!
b0 A!
#366145
b10 B!
#367283
0D
b0 E
#367284
1F
b1 G
#367285
0F
b0 G
#367287
b10 H
#367543
0L
b0 M
#367544
1N
b1 O
#367545
0N
b0 O
#367547
b10 P
#367763
0T
b0 U
#367764
1V
b1 W
#367765
0V
b0 W
#367767
b10 X
#367937
0\
b0 ]
#367938
1^
b1 _
#367939
0^
b0 _
#367941
b10 `
#368179
0d
b0 e
#368180
1f
b1 g
#368181
0f
b0 g
#368183
b10 h
#368339
0l
b0 m
#368340
1n
b1 o
#368341
0n
b0 o
#368343
b10 p
#368851
0t
b0 u
#368852
1v
b1 w
#368853
0v
b0 w
#368855
b10 x
#368969
0|
b0 }
#368970
1~
b1 !!
#368971
0~
b0 !!
#368973
b10 "!
#369019
0$
b0 %
#369020
1&
b1 '
#369021
0&
b0 '
#369023
b10 (
#369035
0,
b0 -
#369036
1.
b1 /
#369037
0.
b0 /
#369039
b10 0
#369149
04
b0 5
#369150
16
b1 7
#369151
06
b0 7
#369153
b10 8
#369165
0<
b0 =
#369166
1>
b1 ?
#369167
0>
b0 ?
#369169
b10 @
#505513
0#!
b0 $!
#505514
1&!
b1011100011010 '!
#505584
1#!
b100100010111100001 $!
#506959
0+!
b0 ,!
#506960
1.!
b1011100011010 /!
#507003
03!
b0 4!
#507004
16!
b1011100011010 7!
#507030
1+!
b100100010111100001 ,!
#507047
0;!
b0 <!
#507048
1>!
b1011100011010 ?!
#507074
13!
b100100010111100001 4!
#507118
1;!
b100100010111100001 <!
#509761
0A
b0 B
#509762
1D
b1011100011010 E
#509832
1A
b100100011001000101 B
#510637
0I
b0 J
#510638
1L
b1011100011010 M
#510708
1I
b100100010011111011 J
#511137
0Q
b0 R
#511138
1T
b1011100011010 U
#511208
1Q
b100100010100001011 R
#511428
0&!
b0 '!
#511429
1(!
b1 )!
#511430
0(!
b0 )!
#511432
b11 *!
#511601
0Y
b0 Z
#511602
1\
b1011100011010 ]
#511672
1Y
b100100010100000111 Z
#512013
0a
b0 b
#512014
1d
b1011100011010 e
#512084
1a
b100100010100000001 b
#512381
0i
b0 j
#512382
1l
b1011100011010 m
#512452
1i
b100100010011111101 j
#512874
0.!
b0 /!
#512875
10!
b1 1!
#512876
00!
b0 1!
#512878
b11 2!
#512918
06!
b0 7!
#512919
18!
b1 9!
#512920
08!
b0 9!
#512922
b11 :!
#512962
0>!
b0 ?!
#512963
1@!
b1 A!
#512964
0@!
b0 A!
#512966
b11 B!
#512985
0q
b0 r
#512986
1t
b1011100011010 u
#513056
1q
b100100010100000011 r
#513267
0y
b0 z
#513268
1|
b1011100011010 }
#513338
1y
b100100010011111111 z
#513499
0!
b0 "
#513500
1$
b1011100011010 %
#513531
0)
b0 *
#513532
1,
b1011100011010 -
#513570
1!
b100100010011111001 "
#513602
1)
b100100010110011111 *
#513673
01
b0 2
#513674
14
b1011100011010 5
#513711
09
b0 :
#513712
1<
b1011100011010 =
#513744
11
b100100011000101101 2
#513782
19
b100100011000110101 :
#515676
0D
b0 E
#515677
1F
b1 G
#515678
0F
b0 G
#515680
b11 H
#516552
0L
b0 M
#516553
1N
b1 O
#516554
0N
b0 O
#516556
b11 P
#517052
0T
b0 U
#517053
1V
b1 W
#517054
0V
b0 W
#517056
b11 X
#517516
0\
b0 ]
#517517
1^
b1 _
#517518
0^
b0 _
#517520
b11 `
#517928
0d
b0 e
#517929
1f
b1 g
#517930
0f
b0 g
#517932
b11 h
#518296
0l
b0 m
#518297
1n
b1 o
#518298
0n
b0 o
#518300
b11 p
#518900
0t
b0 u
#518901
1v
b1 w
#518902
0v
b0 w
#518904
b11 x
#519182
0|
b0 }
#519183
1~
b1 !!
#519184
0~
b0 !!
#519186
b11 "!
#519414
0$
b0 %
#519415
1&
b1 '
#519416
0&
b0 '
#519418
b11 (
#519446
0,
b0 -
#519447
1.
b1 /
#519448
0.
b0 /
#519450
b11 0
#519588
04
b0 5
#519589
16
b1 7
#519590
06
b0 7
#519592
b11 8
#519626
0<
b0 =
#519627
1>
b1 ?
#519628
0>
b0 ?
#519630
b11 @
#654545
0#!
b0 $!
#654546
1&!
b1011100011010 '!
#654616
1#!
b100011010101100001 $!
#655991
0+!
b0 ,!
#655992
1.!
b1011100011010 /!
#656035
03!
b0 4!
#656036
16!
b1011100011010 7!
#656062
1+!
b100011010110111001 ,!
#656079
0;!
b0 <!
#656080
1>!
b1011100011010 ?!
#656106
13!
b100011010110110111 4!
#656150
1;!
b100011010110110111 <!
#658893
0A
b0 B
#658894
1D
b1011100011010 E
#658964
1A
b100011010010000011 B
#659439
0I
b0 J
#659440
1L
b1011100011010 M
#659510
1I
b100011010001111011 J
#659955
0Q
b0 R
#659956
1T
b1011100011010 U
#660026
1Q
b100011010001100011 R
#660415
0Y
b0 Z
#660416
1\
b1011100011010 ]
#660460
0&!
b0 '!
#660461
1(!
b1 )!
#660462
0(!
b0 )!
#660464
b100 *!
#660486
1Y
b100011010001100001 Z
#660821
0a
b0 b
#660822
1d
b1011100011010 e
#660892
1a
b100011010001100001 b
#661185
0i
b0 j
#661186
1l
b1011100011010 m
#661256
1i
b100011010110000101 j
#661795
0q
b0 r
#661796
1t
b1011100011010 u
#661866
1q
b100011010101110111 r
#661906
0.!
b0 /!
#661907
10!
b1 1!
#661908
00!
b0 1!
#661910
b100 2!
#661950
06!
b0 7!
#661951
18!
b1 9!
#661952
08!
b0 9!
#661954
b100 :!
#661994
0>!
b0 ?!
#661995
1@!
b1 A!
#661996
0@!
b0 A!
#661998
b100 B!
#662073
0y
b0 z
#662074
1|
b1011100011010 }
#662144
1y
b100011010101111011 z
#662299
0!
b0 "
#662300
1$
b1011100011010 %
#662370
1!
b100011010101111011 "
#662497
0)
b0 *
#662498
1,
b1011100011010 -
#662568
1)
b100011010101101111 *
#662781
01
b0 2
#662782
14
b1011100011010 5
#662827
09
b0 :
#662828
1<
b1011100011010 =
#662852
11
b100011010111111111 2
#662898
19
b100011011001001011 :
#664808
0D
b0 E
#664809
1F
b1 G
#664810
0F
b0 G
#664812
b100 H
#665354
0L
b0 M
#665355
1N
b1 O
#665356
0N
b0 O
#665358
b100 P
#665870
0T
b0 U
#665871
1V
b1 W
#665872
0V
b0 W
#665874
b100 X
#666330
0\
b0 ]
#666331
1^
b1 _
#666332
0^
b0 _
#666334
b100 `
#666736
0d
b0 e
#666737
1f
b1 g
#666738
0f
b0 g
#666740
b100 h
#667100
0l
b0 m
#667101
1n
b1 o
#667102
0n
b0 o
#667104
b100 p
#667710
0t
b0 u
#667711
1v
b1 w
#667712
0v
b0 w
#667714
b100 x
#667988
0|
b0 }
#667989
1~
b1 !!
#667990
0~
b0 !!
#667992
b100 "!
#668214
0$
b0 %
#668215
1&
b1 '
#668216
0&
b0 '
#668218
b100 (
#668412
0,
b0 -
#668413
1.
b1 /
#668414
0.
b0 /
#668416
b100 0
#668696
04
b0 5
#668697
16
b1 7
#668698
06
b0 7
#668700
b100 8
#668742
0<
b0 =
#668743
1>
b1 ?
#668744
0>
b0 ?
#668746
b100 @
#799353
0#!
b0 $!
#799354
1&!
b1011100011010 '!
#799424
1#!
b100011010111000001 $!
#800887
0+!
b0 ,!
#800888
1.!
b1011100011010 /!
#800929
03!
b0 4!
#800930
16!
b1011100011010 7!
#800958
1+!
b100011011011111001 ,!
#800973
0;!
b0 <!
#800974
1>!
b1011100011010 ?!
#801000
13!
b100011011011111011 4!
#801044
1;!
b100011011011111011 <!
#803479
0A
b0 B
#803480
1D
b1011100011010 E
#803550
1A
b100011011010011111 B
#804017
0I
b0 J
#804018
1L
b1011100011010 M
#804088
1I
b100011011001110011 J
#804509
0Q
b0 R
#804510
1T
b1011100011010 U
#804580
1Q
b100011011001110111 R
#804967
0Y
b0 Z
#804968
1\
b1011100011010 ]
#805038
1Y
b100011011001110011 Z
#805268
0&!
b0 '!
#805269
1(!
b1 )!
#805270
0(!
b0 )!
#805272
b101 *!
#805373
0a
b0 b
#805374
1d
b1011100011010 e
#805444
1a
b100011011001111001 b
#806029
0i
b0 j
#806030
1l
b1011100011010 m
#806100
1i
b100011010101010011 j
#806625
0q
b0 r
#806626
1t
b1011100011010 u
#806696
1q
b100011010101001101 r
#806802
0.!
b0 /!
#806803
10!
b1 1!
#806804
00!
b0 1!
#806806
b101 2!
#806844
06!
b0 7!
#806845
18!
b1 9!
#806846
08!
b0 9!
#806848
b101 :!
#806888
0>!
b0 ?!
#806889
1@!
b1 A!
#806890
0@!
b0 A!
#806892
b101 B!
#806907
0y
b0 z
#806908
1|
b1011100011010 }
#806978
1y
b100011010101000111 z
#807133
0!
b0 "
#807134
1$
b1011100011010 %
#807204
1!
b100011010101001101 "
#807319
0)
b0 *
#807320
1,
b1011100011010 -
#807390
1)
b100011010101001101 *
#807747
01
b0 2
#807748
14
b1011100011010 5
#807818
11
b100011010111100001 2
#807869
09
b0 :
#807870
1<
b1011100011010 =
#807940
19
b100011011000111011 :
#809394
0D
b0 E
#809395
1F
b1 G
#809396
0F
b0 G
#809398
b101 H
#809932
0L
b0 M
#809933
1N
b1 O
#809934
0N
b0 O
#809936
b101 P
#810424
0T
b0 U
#810425
1V
b1 W
#810426
0V
b0 W
#810428
b101 X
#810882
0\
b0 ]
#810883
1^
b1 _
#810884
0^
b0 _
#810886
b101 `
#811288
0d
b0 e
#811289
1f
b1 g
#811290
0f
b0 g
#811292
b101 h
#811944
0l
b0 m
#811945
1n
b1 o
#811946
0n
b0 o
#811948
b101 p
#812540
0t
b0 u
#812541
1v
b1 w
#812542
0v
b0 w
#812544
b101 x
#812822
0|
b0 }
#812823
1~
b1 !!
#812824
0~
b0 !!
#812826
b101 "!
#813048
0$
b0 %
#813049
1&
b1 '
#813050
0&
b0 '
#813052
b101 (
#813234
0,
b0 -
#813235
1.
b1 /
#813236
0.
b0 /
#813238
b101 0
#813662
04
b0 5
#813663
16
b1 7
#813664
06
b0 7
#813666
b101 8
#813784
0<
b0 =
#813785
1>
b1 ?
#813786
0>
b0 ?
#813788
b101 @
#944257
0#!
b0 $!
#944258
1&!
b1011100011010 '!
#944328
1#!
b100100001110100011 $!
#946103
0+!
b0 ,!
#946104
1.!
b1011100011010 /!
#946147
03!
b0 4!
#946148
16!
b1011100011010 7!
#946174
1+!
b100100001110011011 ,!
#946191
0;!
b0 <!
#946192
1>!
b1011100011010 ?!
#946218
13!
b100100001110011101 4!
#946262
1;!
b100100001110011011 <!
#948605
0A
b0 B
#948606
1D
b1011100011010 E
#948676
1A
b100100001101101001 B
#949099
0I
b0 J
#949100
1L
b1011100011010 M
#949170
1I
b100100001110000001 J
#949595
0Q
b0 R
#949596
1T
b1011100011010 U
#949666
1Q
b100100001101011001 R
#950049
0Y
b0 Z
#950050
1\
b1011100011010 ]
#950120
1Y
b100100001101100011 Z
#950172
0&!
b0 '!
#950173
1(!
b1 )!
#950174
0(!
b0 )!
#950176
b110 *!
#950461
0a
b0 b
#950462
1d
b1011100011010 e
#950532
1a
b100100001101010111 b
#950823
0i
b0 j
#950824
1l
b1011100011010 m
#950894
1i
b100100001101101001 j
#951413
0q
b0 r
#951414
1t
b1011100011010 u
#951484
1q
b100100001101110011 r
#951689
0y
b0 z
#951690
1|
b1011100011010 }
#951760
1y
b100100001101100111 z
#951921
0!
b0 "
#951922
1$
b1011100011010 %
#951992
1!
b100100001101111001 "
#952018
0.!
b0 /!
#952019
10!
b1 1!
#952020
00!
b0 1!
#952022
b110 2!
#952062
06!
b0 7!
#952063
18!
b1 9!
#952064
08!
b0 9!
#952066
b110 :!
#952106
0>!
b0 ?!
#952107
0)
b0 *
1@!
b1 A!
#952108
1,
b1011100011010 -
0@!
b0 A!
#952110
b110 B!
#952178
1)
b100100010101000001 *
#952683
01
b0 2
#952684
14
b1011100011010 5
#952754
11
b100100010101011111 2
#952895
09
b0 :
#952896
1<
b1011100011010 =
#952966
19
b100100010101110111 :
#954520
0D
b0 E
#954521
1F
b1 G
#954522
0F
b0 G
#954524
b110 H
#955014
0L
b0 M
#955015
1N
b1 O
#955016
0N
b0 O
#955018
b110 P
#955510
0T
b0 U
#955511
1V
b1 W
#955512
0V
b0 W
#955514
b110 X
#955964
0\
b0 ]
#955965
1^
b1 _
#955966
0^
b0 _
#955968
b110 `
#956376
0d
b0 e
#956377
1f
b1 g
#956378
0f
b0 g
#956380
b110 h
#956738
0l
b0 m
#956739
1n
b1 o
#956740
0n
b0 o
#956742
b110 p
#957328
0t
b0 u
#957329
1v
b1 w
#957330
0v
b0 w
#957332
b110 x
#957604
0|
b0 }
#957605
1~
b1 !!
#957606
0~
b0 !!
#957608
b110 "!
#957836
0$
b0 %
#957837
1&
b1 '
#957838
0&
b0 '
#957840
b110 (
#958022
0,
b0 -
#958023
1.
b1 /
#958024
0.
b0 /
#958026
b110 0
#958598
04
b0 5
#958599
16
b1 7
#958600
06
b0 7
#958602
b110 8
#958810
0<
b0 =
#958811
1>
b1 ?
#958812
0>
b0 ?
#958814
b110 @
#1092715
0#!
b0 $!
#1092716
1&!
b1011100011010 '!
#1092786
1#!
b100011111000100111 $!
#1094553
0+!
b0 ,!
#1094554
1.!
b1011100011010 /!
#1094599
03!
b0 4!
#1094600
16!
b1011100011010 7!
#1094624
1+!
b100011111000100011 ,!
#1094641
0;!
b0 <!
#1094642
1>!
b1011100011010 ?!
#1094670
13!
b100011111000100001 4!
#1094712
1;!
b100011111000100011 <!
#1097005
0A
b0 B
#1097006
1D
b1011100011010 E
#1097076
1A
b100011111000100001 B
#1097523
0I
b0 J
#1097524
1L
b1011100011010 M
#1097594
1I
b100011110111101101 J
#1097979
0Q
b0 R
#1097980
1T
b1011100011010 U
#1098050
1Q
b100011110111110101 R
#1098443
0Y
b0 Z
#1098444
1\
b1011100011010 ]
#1098514
1Y
b100011110111000101 Z
#1098630
0&!
b0 '!
#1098631
1(!
b1 )!
#1098632
0(!
b0 )!
#1098634
b111 *!
#1098843
0a
b0 b
#1098844
1d
b1011100011010 e
#1098914
1a
b100011110111001001 b
#1099223
0i
b0 j
#1099224
1l
b1011100011010 m
#1099294
1i
b100011110111001001 j
#1099823
0q
b0 r
#1099824
1t
b1011100011010 u
#1099894
1q
b100011110111001101 r
#1100087
0y
b0 z
#1100088
1|
b1011100011010 }
#1100158
1y
b100011110111010101 z
#1100337
0!
b0 "
#1100338
1$
b1011100011010 %
#1100408
1!
b100011110111001001 "
#1100468
0.!
b0 /!
#1100469
10!
b1 1!
#1100470
00!
b0 1!
#1100472
b111 2!
#1100514
06!
b0 7!
#1100515
18!
b1 9!
#1100516
08!
b0 9!
#1100518
b111 :!
#1100556
0>!
b0 ?!
#1100557
1@!
b1 A!
#1100558
0@!
b0 A!
#1100560
b111 B!
#1100979
0)
b0 *
#1100980
1,
b1011100011010 -
#1101050
1)
b100011110010100001 *
#1101585
01
b0 2
#1101586
14
b1011100011010 5
#1101656
11
b100011111001011101 2
#1101821
09
b0 :
#1101822
1<
b1011100011010 =
#1101892
19
b100011111001110001 :
#1102920
0D
b0 E
#1102921
1F
b1 G
#1102922
0F
b0 G
#1102924
b111 H
#1103438
0L
b0 M
#1103439
1N
b1 O
#1103440
0N
b0 O
#1103442
b111 P
#1103894
0T
b0 U
#1103895
1V
b1 W
#1103896
0V
b0 W
#1103898
b111 X
#1104358
0\
b0 ]
#1104359
1^
b1 _
#1104360
0^
b0 _
#1104362
b111 `
#1104758
0d
b0 e
#1104759
1f
b1 g
#1104760
0f
b0 g
#1104762
b111 h
#1105138
0l
b0 m
#1105139
1n
b1 o
#1105140
0n
b0 o
#1105142
b111 p
#1105738
0t
b0 u
#1105739
1v
b1 w
#1105740
0v
b0 w
#1105742
b111 x
#1106002
0|
b0 }
#1106003
1~
b1 !!
#1106004
0~
b0 !!
#1106006
b111 "!
#1106252
0$
b0 %
#1106253
1&
b1 '
#1106254
0&
b0 '
#1106256
b111 (
#1106894
0,
b0 -
#1106895
1.
b1 /
#1106896
0.
b0 /
#1106898
b111 0
#1107500
04
b0 5
#1107501
16
b1 7
#1107502
06
b0 7
#1107504
b111 8
#1107736
0<
b0 =
#1107737
1>
b1 ?
#1107738
0>
b0 ?
#1107740
b111 @
#1239769
0#!
b0 $!
#1239770
1&!
b1011100011010 '!
#1239840
1#!
b100011000111101111 $!
#1241603
0+!
b0 ,!
#1241604
1.!
b1011100011010 /!
#1241647
03!
b0 4!
#1241648
16!
b1011100011010 7!
#1241674
1+!
b100011000010111101 ,!
#1241691
0;!
b0 <!
#1241692
1>!
b1011100011010 ?!
#1241718
13!
b100011000010111011 4!
#1241762
1;!
b100011000010111011 <!
#1244053
0A
b0 B
#1244054
1D
b1011100011010 E
#1244124
1A
b100011000010010101 B
#1244519
0I
b0 J
#1244520
1L
b1011100011010 M
#1244590
1I
b100011000010001001 J
#1244983
0Q
b0 R
#1244984
1T
b1011100011010 U
#1245054
1Q
b100011000101110011 R
#1245399
0Y
b0 Z
#1245400
1\
b1011100011010 ]
#1245470
1Y
b100011000101110011 Z
#1245684
0&!
b0 '!
#1245685
1(!
b1 )!
#1245686
0(!
b0 )!
#1245688
b1000 *!
#1245803
0a
b0 b
#1245804
1d
b1011100011010 e
#1245874
1a
b100011000101000101 b
#1246183
0i
b0 j
#1246184
1l
b1011100011010 m
#1246254
1i
b100011000101000011 j
#1246787
0q
b0 r
#1246788
1t
b1011100011010 u
#1246858
1q
b100011000100111011 r
#1247059
0y
b0 z
#1247060
1|
b1011100011010 }
#1247130
1y
b100011000100110011 z
#1247297
0!
b0 "
#1247298
1$
b1011100011010 %
#1247368
1!
b100011000100111111 "
#1247518
0.!
b0 /!
#1247519
10!
b1 1!
#1247520
00!
b0 1!
#1247522
b1000 2!
#1247562
06!
b0 7!
#1247563
18!
b1 9!
#1247564
08!
b0 9!
#1247566
b1000 :!
#1247606
0>!
b0 ?!
#1247607
1@!
b1 A!
#1247608
0@!
b0 A!
#1247610
b1000 B!
#1247643
0)
b0 *
#1247644
1,
b1011100011010 -
#1247714
1)
b100011000100110011 *
#1248693
01
b0 2
#1248694
14
b1011100011010 5
#1248764
11
b100011000010000111 2
#1248949
09
b0 :
#1248950
1<
b1011100011010 =
#1249020
19
b100011000001100001 :
#1249968
0D
b0 E
#1249969
1F
b1 G
#1249970
0F
b0 G
#1249972
b1000 H
#1250434
0L
b0 M
#1250435
1N
b1 O
#1250436
0N
b0 O
#1250438
b1000 P
#1250898
0T
b0 U
#1250899
1V
b1 W
#1250900
0V
b0 W
#1250902
b1000 X
#1251314
0\
b0 ]
#1251315
1^
b1 _
#1251316
0^
b0 _
#1251318
b1000 `
#1251718
0d
b0 e
#1251719
1f
b1 g
#1251720
0f
b0 g
#1251722
b1000 h
#1252098
0l
b0 m
#1252099
1n
b1 o
#1252100
0n
b0 o
#1252102
b1000 p
#1252702
0t
b0 u
#1252703
1v
b1 w
#1252704
0v
b0 w
#1252706
b1000 x
#1252974
0|
b0 }
#1252975
1~
b1 !!
#1252976
0~
b0 !!
