XuLei_conv1x1/bias_2.vcd
$date today $end
$timescale 1 ns $end
$scope module top $end
$scope module slice0 $end
$var integer 1 ! prefetch $end
$var integer 32 " prefetch_time $end
$var integer 1 # config $end
$var integer 1 $ compute $end
$var integer 32 % compute_time $end
$var integer 1 & write_back $end
$var integer 32 ' write_back_time $end
$var integer 10 ( TG_id $end
$upscope $end
$scope module slice1 $end
$var integer 1 ) prefetch $end
$var integer 32 * prefetch_time $end
$var integer 1 + config $end
$var integer 1 , compute $end
$var integer 32 - compute_time $end
$var integer 1 . write_back $end
$var integer 32 / write_back_time $end
$var integer 10 0 TG_id $end
$upscope $end
$scope module slice10 $end
$var integer 1 q prefetch $end
$var integer 32 r prefetch_time $end
$var integer 1 s config $end
$var integer 1 t compute $end
$var integer 32 u compute_time $end
$var integer 1 v write_back $end
$var integer 32 w write_back_time $end
$var integer 10 x TG_id $end
$upscope $end
$scope module slice11 $end
$var integer 1 y prefetch $end
$var integer 32 z prefetch_time $end
$var integer 1 { config $end
$var integer 1 | compute $end
$var integer 32 } compute_time $end
$var integer 1 ~ write_back $end
$var integer 32 !! write_back_time $end
$var integer 10 "! TG_id $end
$upscope $end
$scope module slice12 $end
$var integer 1 #! prefetch $end
$var integer 32 $! prefetch_time $end
$var integer 1 %! config $end
$var integer 1 &! compute $end
$var integer 32 '! compute_time $end
$var integer 1 (! write_back $end
$var integer 32 )! write_back_time $end
$var integer 10 *! TG_id $end
$upscope $end
$scope module slice13 $end
$var integer 1 +! prefetch $end
$var integer 32 ,! prefetch_time $end
$var integer 1 -! config $end
$var integer 1 .! compute $end
$var integer 32 /! compute_time $end
$var integer 1 0! write_back $end
$var integer 32 1! write_back_time $end
$var integer 10 2! TG_id $end
$upscope $end
$scope module slice14 $end
$var integer 1 3! prefetch $end
$var integer 32 4! prefetch_time $end
$var integer 1 5! config $end
$var integer 1 6! compute $end
$var integer 32 7! compute_time $end
$var integer 1 8! write_back $end
$var integer 32 9! write_back_time $end
$var integer 10 :! TG_id $end
$upscope $end
$scope module slice15 $end
$var integer 1 ;! prefetch $end
$var integer 32 <! prefetch_time $end
$var integer 1 =! config $end
$var integer 1 >! compute $end
$var integer 32 ?! compute_time $end
$var integer 1 @! write_back $end
$var integer 32 A! write_back_time $end
$var integer 10 B! TG_id $end
$upscope $end
$scope module slice2 $end
$var integer 1 1 prefetch $end
$var integer 32 2 prefetch_time $end
$var integer 1 3 config $end
$var integer 1 4 compute $end
$var integer 32 5 compute_time $end
$var integer 1 6 write_back $end
$var integer 32 7 write_back_time $end
$var integer 10 8 TG_id $end
$upscope $end
$scope module slice3 $end
$var integer 1 9 prefetch $end
$var integer 32 : prefetch_time $end
$var integer 1 ; config $end
$var integer 1 < compute $end
$var integer 32 = compute_time $end
$var integer 1 > write_back $end
$var integer 32 ? write_back_time $end
$var integer 10 @ TG_id $end
$upscope $end
$scope module slice4 $end
$var integer 1 A prefetch $end
$var integer 32 B prefetch_time $end
$var integer 1 C config $end
$var integer 1 D compute $end
$var integer 32 E compute_time $end
$var integer 1 F write_back $end
$var integer 32 G write_back_time $end
$var integer 10 H TG_id $end
$upscope $end
$scope module slice5 $end
$var integer 1 I prefetch $end
$var integer 32 J prefetch_time $end
$var integer 1 K config $end
$var integer 1 L compute $end
$var integer 32 M compute_time $end
$var integer 1 N write_back $end
$var integer 32 O write_back_time $end
$var integer 10 P TG_id $end
$upscope $end
$scope module slice6 $end
$var integer 1 Q prefetch $end
$var integer 32 R prefetch_time $end
$var integer 1 S config $end
$var integer 1 T compute $end
$var integer 32 U compute_time $end
$var integer 1 V write_back $end
$var integer 32 W write_back_time $end
$var integer 10 X TG_id $end
$upscope $end
$scope module slice7 $end
$var integer 1 Y prefetch $end
$var integer 32 Z prefetch_time $end
$var integer 1 [ config $end
$var integer 1 \ compute $end
$var integer 32 ] compute_time $end
$var integer 1 ^ write_back $end
$var integer 32 _ write_back_time $end
$var integer 10 ` TG_id $end
$upscope $end
$scope module slice8 $end
$var integer 1 a prefetch $end
$var integer 32 b prefetch_time $end
$var integer 1 c config $end
$var integer 1 d compute $end
$var integer 32 e compute_time $end
$var integer 1 f write_back $end
$var integer 32 g write_back_time $end
$var integer 10 h TG_id $end
$upscope $end
$scope module slice9 $end
$var integer 1 i prefetch $end
$var integer 32 j prefetch_time $end
$var integer 1 k config $end
$var integer 1 l compute $end
$var integer 32 m compute_time $end
$var integer 1 n write_back $end
$var integer 32 o write_back_time $end
$var integer 10 p TG_id $end
$upscope $end
$upscope $end
$enddefinitions $end
#0
$dumpvars
0!
b0 "
0#
0$
b0 %
0&
b0 '
b0 (
0)
b0 *
0+
0,
b0 -
0.
b0 /
b0 0
01
b0 2
03
04
b0 5
06
b0 7
b0 8
09
b0 :
0;
0<
b0 =
0>
b0 ?
b0 @
0A
b0 B
0C
0D
b0 E
0F
b0 G
b0 H
0I
b0 J
0K
0L
b0 M
0N
b0 O
b0 P
0Q
b0 R
0S
0T
b0 U
0V
b0 W
b0 X
0Y
b0 Z
0[
0\
b0 ]
0^
b0 _
b0 `
0a
b0 b
0c
0d
b0 e
0f
b0 g
b0 h
0i
b0 j
0k
0l
b0 m
0n
b0 o
b0 p
0q
b0 r
0s
0t
b0 u
0v
b0 w
b0 x
0y
b0 z
0{
0|
b0 }
0~
b0 !!
b0 "!
1#!
b10000101100111000 $!
0%!
0&!
b0 '!
0(!
b0 )!
b0 *!
1+!
b10000101100111010 ,!
0-!
0.!
b0 /!
00!
b0 1!
b0 2!
13!
b10000101101000000 4!
05!
06!
b0 7!
08!
b0 9!
b0 :!
1;!
b10000101101000010 <!
0=!
0>!
b0 ?!
0@!
b0 A!
b0 B!
$end
#2
1a
b10000101110010110 b
1i
b10000101110011000 j
1q
b10000101110011110 r
1y
b10000101110100000 z
#4
1A
b10000101110000010 B
1I
b10000101110000100 J
1Q
b10000101110001010 R
1Y
b10000101110001100 Z
#6
1!
b1000011101010000 "
1)
b1000011110000010 *
11
b1000011110001000 2
19
b1000011110001010 :
#34646
0!
b0 "
#34647
1$
b101101101101 %
#34696
0)
b0 *
#34697
1,
b101101101101 -
#34702
01
b0 2
#34703
14
b101101101101 5
#34704
09
b0 :
#34705
1<
b101101101101 =
#34717
1!
b1001101110110001 "
#34767
1)
b1001101110000001 *
#34773
11
b1001101110000001 2
#34775
19
b1001101110000001 :
#37572
0$
b0 %
#37573
1&
b1100101000110001 '
#37622
0,
b0 -
#37623
1.
b1100101000000010 /
#37628
04
b0 5
#37629
16
b1100100111111111 7
#37630
0<
b0 =
#37631
1>
b1100101000000000 ?
#68408
0#!
b0 $!
#68409
1&!
b1001111110000 '!
#68410
0+!
b0 ,!
#68411
1.!
b1001111110000 /!
#68416
03!
b0 4!
#68417
16!
b1001111110000 7!
#68418
0;!
b0 <!
#68419
1>!
b1001111110000 ?!
#68479
1#!
b1101001111110101 $!
#68481
1+!
b1101001111110101 ,!
#68486
0A
b0 B
#68487
13!
b1101001111110101 4!
1D
b1001111110000 E
#68488
0I
b0 J
#68489
1;!
b1101001111110101 <!
1L
b1001111110000 M
#68494
0Q
b0 R
#68495
1T
b1001111110000 U
#68496
0Y
b0 Z
#68497
1\
b1001111110000 ]
#68504
0a
b0 b
#68505
1d
b1001111110000 e
#68506
0i
b0 j
#68507
1l
b1001111110000 m
#68512
0q
b0 r
#68513
1t
b1001111110000 u
#68514
0y
b0 z
#68515
1|
b1001111110000 }
#68557
1A
b1101010001000111 B
#68559
1I
b1101010001000111 J
#68565
1Q
b1101010001000111 R
#68567
1Y
b1101010001000111 Z
#68575
1a
b1101010001000101 b
#68577
1i
b1101010001000101 j
#68583
1q
b1101010001000101 r
#68585
1y
b1101010001000101 z
#73513
0&!
b0 '!
#73514
1(!
b10010110110111010 )!
#73515
0.!
b0 /!
#73516
10!
b10010110110111100 1!
#73521
06!
b0 7!
#73522
18!
b10010110111001100 9!
#73523
0>!
b0 ?!
#73524
1@!
b10010111000011000 A!
#73591
0D
b0 E
#73592
1F
b10010111100111110 G
#73593
0L
b0 M
#73594
1N
b10010111101000000 O
#73599
0T
b0 U
#73600
1V
b10010111100111110 W
#73601
0\
b0 ]
#73602
1^
b10010111101000000 _
#73609
0d
b0 e
#73610
1f
b10010111100111001 g
#73611
0l
b0 m
#73612
1n
b10010111101001110 o
#73617
0t
b0 u
#73618
1v
b10010111101001100 w
#73619
0|
b0 }
#73620
1~
b10010111101001110 !!
#74574
0!
b0 "
#74576
0)
b0 *
#74582
01
b0 2
#74584
09
b0 :
#89334
0&
b0 '
#89336
b1 (
#89337
0.
b0 /
#89339
b1 0
#89340
06
b0 7
#89342
b1 8
#89343
0>
b0 ?
#89345
1$
b101101110000 %
b1 @
#89346
1,
b101101110000 -
#89347
14
b101101110000 5
#89348
1<
b101101110000 =
#92273
0$
b0 %
#92274
0,
b0 -
1&
b100100011001110 '
#92275
04
b0 5
1.
b100100011010000 /
#92276
0<
b0 =
16
b100100011010010 7
#92277
1>
b100100011010100 ?
#110912
0&
b0 '
#110914
b10 (
#110915
0.
b0 /
#110917
b10 0
#110918
06
b0 7
#110920
b10 8
#110921
0>
b0 ?
#110923
b10 @
#122740
0#!
b0 $!
#122742
0+!
b0 ,!
#122748
03!
b0 4!
#122750
0;!
b0 <!
#122900
0A
b0 B
#122902
0I
b0 J
#122908
0Q
b0 R
#122910
0Y
b0 Z
#122916
0a
b0 b
#122918
0i
b0 j
#122924
0q
b0 r
#122926
0y
b0 z
#150756
0(!
b0 )!
#150758
b1 *!
#150760
00!
b0 1!
#150762
b1 2!
#150765
1&!
b1001111110011 '!
#150766
1.!
b1001111110011 /!
#150782
08!
b0 9!
#150784
b1 :!
#150799
16!
b1001111110011 7!
#150860
0@!
b0 A!
#150862
b1 B!
#150864
1>!
b1001111110011 ?!
#151222
0F
b0 G
#151224
b1 H
#151226
0N
b0 O
#151228
b1 P
#151230
0V
b0 W
#151232
b1 X
#151234
0^
b0 _
#151235
0f
b0 g
#151236
b1 `
#151237
1D
b1001111110011 E
b1 h
#151238
1L
b1001111110011 M
#151239
1T
b1001111110011 U
#151240
1\
b1001111110011 ]
#151241
1d
b1001111110011 e
#151258
0n
b0 o
#151260
b1 p
#151262
0v
b0 w
#151264
b1 x
#151266
0~
b0 !!
#151268
b1 "!
#151274
1l
b1001111110011 m
#151275
1t
b1001111110011 u
#151276
1|
b1001111110011 }
#151554
1#!
b1100001001100100 $!
1+!
b1100001001100110 ,!
13!
b1100001001101100 4!
1;!
b1100001001101110 <!
#151556
1a
b1100001101000010 b
1i
b1100001101000100 j
1q
b1100001101001010 r
1y
b1100001101001100 z
#151558
1A
b1100001010111110 B
1I
b1100001011000000 J
1Q
b1100001011000110 R
1Y
b1100001011001000 Z
#151560
1!
b111000110010100 "
1)
b111000110010110 *
11
b111000110011100 2
19
b111000110011110 :
#155872
0&!
b0 '!
#155873
0.!
b0 /!
1(!
b10010001100110011 )!
#155874
10!
b10010001101001000 1!
#155906
06!
b0 7!
#155907
18!
b10010001100101011 9!
#155971
0>!
b0 ?!
#155972
1@!
b10010001011101110 A!
#156344
0D
b0 E
#156345
0L
b0 M
1F
b10010000111000000 G
#156346
0T
b0 U
1N
b10010000111010110 O
#156347
0\
b0 ]
1V
b10010000111011001 W
#156348
0d
b0 e
1^
b10010000111011100 _
#156349
1f
b10010001000000000 g
#156381
0l
b0 m
#156382
0t
b0 u
1n
b10010000111110110 o
#156383
0|
b0 }
1v
b10010000111111001 w
#156384
1~
b10010000111111100 !!
#180636
0!
b0 "
#180637
1$
b101101110000 %
#180638
0)
b0 *
#180639
1,
b101101110000 -
#180644
01
b0 2
#180645
14
b101101110000 5
#180646
09
b0 :
#180647
1<
b101101110000 =
#183565
0$
b0 %
#183566
1&
b100111111010000 '
#183567
0,
b0 -
#183568
1.
b100111111010010 /
#183573
04
b0 5
#183574
16
b100111111100010 7
#183575
0<
b0 =
#183576
1>
b101000001001110 ?
#201318
0#!
b0 $!
#201320
0+!
b0 ,!
#201326
03!
b0 4!
#201328
0;!
b0 <!
#201412
0A
b0 B
#201414
0I
b0 J
#201420
0Q
b0 R
#201422
0Y
b0 Z
#201542
0a
b0 b
#201544
0i
b0 j
#201550
0q
b0 r
#201552
0y
b0 z
#203998
0&
b0 '
#204000
b11 (
#204002
0.
b0 /
#204004
b11 0
#204024
06
b0 7
#204026
b11 8
#204134
0>
b0 ?
#204136
b11 @
#230420
0(!
b0 )!
#230422
b10 *!
#230429
1&!
b1001111110011 '!
#230442
00!
b0 1!
#230444
b10 2!
#230446
1.!
b1001111110011 /!
08!
b0 9!
#230448
b10 :!
#230450
0@!
b0 A!
#230452
b10 B!
#230463
16!
b1001111110011 7!
#230464
1>!
b1001111110011 ?!
#230521
0F
b0 G
#230523
b10 H
#230533
1D
b1001111110011 E
#230544
0N
b0 O
#230546
b10 P
#230548
0V
b0 W
#230550
1L
b1001111110011 M
b10 X
#230551
1T
b1001111110011 U
#230552
0^
b0 _
#230554
b10 `
#230568
1\
b1001111110011 ]
#230589
0f
b0 g
#230591
b10 h
#230601
1d
b1001111110011 e
#230612
0n
b0 o
#230614
b10 p
#230616
0v
b0 w
#230618
1l
b1001111110011 m
b10 x
#230619
1t
b1001111110011 u
#230620
0~
b0 !!
#230622
b10 "!
#230636
1|
b1001111110011 }
#231164
1#!
b1100111011000100 $!
1+!
b1100111011011110 ,!
13!
b1100111011100100 4!
1;!
b1100111011100110 <!
#231166
1a
b1100111100101100 b
1i
b1100111110000010 j
1q
b1100111110001000 r
1y
b1100111110001010 z
#231168
1A
b1100111011101000 B
1I
b1100111100011100 J
1Q
b1100111100100010 R
1Y
b1100111100100100 Z
#231170
1!
b111110010000000 "
1)
b111110010000110 *
11
b111110010001100 2
19
b111110010001110 :
#235536
0&!
b0 '!
#235537
1(!
b10010111110001001 )!
#235553
0.!
b0 /!
#235554
10!
b10010111101111100 1!
#235570
06!
b0 7!
#235571
0>!
b0 ?!
18!
b10010111101101111 9!
#235572
1@!
b10010111101110010 A!
#235640
0D
b0 E
#235641
1F
b10010111110001001 G
#235657
0L
b0 M
#235658
0T
b0 U
1N
b10010111101111100 O
#235659
1V
b10010111101111111 W
#235675
0\
b0 ]
#235676
1^
b10010111101101111 _
#235708
0d
b0 e
#235709
1f
b10010111101100101 g
#235725
0l
b0 m
#235726
0t
b0 u
1n
b10010111101111000 o
#235727
1v
b10010111101111011 w
#235743
0|
b0 }
#235744
1~
b10010111101101011 !!
#263042
0!
b0 "
#263043
1$
b101101110000 %
#263048
0)
b0 *
#263049
1,
b101101110000 -
#263054
01
b0 2
#263055
14
b101101110000 5
#263056
09
b0 :
#263057
1<
b101101110000 =
#265971
0$
b0 %
#265972
1&
b101000101010110 '
#265977
0,
b0 -
#265978
1.
b101000111011000 /
#265983
04
b0 5
#265984
16
b101000111010110 7
#265985
0<
b0 =
#265986
1>
b101000111011000 ?
#284096
0#!
b0 $!
#284122
0+!
b0 ,!
#284128
03!
b0 4!
#284130
0;!
b0 <!
#284136
0A
b0 B
#284188
0I
b0 J
#284194
0Q
b0 R
#284196
0Y
b0 Z
#284202
0a
b0 b
#284288
0i
b0 j
#284294
0q
b0 r
#284296
0y
b0 z
#286794
0&
b0 '
#286796
b100 (
#286930
0.
b0 /
#286932
b100 0
#286934
06
b0 7
#286936
b100 8
#286938
0>
b0 ?
#286940
b100 @
#313242
0(!
b0 )!
#313244
b11 *!
#313245
1&!
b1001111110011 '!
#313246
00!
b0 1!
#313248
b11 2!
#313250
08!
b0 9!
#313252
b11 :!
#313254
0@!
b0 A!
#313256
b11 B!
#313262
1.!
b1001111110011 /!
#313263
16!
b1001111110011 7!
#313264
1>!
b1001111110011 ?!
#313346
0F
b0 G
#313348
b11 H
#313349
1D
b1001111110011 E
#313350
0N
b0 O
#313352
b11 P
#313354
0V
b0 W
#313355
0^
b0 _
#313356
b11 X
#313357
b11 `
#313366
1L
b1001111110011 M
#313367
1T
b1001111110011 U
#313368
1\
b1001111110011 ]
#313378
0f
b0 g
#313380
b11 h
#313385
1d
b1001111110011 e
#313414
0n
b0 o
#313416
b11 p
#313418
1l
b1001111110011 m
0v
b0 w
#313419
0~
b0 !!
#313420
b11 x
#313421
b11 "!
#313435
1t
b1001111110011 u
#313436
1|
b1001111110011 }
#313716
1#!
b1110110011101100 $!
1+!
b1110110011101110 ,!
13!
b1110110011110100 4!
1;!
b1110110011110110 <!
#313718
1a
b1110110100111000 b
1i
b1110110100111010 j
1q
b1110110101000000 r
1y
b1110110101000010 z
#313720
1A
b1110110100011000 B
1I
b1110110100011010 J
1Q
b1110110100100000 R
1Y
b1110110100100010 Z
#313722
1!
b1000011111001010 "
1)
b1000011111001100 *
11
b1000011111010010 2
19
b1000011111010100 :
#318352
0&!
b0 '!
#318353
1(!
b10100100011011111 )!
#318369
0.!
b0 /!
#318370
06!
b0 7!
10!
b10100100100001110 1!
#318371
0>!
b0 ?!
18!
b10100100100110011 9!
#318372
1@!
b10100100100110110 A!
#318456
0D
b0 E
#318457
1F
b10100100110100011 G
#318473
0L
b0 M
#318474
0T
b0 U
1N
b10100100110010110 O
#318475
0\
b0 ]
1V
b10100100110011001 W
#318476
1^
b10100100110011100 _
#318492
0d
b0 e
#318493
1f
b10100100110001100 g
#318525
0l
b0 m
#318526
1n
b10100100110000010 o
#318542
0t
b0 u
#318543
0|
b0 }
1v
b10100100101110101 w
#318544
1~
b10100100101111000 !!
#348484
0!
b0 "
#348485
1$
b101101110000 %
#348486
0)
b0 *
#348487
1,
b101101110000 -
#348492
01
b0 2
#348493
14
b101101110000 5
#348494
09
b0 :
#348495
1<
b101101110000 =
#351413
0$
b0 %
#351414
1&
b100100010000010 '
#351415
0,
b0 -
#351416
1.
b100100010000110 /
#351421
04
b0 5
#351422
16
b100100010000011 7
#351423
0<
b0 =
#351424
1>
b100100010000100 ?
#369976
0&
b0 '
#369978
b101 (
#369982
0.
b0 /
#369984
b101 0
#369985
06
b0 7
#369987
b101 8
#369988
0>
b0 ?
#369990
b101 @
#374368
0#!
b0 $!
#374370
0+!
b0 ,!
#374376
03!
b0 4!
#374378
0;!
b0 <!
#374416
0A
b0 B
#374418
0I
b0 J
#374424
0Q
b0 R
#374426
0Y
b0 Z
#374446
0a
b0 b
#374448
0i
b0 j
#374454
0q
b0 r
#374456
0y
b0 z
#402544
0(!
b0 )!
#402546
b100 *!
#402557
1&!
b1001111110011 '!
#402608
00!
b0 1!
#402610
b100 2!
#402622
1.!
b1001111110011 /!
#402646
08!
b0 9!
#402648
b100 :!
#402650
0@!
b0 A!
#402652
b100 B!
#402655
16!
b1001111110011 7!
#402656
1>!
b1001111110011 ?!
#402844
0F
b0 G
#402846
b100 H
#402848
0N
b0 O
#402850
b100 P
#402852
0V
b0 W
#402853
1D
b1001111110011 E
#402854
1L
b1001111110011 M
b100 X
#402855
1T
b1001111110011 U
#402856
0^
b0 _
#402857
0f
b0 g
#402858
b100 `
#402859
b100 h
#402872
1\
b1001111110011 ]
#402873
1d
b1001111110011 e
#402880
0n
b0 o
#402882
b100 p
#402884
0v
b0 w
#402886
b100 x
#402888
0~
b0 !!
#402890
1l
b1001111110011 m
b100 "!
#402891
1t
b1001111110011 u
#402892
1|
b1001111110011 }
#403206
1#!
b1110110100100100 $!
1+!
b1110110100100110 ,!
13!
b1110110100101100 4!
1;!
b1110110100101110 <!
#403208
1a
b1110110101110000 b
1i
b1110110101110010 j
1q
b1110110101111000 r
1y
b1110110101111010 z
#403210
1A
b1110110101010000 B
1I
b1110110101010010 J
1Q
b1110110101011000 R
1Y
b1110110101011010 Z
#403212
1!
b1000011011001100 "
1)
b1000011011001110 *
11
b1000011011010100 2
19
b1000011011010110 :
#407664
0&!
b0 '!
#407665
1(!
b10100100111001001 )!
#407729
0.!
b0 /!
#407730
10!
b10100100111001000 1!
#407762
06!
b0 7!
#407763
0>!
b0 ?!
18!
b10100100111001101 9!
#407764
1@!
b10100100111010000 A!
#407960
0D
b0 E
#407961
0L
b0 M
1F
b10100100111001101 G
#407962
0T
b0 U
1N
b10100100111010000 O
#407963
1V
b10100100111010011 W
#407979
0\
b0 ]
#407980
0d
b0 e
1^
b10100100111000110 _
#407981
1f
b10100100111000110 g
#407997
0l
b0 m
#407998
0t
b0 u
1n
b10100100111001100 o
#407999
0|
b0 }
1v
b10100100111001111 w
#408000
1~
b10100100111010010 !!
#437720
0!
b0 "
#437721
1$
b101101110000 %
#437722
0)
b0 *
#437723
1,
b101101110000 -
#437728
01
b0 2
#437729
14
b101101110000 5
#437730
09
b0 :
#437731
1<
b101101110000 =
#440649
0$
b0 %
#440650
1&
b100100011001100 '
#440651
0,
b0 -
#440652
1.
b100100011001101 /
#440657
04
b0 5
#440658
16
b100100011001010 7
#440659
0<
b0 =
#440660
1>
b100100011001011 ?
#459286
0&
b0 '
#459288
b110 (
#459289
0.
b0 /
#459291
b110 0
#459292
06
b0 7
#459294
b110 8
#459295
0>
b0 ?
#459297
b110 @
#463914
0#!
b0 $!
#463916
0+!
b0 ,!
#463922
03!
b0 4!
#463924
0;!
b0 <!
#463962
0A
b0 B
#463964
0I
b0 J
#463970
0Q
b0 R
#463972
0Y
b0 Z
#463992
0a
b0 b
#463994
0i
b0 j
#464000
0q
b0 r
#464002
0y
b0 z
#492090
0(!
b0 )!
#492092
b101 *!
#492093
1&!
b1001111110011 '!
#492154
00!
b0 1!
#492156
b101 2!
#492158
1.!
b1001111110011 /!
#492192
08!
b0 9!
#492194
b101 :!
#492196
0@!
b0 A!
#492198
b101 B!
#492207
16!
b1001111110011 7!
#492208
1>!
b1001111110011 ?!
#492390
0F
b0 G
#492392
b101 H
#492394
0N
b0 O
#492396
b101 P
#492398
0V
b0 W
#492400
b101 X
#492402
0^
b0 _
#492403
0f
b0 g
#492404
b101 `
#492405
1D
b1001111110011 E
b101 h
#492406
1L
b1001111110011 M
#492407
1T
b1001111110011 U
#492408
1\
b1001111110011 ]
#492409
1d
b1001111110011 e
#492426
0n
b0 o
#492428
b101 p
#492430
0v
b0 w
#492432
b101 x
#492434
0~
b0 !!
#492436
b101 "!
#492442
1l
b1001111110011 m
#492443
1t
b1001111110011 u
#492444
1|
b1001111110011 }
#492748
1#!
b1101001101110110 $!
1+!
b1101001101111000 ,!
13!
b1101001101111110 4!
1;!
b1101001110000000 <!
#492750
1a
b1101010001010100 b
1i
b1101010001010110 j
1q
b1101010001011100 r
1y
b1101010001011110 z
#492752
1A
b1101001111010000 B
1I
b1101001111010010 J
1Q
b1101001111011000 R
1Y
b1101001111011010 Z
#492754
1!
b1000001011101110 "
1)
b1000001011110000 *
11
b1000001011110110 2
19
b1000001011111000 :
#497200
0&!
b0 '!
#497201
1(!
b10011001110111111 )!
#497265
0.!
b0 /!
#497266
10!
b10011001110010100 1!
#497314
06!
b0 7!
#497315
0>!
b0 ?!
18!
b10011001101100111 9!
#497316
1@!
b10011001101101010 A!
#497512
0D
b0 E
#497513
0L
b0 M
1F
b10011001011101100 G
#497514
0T
b0 U
1N
b10011001100000010 O
#497515
0\
b0 ]
1V
b10011001100000101 W
#497516
0d
b0 e
1^
b10011001100001000 _
#497517
1f
b10011001100101100 g
#497549
0l
b0 m
#497550
0t
b0 u
1n
b10011001100100010 o
#497551
0|
b0 }
1v
b10011001100100101 w
#497552
1~
b10011001100101000 !!
#526272
0!
b0 "
#526273
1$
b101101110000 %
#526274
0)
b0 *
#526275
1,
b101101110000 -
#526280
01
b0 2
#526281
14
b101101110000 5
#526282
09
b0 :
#526283
1<
b101101110000 =
#529201
0$
b0 %
#529202
1&
b100111110001000 '
#529203
0,
b0 -
#529204
1.
b100111110001010 /
#529209
04
b0 5
#529210
16
b100111110011010 7
#529211
0<
b0 =
#529212
1>
b101000000000110 ?
#546882
0#!
b0 $!
#546884
0+!
b0 ,!
#546890
03!
b0 4!
#546892
0;!
b0 <!
#546976
0A
b0 B
#546978
0I
b0 J
#546984
0Q
b0 R
#546986
0Y
b0 Z
#547106
0a
b0 b
#547108
0i
b0 j
#547114
0q
b0 r
#547116
0y
b0 z
#549562
0&
b0 '
#549564
b111 (
#549566
0.
b0 /
#549568
b111 0
#549588
06
b0 7
#549590
b111 8
#549698
0>
b0 ?
#549700
b111 @
#575984
0(!
b0 )!
#575986
b110 *!
#575997
1&!
b1001111110011 '!
#576006
00!
b0 1!
#576008
b110 2!
#576010
08!
b0 9!
#576012
b110 :!
#576014
1.!
b1001111110011 /!
0@!
b0 A!
#576015
16!
b1001111110011 7!
#576016
b110 B!
#576032
1>!
b1001111110011 ?!
#576085
0F
b0 G
#576087
b110 H
#576101
1D
b1001111110011 E
#576108
0N
b0 O
#576110
b110 P
#576112
0V
b0 W
#576114
b110 X
#576116
0^
b0 _
#576118
1L
b1001111110011 M
b110 `
#576119
1T
b1001111110011 U
#576120
1\
b1001111110011 ]
#576153
0f
b0 g
#576155
b110 h
#576169
1d
b1001111110011 e
#576176
0n
b0 o
#576178
b110 p
#576180
0v
b0 w
#576182
b110 x
#576184
0~
b0 !!
#576186
1l
b1001111110011 m
b110 "!
#576187
1t
b1001111110011 u
#576188
1|
b1001111110011 }
#576490
1#!
b1100011110100000 $!
1+!
b1100011110111010 ,!
13!
b1100011111000000 4!
1;!
b1100011111000010 <!
#576492
1a
b1100100000001000 b
1i
b1100100001011110 j
1q
b1100100001100100 r
1y
b1100100001100110 z
#576494
1A
b1100011111000100 B
1I
b1100011111111000 J
1Q
b1100011111111110 R
1Y
b1100100000000000 Z
#576496
1!
b111001111111010 "
1)
b111010000000000 *
11
b111010000000110 2
19
b111010000001000 :
#581104
0&!
b0 '!
#581105
1(!
b10010011101110011 )!
#581121
0.!
b0 /!
#581122
06!
b0 7!
10!
b10010011101100110 1!
#581123
18!
b10010011101101001 9!
#581139
0>!
b0 ?!
#581140
1@!
b10010011101011100 A!
#581208
0D
b0 E
#581209
1F
b10010011101110011 G
#581225
0L
b0 M
#581226
0T
b0 U
1N
b10010011101100110 O
#581227
0\
b0 ]
1V
b10010011101101001 W
#581228
1^
b10010011101101001 _
#581276
0d
b0 e
#581277
1f
b10010011101001111 g
#581293
0l
b0 m
#581294
0t
b0 u
1n
b10010011101100010 o
#581295
0|
b0 }
1v
b10010011101100101 w
#581296
1~
b10010011101100101 !!
#606186
0!
b0 "
#606187
1$
b101101110000 %
#606192
0)
b0 *
#606193
1,
b101101110000 -
#606198
01
b0 2
#606199
14
b101101110000 5
#606200
09
b0 :
#606201
1<
b101101110000 =
#609115
0$
b0 %
#609116
1&
b101001010111000 '
#609121
0,
b0 -
#609122
1.
b101001100111010 /
#609127
04
b0 5
#609128
16
b101001100111000 7
#609129
0<
b0 =
#609130
1>
b101001100111010 ?
#627594
0#!
b0 $!
#627620
0+!
b0 ,!
#627626
03!
b0 4!
#627628
0;!
b0 <!
#627634
0A
b0 B
#627686
0I
b0 J
#627692
0Q
b0 R
#627694
0Y
b0 Z
#627700
0a
b0 b
#627786
0i
b0 j
#627792
0q
b0 r
#627794
0y
b0 z
#630292
0&
b0 '
#630294
b1000 (
#630428
0.
b0 /
#630430
b1000 0
#630432
06
b0 7
#630434
b1000 8
#630436
0>
b0 ?
#630438
b1000 @
#656740
0(!
b0 )!
#656742
b111 *!
#656744
00!
b0 1!
#656746
b111 2!
#656748
08!
b0 9!
#656749
1&!
b1001111110011 '!
#656750
1.!
b1001111110011 /!
b111 :!
#656751
16!
b1001111110011 7!
#656752
0@!
b0 A!
#656754
b111 B!
#656768
1>!
b1001111110011 ?!
#656844
0F
b0 G
#656846
b111 H
#656848
0N
b0 O
#656850
b111 P
#656852
0V
b0 W
#656853
1D
b1001111110011 E
0^
b0 _
#656854
1L
b1001111110011 M
b111 X
#656855
1T
b1001111110011 U
b111 `
#656856
1\
b1001111110011 ]
#656876
0f
b0 g
#656878
b111 h
#656889
1d
b1001111110011 e
#656912
0n
b0 o
#656914
b111 p
#656916
0v
b0 w
#656917
0~
b0 !!
#656918
b111 x
#656919
b111 "!
#656922
1l
b1001111110011 m
#656923
1t
b1001111110011 u
#656924
1|
b1001111110011 }
#657218
1#!
b1111010001001110 $!
1+!
b1111010001010000 ,!
13!
b1111010001010110 4!
1;!
b1111010001011000 <!
#657220
1a
b1111010010011010 b
1i
b1111010010011100 j
1q
b1111010010100010 r
1y
b1111010010100100 z
#657222
1A
b1111010001111010 B
1I
b1111010001111100 J
1Q
b1111010010000010 R
1Y
b1111010010000100 Z
#657224
1!
b1000111011110010 "
1)
b1000111011110100 *
11
b1000111011110110 2
19
b1000111011111000 :
#661856
0&!
b0 '!
#661857
0.!
b0 /!
1(!
b10101000000111111 )!
#661858
06!
b0 7!
10!
b10101000001111110 1!
#661859
18!
b10101000010100011 9!
#661875
0>!
b0 ?!
#661876
1@!
b10101000010010110 A!
#661960
0D
b0 E
#661961
0L
b0 M
1F
b10101000100000011 G
#661962
0T
b0 U
1N
b10101000100000110 O
#661963
0\
b0 ]
1V
b10101000100001001 W
#661964
1^
b10101000100001100 _
#661996
0d
b0 e
#661997
1f
b10101000011101100 g
#662029
0l
b0 m
#662030
0t
b0 u
1n
b10101000011100010 o
#662031
0|
b0 }
1v
b10101000011100101 w
#662032
1~
b10101000011101000 !!
#693818
0!
b0 "
#693819
1$
b101101110000 %
#693820
0)
b0 *
#693821
1,
b101101110000 -
#693822
01
b0 2
#693823
14
b101101110000 5
#693824
09
b0 :
#693825
1<
b101101110000 =
#696747
0$
b0 %
#696748
1&
b100100101111010 '
#696749
0,
b0 -
#696750
1.
b100100101111011 /
#696751
04
b0 5
#696752
16
b100100101111100 7
#696753
0<
b0 =
#696754
1>
b100100101111101 ?
#715558
0&
b0 '
#715560
b1001 (
#715561
0.
b0 /
#715563
b1001 0
#715564
06
b0 7
#715566
b1001 8
#715567
0>
b0 ?
