XuLei_conv1x1/nobias_3.vcd
$date today $end
$timescale 1 ns $end
$scope module top $end
$scope module slice0 $end
$var integer 1 ! prefetch $end
$var integer 32 " prefetch_time $end
$var integer 1 # config $end
$var integer 1 $ compute $end
$var integer 32 % compute_time $end
$var integer 1 & write_back $end
$var integer 32 ' write_back_time $end
$var integer 10 ( TG_id $end
$upscope $end
$scope module slice1 $end
$var integer 1 ) prefetch $end
$var integer 32 * prefetch_time $end
$var integer 1 + config $end
$var integer 1 , compute $end
$var integer 32 - compute_time $end
$var integer 1 . write_back $end
$var integer 32 / write_back_time $end
$var integer 10 0 TG_id $end
$upscope $end
$scope module slice10 $end
$var integer 1 q prefetch $end
$var integer 32 r prefetch_time $end
$var integer 1 s config $end
$var integer 1 t compute $end
$var integer 32 u compute_time $end
$var integer 1 v write_back $end
$var integer 32 w write_back_time $end
$var integer 10 x TG_id $end
$upscope $end
$scope module slice11 $end
$var integer 1 y prefetch $end
$var integer 32 z prefetch_time $end
$var integer 1 { config $end
$var integer 1 | compute $end
$var integer 32 } compute_time $end
$var integer 1 ~ write_back $end
$var integer 32 !! write_back_time $end
$var integer 10 "! TG_id $end
$upscope $end
$scope module slice12 $end
$var integer 1 #! prefetch $end
$var integer 32 $! prefetch_time $end
$var integer 1 %! config $end
$var integer 1 &! compute $end
$var integer 32 '! compute_time $end
$var integer 1 (! write_back $end
$var integer 32 )! write_back_time $end
$var integer 10 *! TG_id $end
$upscope $end
$scope module slice13 $end
$var integer 1 +! prefetch $end
$var integer 32 ,! prefetch_time $end
$var integer 1 -! config $end
$var integer 1 .! compute $end
$var integer 32 /! compute_time $end
$var integer 1 0! write_back $end
$var integer 32 1! write_back_time $end
$var integer 10 2! TG_id $end
$upscope $end
$scope module slice14 $end
$var integer 1 3! prefetch $end
$var integer 32 4! prefetch_time $end
$var integer 1 5! config $end
$var integer 1 6! compute $end
$var integer 32 7! compute_time $end
$var integer 1 8! write_back $end
$var integer 32 9! write_back_time $end
$var integer 10 :! TG_id $end
$upscope $end
$scope module slice15 $end
$var integer 1 ;! prefetch $end
$var integer 32 <! prefetch_time $end
$var integer 1 =! config $end
$var integer 1 >! compute $end
$var integer 32 ?! compute_time $end
$var integer 1 @! write_back $end
$var integer 32 A! write_back_time $end
$var integer 10 B! TG_id $end
$upscope $end
$scope module slice2 $end
$var integer 1 1 prefetch $end
$var integer 32 2 prefetch_time $end
$var integer 1 3 config $end
$var integer 1 4 compute $end
$var integer 32 5 compute_time $end
$var integer 1 6 write_back $end
$var integer 32 7 write_back_time $end
$var integer 10 8 TG_id $end
$upscope $end
$scope module slice3 $end
$var integer 1 9 prefetch $end
$var integer 32 : prefetch_time $end
$var integer 1 ; config $end
$var integer 1 < compute $end
$var integer 32 = compute_time $end
$var integer 1 > write_back $end
$var integer 32 ? write_back_time $end
$var integer 10 @ TG_id $end
$upscope $end
$scope module slice4 $end
$var integer 1 A prefetch $end
$var integer 32 B prefetch_time $end
$var integer 1 C config $end
$var integer 1 D compute $end
$var integer 32 E compute_time $end
$var integer 1 F write_back $end
$var integer 32 G write_back_time $end
$var integer 10 H TG_id $end
$upscope $end
$scope module slice5 $end
$var integer 1 I prefetch $end
$var integer 32 J prefetch_time $end
$var integer 1 K config $end
$var integer 1 L compute $end
$var integer 32 M compute_time $end
$var integer 1 N write_back $end
$var integer 32 O write_back_time $end
$var integer 10 P TG_id $end
$upscope $end
$scope module slice6 $end
$var integer 1 Q prefetch $end
$var integer 32 R prefetch_time $end
$var integer 1 S config $end
$var integer 1 T compute $end
$var integer 32 U compute_time $end
$var integer 1 V write_back $end
$var integer 32 W write_back_time $end
$var integer 10 X TG_id $end
$upscope $end
$scope module slice7 $end
$var integer 1 Y prefetch $end
$var integer 32 Z prefetch_time $end
$var integer 1 [ config $end
$var integer 1 \ compute $end
$var integer 32 ] compute_time $end
$var integer 1 ^ write_back $end
$var integer 32 _ write_back_time $end
$var integer 10 ` TG_id $end
$upscope $end
$scope module slice8 $end
$var integer 1 a prefetch $end
$var integer 32 b prefetch_time $end
$var integer 1 c config $end
$var integer 1 d compute $end
$var integer 32 e compute_time $end
$var integer 1 f write_back $end
$var integer 32 g write_back_time $end
$var integer 10 h TG_id $end
$upscope $end
$scope module slice9 $end
$var integer 1 i prefetch $end
$var integer 32 j prefetch_time $end
$var integer 1 k config $end
$var integer 1 l compute $end
$var integer 32 m compute_time $end
$var integer 1 n write_back $end
$var integer 32 o write_back_time $end
$var integer 10 p TG_id $end
$upscope $end
$upscope $end
$enddefinitions $end
#0
$dumpvars
0!
b0 "
0#
0$
b0 %
0&
b0 '
b0 (
0)
b0 *
0+
0,
b0 -
0.
b0 /
b0 0
01
b0 2
03
04
b0 5
06
b0 7
b0 8
09
b0 :
0;
0<
b0 =
0>
b0 ?
b0 @
0A
b0 B
0C
0D
b0 E
0F
b0 G
b0 H
0I
b0 J
0K
0L
b0 M
0N
b0 O
b0 P
0Q
b0 R
0S
0T
b0 U
0V
b0 W
b0 X
0Y
b0 Z
0[
0\
b0 ]
0^
b0 _
b0 `
0a
b0 b
0c
0d
b0 e
0f
b0 g
b0 h
0i
b0 j
0k
0l
b0 m
0n
b0 o
b0 p
0q
b0 r
0s
0t
b0 u
0v
b0 w
b0 x
0y
b0 z
0{
0|
b0 }
0~
b0 !!
b0 "!
1#!
b100001111011111101 $!
0%!
0&!
b0 '!
0(!
b0 )!
b0 *!
1+!
b100001111100101001 ,!
0-!
0.!
b0 /!
00!
b0 1!
b0 2!
13!
b100001111101010101 4!
05!
06!
b0 7!
08!
b0 9!
b0 :!
1;!
b100001111110000001 <!
0=!
0>!
b0 ?!
0@!
b0 A!
b0 B!
$end
#2
1a
b100010000100001011 b
1i
b100010000100110111 j
1q
b100010000101100011 r
1y
b100010000110001111 z
#4
1A
b100010000001011001 B
1I
b100010000010000101 J
1Q
b100010000010110001 R
1Y
b100010000011011101 Z
#6
1!
b100010000110110111 "
1)
b100010000111100011 *
11
b100010001000001111 2
19
b100010001000111011 :
#139005
0#!
b0 $!
#139006
1&!
b1001101111001 '!
#139049
0+!
b0 ,!
#139050
1.!
b1001101111001 /!
#139076
1#!
b11100100100100010 $!
#139093
03!
b0 4!
#139094
16!
b1001101111001 7!
#139120
1+!
b11100100011111010 ,!
#139137
0;!
b0 <!
#139138
1>!
b1001101111001 ?!
#139164
13!
b11100100011010010 4!
#139208
1;!
b11100100010101010 <!
#139357
0A
b0 B
#139358
1D
b1001101111001 E
#139401
0I
b0 J
#139402
1L
b1001101111001 M
#139428
1A
b11100101010000000 B
#139445
0Q
b0 R
#139446
1T
b1001101111001 U
#139472
1I
b11100101010110110 J
#139489
0Y
b0 Z
#139490
1\
b1001101111001 ]
#139516
1Q
b11100101100010110 R
#139533
0a
b0 b
#139534
1d
b1001101111001 e
#139560
1Y
b11100101101110010 Z
#139577
0i
b0 j
#139578
1l
b1001101111001 m
#139604
1a
b11100101111010010 b
#139621
0q
b0 r
#139622
1t
b1001101111001 u
#139648
1i
b11100101111111110 j
#139665
0y
b0 z
#139666
1|
b1001101111001 }
#139692
1q
b11100110001000010 r
#139709
0!
b0 "
#139710
1$
b1001101111001 %
#139736
1y
b11100110001110100 z
#139753
0)
b0 *
#139754
1,
b1001101111001 -
#139780
1!
b11100110001111010 "
#139797
01
b0 2
#139798
14
b1001101111001 5
#139824
1)
b11100110010011100 *
#139841
09
b0 :
#139842
1<
b1001101111001 =
#139868
11
b11100110010110000 2
#139912
19
b11100110011000000 :
#143991
0&!
b0 '!
#143992
1(!
b1 )!
#143993
0(!
b0 )!
#143995
b1 *!
#144035
0.!
b0 /!
#144036
10!
b1 1!
#144037
00!
b0 1!
#144039
b1 2!
#144079
06!
b0 7!
#144080
18!
b1 9!
#144081
08!
b0 9!
#144083
b1 :!
#144123
0>!
b0 ?!
#144124
1@!
b1 A!
#144125
0@!
b0 A!
#144127
b1 B!
#144343
0D
b0 E
#144344
1F
b1 G
#144345
0F
b0 G
#144347
b1 H
#144387
0L
b0 M
#144388
1N
b1 O
#144389
0N
b0 O
#144391
b1 P
#144431
0T
b0 U
#144432
1V
b1 W
#144433
0V
b0 W
#144435
b1 X
#144475
0\
b0 ]
#144476
1^
b1 _
#144477
0^
b0 _
#144479
b1 `
#144519
0d
b0 e
#144520
1f
b1 g
#144521
0f
b0 g
#144523
b1 h
#144563
0l
b0 m
#144564
1n
b1 o
#144565
0n
b0 o
#144567
b1 p
#144607
0t
b0 u
#144608
1v
b1 w
#144609
0v
b0 w
#144611
b1 x
#144651
0|
b0 }
#144652
1~
b1 !!
#144653
0~
b0 !!
#144655
b1 "!
#144695
0$
b0 %
#144696
1&
b1 '
#144697
0&
b0 '
#144699
b1 (
#144739
0,
b0 -
#144740
1.
b1 /
#144741
0.
b0 /
#144743
b1 0
#144783
04
b0 5
#144784
16
b1 7
#144785
06
b0 7
#144787
b1 8
#144827
0<
b0 =
#144828
1>
b1 ?
#144829
0>
b0 ?
#144831
b1 @
#256102
0#!
b0 $!
#256103
1&!
b1001110011101 '!
#256106
0+!
b0 ,!
#256107
1.!
b1001110011101 /!
#256110
03!
b0 4!
#256111
16!
b1001110011101 7!
#256114
0;!
b0 <!
#256115
1>!
b1001110011101 ?!
#256173
1#!
b10100110010000100 $!
#256177
1+!
b10100110010000010 ,!
#256181
13!
b10100110010011110 4!
#256185
1;!
b10100110011000110 <!
#256804
0A
b0 B
#256805
1D
b1001110011101 E
#256875
1A
b10101000011101000 B
#256902
0I
b0 J
#256903
1L
b1001110011101 M
#256973
1I
b10101000101111100 J
#257042
0Q
b0 R
#257043
1T
b1001110011101 U
#257113
1Q
b10101000100011100 R
#257178
0Y
b0 Z
#257179
1\
b1001110011101 ]
#257249
1Y
b10101001010101000 Z
#257318
0a
b0 b
#257319
1d
b1001110011101 e
#257389
1a
b10101001100101010 b
#257406
0i
b0 j
#257407
1l
b1001110011101 m
#257477
1i
b10101001111101100 j
#257518
0q
b0 r
#257519
1t
b1001110011101 u
#257589
1q
b10101010010001100 r
#257612
0y
b0 z
#257613
1|
b1001110011101 }
#257662
0!
b0 "
#257663
1$
b1001110011101 %
#257683
1y
b10101010111111110 z
#257733
1!
b10101010111111000 "
#257740
0)
b0 *
#257741
1,
b1001110011101 -
#257804
01
b0 2
#257805
14
b1001110011101 5
#257811
1)
b10101011101011000 *
#257864
09
b0 :
#257865
1<
b1001110011101 =
#257875
11
b10101100001010010 2
#257935
19
b10101100010100010 :
#261124
0&!
b0 '!
#261125
1(!
b1 )!
#261126
0(!
b0 )!
#261128
0.!
b0 /!
b10 *!
#261129
10!
b1 1!
#261130
00!
b0 1!
#261132
06!
b0 7!
b10 2!
#261133
18!
b1 9!
#261134
08!
b0 9!
#261136
0>!
b0 ?!
b10 :!
#261137
1@!
b1 A!
#261138
0@!
b0 A!
#261140
b10 B!
#261826
0D
b0 E
#261827
1F
b1 G
#261828
0F
b0 G
#261830
b10 H
#261924
0L
b0 M
#261925
1N
b1 O
#261926
0N
b0 O
#261928
b10 P
#262064
0T
b0 U
#262065
1V
b1 W
#262066
0V
b0 W
#262068
b10 X
#262200
0\
b0 ]
#262201
1^
b1 _
#262202
0^
b0 _
#262204
b10 `
#262340
0d
b0 e
#262341
1f
b1 g
#262342
0f
b0 g
#262344
b10 h
#262428
0l
b0 m
#262429
1n
b1 o
#262430
0n
b0 o
#262432
b10 p
#262540
0t
b0 u
#262541
1v
b1 w
#262542
0v
b0 w
#262544
b10 x
#262634
0|
b0 }
#262635
1~
b1 !!
#262636
0~
b0 !!
#262638
b10 "!
#262684
0$
b0 %
#262685
1&
b1 '
#262686
0&
b0 '
#262688
b10 (
#262762
0,
b0 -
#262763
1.
b1 /
#262764
0.
b0 /
#262766
b10 0
#262826
04
b0 5
#262827
16
b1 7
#262828
06
b0 7
#262830
b10 8
#262886
0<
b0 =
#262887
1>
b1 ?
#262888
0>
b0 ?
#262890
b10 @
#341297
0#!
b0 $!
#341298
1&!
b1001110011101 '!
#341299
0+!
b0 ,!
#341300
1.!
b1001110011101 /!
#341331
03!
b0 4!
#341332
16!
b1001110011101 7!
#341368
1#!
b10111011110001001 $!
#341370
1+!
b10111011110001001 ,!
#341375
0;!
b0 <!
#341376
1>!
b1001110011101 ?!
#341402
13!
b10111011101101011 4!
#341446
1;!
b10111011101011101 <!
#343123
0A
b0 B
#343124
1D
b1001110011101 E
#343194
1A
b10111011011111101 B
#343369
0I
b0 J
#343370
1L
b1001110011101 M
#343413
0Q
b0 R
#343414
1T
b1001110011101 U
#343440
1I
b10111011011111111 J
#343484
1Q
b10111011011010101 R
#343945
0Y
b0 Z
#343946
1\
b1001110011101 ]
#344016
1Y
b10111011010000001 Z
#344215
0a
b0 b
#344216
1d
b1001110011101 e
#344286
1a
b10111011000110001 b
#344497
0i
b0 j
#344498
1l
b1001110011101 m
#344568
1i
b10111011100111111 j
#344769
0q
b0 r
#344770
1t
b1001110011101 u
#344840
1q
b10111011110010111 r
#345233
0y
b0 z
#345234
1|
b1001110011101 }
#345277
0!
b0 "
#345278
1$
b1001110011101 %
#345304
1y
b10111011100110111 z
#345348
1!
b10111011100110111 "
#345707
0)
b0 *
#345708
1,
b1001110011101 -
#345778
1)
b10111011010110001 *
#346021
01
b0 2
#346022
14
b1001110011101 5
#346092
11
b10111011010011101 2
#346161
09
b0 :
#346162
1<
b1001110011101 =
#346232
19
b10111011100010001 :
#346319
0&!
b0 '!
#346320
1(!
b1 )!
#346321
0.!
b0 /!
0(!
b0 )!
#346322
10!
b1 1!
#346323
00!
b0 1!
b11 *!
#346325
b11 2!
#346353
06!
b0 7!
#346354
18!
b1 9!
#346355
08!
b0 9!
#346357
b11 :!
#346397
0>!
b0 ?!
#346398
1@!
b1 A!
#346399
0@!
b0 A!
#346401
b11 B!
#348145
0D
b0 E
#348146
1F
b1 G
#348147
0F
b0 G
#348149
b11 H
#348391
0L
b0 M
#348392
1N
b1 O
#348393
0N
b0 O
#348395
b11 P
#348435
0T
b0 U
#348436
1V
b1 W
#348437
0V
b0 W
#348439
b11 X
#348967
0\
b0 ]
#348968
1^
b1 _
#348969
0^
b0 _
#348971
b11 `
#349237
0d
b0 e
#349238
1f
b1 g
#349239
0f
b0 g
#349241
b11 h
#349519
0l
b0 m
#349520
1n
b1 o
#349521
0n
b0 o
#349523
b11 p
#349791
0t
b0 u
#349792
1v
b1 w
#349793
0v
b0 w
#349795
b11 x
#350255
0|
b0 }
#350256
1~
b1 !!
#350257
0~
b0 !!
#350259
b11 "!
#350299
0$
b0 %
#350300
1&
b1 '
#350301
0&
b0 '
#350303
b11 (
#350729
0,
b0 -
#350730
1.
b1 /
#350731
0.
b0 /
#350733
b11 0
#351043
04
b0 5
#351044
16
b1 7
#351045
06
b0 7
#351047
b11 8
#351183
0<
b0 =
#351184
1>
b1 ?
#351185
0>
b0 ?
#351187
b11 @
#437505
0#!
b0 $!
#437506
1&!
b1001110011101 '!
#437507
0+!
b0 ,!
#437508
1.!
b1001110011101 /!
#437509
03!
b0 4!
#437510
16!
b1001110011101 7!
#437539
0;!
b0 <!
#437540
1>!
b1001110011101 ?!
#437576
1#!
b10111000111111101 $!
#437578
1+!
b10111000111111101 ,!
#437580
13!
b10111001000011001 4!
#437610
1;!
b10111001000110011 <!
#439191
0A
b0 B
#439192
1D
b1001110011101 E
#439262
1A
b10111001100000111 B
#439439
0I
b0 J
#439440
1L
b1001110011101 M
#439441
0Q
b0 R
#439442
1T
b1001110011101 U
#439510
1I
b10111001100110011 J
#439512
1Q
b10111001101011001 R
#439889
0Y
b0 Z
#439890
1\
b1001110011101 ]
#439960
1Y
b10111001110011011 Z
#440079
0a
b0 b
#440080
1d
b1001110011101 e
#440150
1a
b10111001111000011 b
#440631
0i
b0 j
#440632
1l
b1001110011101 m
#440702
1i
b10111001101110011 j
#440991
0q
b0 r
#440992
1t
b1001110011101 u
#441062
1q
b10111001111011101 r
#441359
0y
b0 z
#441360
1|
b1001110011101 }
#441403
0!
b0 "
#441404
1$
b1001110011101 %
#441430
1y
b10111010000110111 z
#441474
1!
b10111010000111001 "
#441699
0)
b0 *
#441700
1,
b1001110011101 -
#441770
1)
b10111010001100111 *
#441993
01
b0 2
#441994
14
b1001110011101 5
#442064
11
b10111010010001111 2
#442249
09
b0 :
#442250
1<
b1001110011101 =
#442320
19
b10111010100010101 :
#442527
0&!
b0 '!
#442528
1(!
b1 )!
#442529
0.!
b0 /!
0(!
b0 )!
#442530
10!
b1 1!
#442531
06!
b0 7!
00!
b0 1!
b100 *!
#442532
18!
b1 9!
#442533
08!
b0 9!
b100 2!
#442535
b100 :!
#442561
0>!
b0 ?!
#442562
1@!
b1 A!
#442563
0@!
b0 A!
#442565
b100 B!
#444213
0D
b0 E
#444214
1F
b1 G
#444215
0F
b0 G
#444217
b100 H
#444461
0L
b0 M
#444462
1N
b1 O
#444463
0T
b0 U
0N
b0 O
#444464
1V
b1 W
#444465
0V
b0 W
b100 P
#444467
b100 X
#444911
0\
b0 ]
#444912
1^
b1 _
#444913
0^
b0 _
#444915
b100 `
#445101
0d
b0 e
#445102
1f
b1 g
#445103
0f
b0 g
#445105
b100 h
#445653
0l
b0 m
#445654
1n
b1 o
#445655
0n
b0 o
#445657
b100 p
#446013
0t
b0 u
#446014
1v
b1 w
#446015
0v
b0 w
#446017
b100 x
#446381
0|
b0 }
#446382
1~
b1 !!
#446383
0~
b0 !!
#446385
b100 "!
#446425
0$
b0 %
#446426
1&
b1 '
#446427
0&
b0 '
#446429
b100 (
#446721
0,
b0 -
#446722
1.
b1 /
#446723
0.
b0 /
#446725
b100 0
#447015
04
b0 5
#447016
16
b1 7
#447017
06
b0 7
#447019
b100 8
#447271
0<
b0 =
#447272
1>
b1 ?
#447273
0>
b0 ?
#447275
b100 @
#532293
0#!
b0 $!
#532294
1&!
b1001110011101 '!
#532295
0+!
b0 ,!
#532296
1.!
b1001110011101 /!
#532325
03!
b0 4!
#532326
16!
b1001110011101 7!
#532364
1#!
b10111010011011101 $!
#532366
1+!
b10111010011011101 ,!
#532381
0;!
b0 <!
#532382
1>!
b1001110011101 ?!
#532396
13!
b10111010011011001 4!
#532452
1;!
b10111010011001101 <!
#534245
0A
b0 B
#534246
1D
b1001110011101 E
#534316
1A
b10111001110110001 B
#534537
0I
b0 J
#534538
1L
b1001110011101 M
#534577
0Q
b0 R
#534578
1T
b1001110011101 U
#534608
1I
b10111001110011111 J
#534648
1Q
b10111001110100011 R
#535091
0Y
b0 Z
#535092
1\
b1001110011101 ]
#535162
1Y
b10111001110010101 Z
#535321
0a
b0 b
#535322
1d
b1001110011101 e
#535392
1a
b10111001110000001 b
#535793
0i
b0 j
#535794
1l
b1001110011101 m
#535864
1i
b10111001101001101 j
#536259
0q
b0 r
#536260
1t
b1001110011101 u
#536330
1q
b10111010000011001 r
#536717
0y
b0 z
#536718
1|
b1001110011101 }
#536763
0!
b0 "
#536764
1$
b1001110011101 %
#536788
1y
b10111010000010011 z
#536834
1!
b10111010000010011 "
#537105
0)
b0 *
#537106
1,
b1001110011101 -
#537176
1)
b10111010000001101 *
#537315
0&!
b0 '!
#537316
1(!
b1 )!
#537317
0.!
b0 /!
0(!
b0 )!
#537318
10!
b1 1!
#537319
00!
b0 1!
b101 *!
#537321
b101 2!
#537347
06!
b0 7!
#537348
18!
b1 9!
#537349
08!
b0 9!
#537351
b101 :!
#537403
0>!
b0 ?!
#537404
1@!
b1 A!
#537405
0@!
b0 A!
#537407
b101 B!
#537439
01
b0 2
#537440
14
b1001110011101 5
#537510
11
b10111001111100011 2
#537829
09
b0 :
#537830
1<
b1001110011101 =
#537900
19
b10111010001101111 :
#539267
0D
b0 E
#539268
1F
b1 G
#539269
0F
b0 G
#539271
b101 H
#539559
0L
b0 M
#539560
1N
b1 O
#539561
0N
b0 O
#539563
b101 P
#539599
0T
b0 U
#539600
1V
b1 W
#539601
0V
b0 W
#539603
b101 X
#540113
0\
b0 ]
#540114
1^
b1 _
#540115
0^
b0 _
#540117
b101 `
#540343
0d
b0 e
#540344
1f
b1 g
#540345
0f
b0 g
#540347
b101 h
#540815
0l
b0 m
#540816
1n
b1 o
#540817
0n
b0 o
#540819
b101 p
#541281
0t
b0 u
#541282
1v
b1 w
#541283
0v
b0 w
#541285
b101 x
#541739
0|
b0 }
#541740
1~
b1 !!
#541741
0~
b0 !!
#541743
b101 "!
#541785
0$
b0 %
#541786
1&
b1 '
#541787
0&
b0 '
#541789
b101 (
#542127
0,
b0 -
#542128
1.
b1 /
#542129
0.
b0 /
#542131
b101 0
#542461
04
b0 5
#542462
16
b1 7
#542463
06
b0 7
#542465
b101 8
#542851
0<
b0 =
#542852
1>
b1 ?
#542853
0>
b0 ?
#542855
b101 @
#627817
0#!
b0 $!
#627818
1&!
b1001110011101 '!
#627819
0+!
b0 ,!
#627820
1.!
b1001110011101 /!
#627845
03!
b0 4!
#627846
16!
b1001110011101 7!
#627888
1#!
b10110110110011111 $!
#627889
0;!
b0 <!
#627890
1+!
b10110110110011111 ,!
1>!
b1001110011101 ?!
#627916
13!
b10110110110000111 4!
#627960
1;!
b10110110101111101 <!
#629469
0A
b0 B
#629470
1D
b1001110011101 E
#629540
1A
b10110110110001101 B
#629743
0I
b0 J
#629744
1L
b1001110011101 M
#629787
0Q
b0 R
#629788
1T
b1001110011101 U
#629814
1I
b10110110110001101 J
#629858
1Q
b10110110110001101 R
#630287
0Y
b0 Z
#630288
1\
b1001110011101 ]
#630358
1Y
b10110110110001101 Z
#630497
0a
b0 b
#630498
1d
b1001110011101 e
#630568
1a
b10110110110001011 b
#630917
0i
b0 j
#630918
1l
b1001110011101 m
#630988
1i
b10110110101011011 j
#631587
0q
b0 r
#631588
1t
b1001110011101 u
#631658
1q
b10110110111111101 r
#632039
0y
b0 z
#632040
1|
b1001110011101 }
#632085
0!
b0 "
#632086
1$
b1001110011101 %
#632110
1y
b10110111000001101 z
#632156
1!
b10110111000001011 "
#632421
0)
b0 *
#632422
1,
b1001110011101 -
#632492
1)
b10110111000110111 *
#632713
01
b0 2
#632714
14
b1001110011101 5
#632784
11
b10110111001010101 2
#632839
0&!
b0 '!
#632840
1(!
b1 )!
#632841
0.!
b0 /!
0(!
b0 )!
#632842
10!
b1 1!
#632843
00!
b0 1!
b110 *!
#632845
b110 2!
#632867
06!
b0 7!
#632868
18!
b1 9!
#632869
08!
b0 9!
#632871
b110 :!
#632911
0>!
b0 ?!
#632912
1@!
b1 A!
#632913
0@!
b0 A!
#632915
b110 B!
#633243
09
b0 :
#633244
1<
b1001110011101 =
#633314
19
b10110111010100101 :
#634491
0D
b0 E
#634492
1F
b1 G
#634493
0F
b0 G
#634495
b110 H
#634765
0L
b0 M
#634766
1N
b1 O
#634767
0N
b0 O
#634769
b110 P
#634809
0T
b0 U
#634810
1V
b1 W
#634811
0V
b0 W
#634813
b110 X
#635309
0\
b0 ]
#635310
1^
b1 _
#635311
0^
b0 _
#635313
b110 `
#635519
0d
b0 e
#635520
1f
b1 g
#635521
0f
b0 g
#635523
b110 h
#635939
0l
b0 m
#635940
1n
b1 o
#635941
0n
b0 o
#635943
b110 p
#636609
0t
b0 u
#636610
1v
b1 w
#636611
0v
b0 w
#636613
b110 x
#637061
0|
b0 }
#637062
1~
b1 !!
#637063
0~
b0 !!
#637065
b110 "!
#637107
0$
b0 %
#637108
1&
b1 '
#637109
0&
b0 '
#637111
b110 (
#637443
0,
b0 -
#637444
1.
b1 /
#637445
0.
b0 /
#637447
b110 0
#637735
04
b0 5
#637736
16
b1 7
#637737
06
b0 7
#637739
b110 8
#638265
0<
b0 =
#638266
1>
b1 ?
#638267
0>
b0 ?
#638269
b110 @
#721487
0#!
b0 $!
#721488
1&!
b1001110011101 '!
#721489
0+!
b0 ,!
#721490
1.!
b1001110011101 /!
#721491
03!
b0 4!
#721492
16!
b1001110011101 7!
#721525
0;!
b0 <!
#721526
1>!
b1001110011101 ?!
#721558
1#!
b10111000010010101 $!
#721560
1+!
b10111000010010101 ,!
#721562
13!
b10111000010110111 4!
#721596
1;!
b10111000011000001 <!
#723121
0A
b0 B
#723122
1D
b1001110011101 E
#723192
1A
b10111000001011101 B
#723395
0I
b0 J
#723396
1L
b1001110011101 M
#723439
0Q
b0 R
#723440
1T
b1001110011101 U
#723466
1I
b10111000000110101 J
#723510
1Q
b10111000000111011 R
#723939
0Y
b0 Z
#723940
1\
b1001110011101 ]
#724010
1Y
b10111000000100011 Z
#724147
0a
b0 b
#724148
1d
b1001110011101 e
#724218
1a
b10111000011101101 b
#724519
0i
b0 j
#724520
1l
b1001110011101 m
#724590
1i
b10111000100100001 j
#725351
0q
b0 r
#725352
1t
b1001110011101 u
#725422
1q
b10111000000101011 r
#725819
0y
b0 z
#725820
1|
b1001110011101 }
#725863
0!
b0 "
#725864
1$
b1001110011101 %
#725890
1y
b10111000011110101 z
#725934
1!
b10111000000001101 "
#726243
0)
b0 *
#726244
1,
b1001110011101 -
#726314
1)
b10111000011100111 *
#726509
0&!
b0 '!
#726510
1(!
b1 )!
#726511
0.!
b0 /!
0(!
b0 )!
#726512
10!
b1 1!
#726513
06!
b0 7!
00!
b0 1!
b111 *!
#726514
18!
b1 9!
#726515
08!
b0 9!
b111 2!
#726517
b111 :!
#726547
0>!
b0 ?!
#726548
1@!
b1 A!
#726549
0@!
b0 A!
#726551
b111 B!
#726565
01
b0 2
#726566
14
b1001110011101 5
#726636
11
b10111001001101001 2
#727175
09
b0 :
#727176
1<
b1001110011101 =
#727246
19
b10111001001111001 :
#728143
0D
b0 E
#728144
1F
b1 G
#728145
0F
b0 G
#728147
b111 H
#728417
0L
b0 M
#728418
1N
b1 O
#728419
0N
b0 O
#728421
b111 P
#728461
0T
b0 U
#728462
1V
b1 W
#728463
0V
b0 W
#728465
b111 X
#728961
0\
b0 ]
#728962
1^
b1 _
#728963
0^
b0 _
#728965
b111 `
#729169
0d
b0 e
#729170
1f
b1 g
#729171
0f
b0 g
#729173
b111 h
#729541
0l
b0 m
#729542
1n
b1 o
#729543
0n
b0 o
#729545
b111 p
#730373
0t
b0 u
#730374
1v
b1 w
#730375
0v
b0 w
#730377
b111 x
#730841
0|
b0 }
#730842
1~
b1 !!
#730843
0~
b0 !!
#730845
b111 "!
#730885
0$
b0 %
#730886
1&
b1 '
#730887
0&
b0 '
#730889
b111 (
#731265
0,
b0 -
#731266
1.
b1 /
#731267
0.
b0 /
#731269
b111 0
#731587
04
b0 5
#731588
16
b1 7
#731589
06
b0 7
#731591
b111 8
#732197
0<
b0 =
#732198
1>
b1 ?
#732199
0>
b0 ?
#732201
b111 @
#815915
0#!
b0 $!
#815916
1&!
b1001110011101 '!
#815917
0+!
b0 ,!
#815918
1.!
b1001110011101 /!
#815953
03!
b0 4!
#815954
16!
b1001110011101 7!
#815986
1#!
b10111101011001011 $!
#815988
1+!
b10111101011001011 ,!
#815997
0;!
b0 <!
#815998
1>!
b1001110011101 ?!
#816024
13!
b10111101010111001 4!
#816068
1;!
b10111101010111001 <!
#817493
0A
b0 B
#817494
1D
b1001110011101 E
#817564
1A
b10111101111101001 B
#817727
0I
b0 J
#817728
1L
b1001110011101 M
#817777
0Q
b0 R
#817778
1T
b1001110011101 U
#817798
1I
b10111101111110011 J
#817848
1Q
b10111101111101101 R
#818253
0Y
b0 Z
#818254
1\
b1001110011101 ]
#818324
1Y
b10111101110110011 Z
#818663
0a
b0 b
#818664
1d
b1001110011101 e
#818734
1a
b10111101110111011 b
#819087
0i
b0 j
#819088
1l
b1001110011101 m
#819158
1i
b10111110010000101 j
#819673
0q
b0 r
#819674
1t
b1001110011101 u
#819744
1q
b10111101110101011 r
#820155
0!
b0 "
#820156
1$
b1001110011101 %
#820226
1!
b10111101101111001 "
#820343
0y
b0 z
#820344
1|
b1001110011101 }
#820414
1y
b10111110000101001 z
#820753
0)
b0 *
#820754
1,
b1001110011101 -
#820824
1)
b10111110000011101 *
#820937
0&!
b0 '!
#820938
1(!
b1 )!
#820939
0.!
b0 /!
0(!
b0 )!
#820940
10!
b1 1!
#820941
00!
b0 1!
b1000 *!
#820943
b1000 2!
#820975
06!
b0 7!
#820976
18!
b1 9!
#820977
08!
b0 9!
#820979
b1000 :!
#821019
0>!
b0 ?!
#821020
1@!
b1 A!
#821021
0@!
b0 A!
#821023
b1000 B!
#821461
01
b0 2
#821462
14
b1001110011101 5
#821532
11
b10111101000010001 2
#822087
09
b0 :
#822088
1<
b1001110011101 =
#822158
19
b10111101001101001 :
#822515
0D
b0 E
#822516
1F
b1 G
#822517
0F
b0 G
#822519
b1000 H
#822749
0L
b0 M
#822750
1N
b1 O
#822751
0N
b0 O
#822753
b1000 P
#822799
0T
b0 U
#822800
1V
b1 W
#822801
0V
b0 W
#822803
b1000 X
#823275
0\
b0 ]
#823276
1^
b1 _
#823277
0^
b0 _
#823279
b1000 `
#823685
0d
b0 e
#823686
1f
b1 g
#823687
0f
b0 g
#823689
b1000 h
#824109
0l
b0 m
#824110
1n
b1 o
#824111
0n
b0 o
#824113
b1000 p
#824695
0t
b0 u
#824696
1v
b1 w
#824697
0v
b0 w
#824699
b1000 x
#825177
0$
b0 %
#825178
1&
b1 '
#825179
0&
b0 '
#825181
b1000 (
#825365
0|
b0 }
#825366
1~
b1 !!
#825367
0~
b0 !!
#825369
b1000 "!
#825775
0,
b0 -
#825776
1.
b1 /
#825777
0.
b0 /
#825779
b1000 0
#826483
04
b0 5
#826484
16
b1 7
#826485
06
b0 7
#826487
b1000 8
#827109
0<
b0 =
#827110
1>
b1 ?
#827111
0>
b0 ?
#827113
b1000 @
#912957
0#!
b0 $!
#912958
1&!
b1001110011101 '!
#912959
0+!
b0 ,!
#912960
1.!
b1001110011101 /!
#912977
03!
b0 4!
#912978
16!
b1001110011101 7!
